deltaTime	avgXGazingUncertainty	avgYGazingUncertainty	gazeX	gazeY	headX	headY	headZ	headRotationX	headRotationY	headRotationZ	headRotationW	faceRaycastHitObjectName	gazeRaycastHitObjectName	faceRaycastHitTriangleName	gazeRaycastHitTriangleName
0.0127269178628922	0.0153899788856506	0.0180699527263641	0.493201613426209	0.566949844360352	4.92115545272827	0.791595041751862	4.3311710357666	0.162834450602531	-0.213805243372917	-0.0294916331768036	-0.962757766246796	Bartender_HumanMale_Mesh_LOD1	Bartender_HumanMale_Mesh_LOD1	-1	-1
0.0100096957758069	0.0153899788856506	0.0180699527263641	0.493201613426209	0.566949844360352	4.92112064361572	0.791491568088531	4.3311710357666	0.16265195608139	-0.213723391294479	-0.0293309092521667	-0.962811768054962	Bartender_HumanMale_Mesh_LOD1	Bartender_HumanMale_Mesh_LOD1	-1	-1
0.0101944152265787	0.0153899788856506	0.0180699527263641	0.493201613426209	0.566949844360352	4.92109251022339	0.791488230228424	4.33123397827148	0.162523344159126	-0.213843628764153	-0.0290120095014572	-0.962816417217255	Bartender_HumanMale_Mesh_LOD1	Bartender_HumanMale_Mesh_LOD1	-1	-1
0.0111379195004702	0.0157053172588348	0.0183957815170288	0.496784001588821	0.567073404788971	4.92104434967041	0.791518986225128	4.331214427948	0.162450566887856	-0.213876605033875	-0.0288833752274513	-0.962825179100037	Bartender_HumanMale_Mesh_LOD1	Bartender_HumanMale_Mesh_LOD1	-1	-1
0.011262041516602	0.0157053172588348	0.0183957815170288	0.496784001588821	0.567073404788971	4.92099571228027	0.791474938392639	4.33120918273926	0.162339210510254	-0.21377170085907	-0.0289033371955156	-0.9628666639328	Bartender_HumanMale_Mesh_LOD1	Bartender_HumanMale_Mesh_LOD1	-1	-1
0.0124816009774804	0.0157053172588348	0.0183957815170288	0.496784001588821	0.567073404788971	4.92095327377319	0.79146009683609	4.33129119873047	0.162407711148262	-0.213835850358009	-0.0290519148111343	-0.962836444377899	Bartender_HumanMale_Mesh_LOD1	Bartender_HumanMale_Mesh_LOD1	-1	-1
0.0102204689756036	0.0157053172588348	0.0183957815170288	0.496784001588821	0.567073404788971	4.92090082168579	0.791522562503815	4.33133316040039	0.162318974733353	-0.213698640465736	-0.0293209813535213	-0.962873697280884	Bartender_HumanMale_Mesh_LOD1	Bartender_HumanMale_Mesh_LOD1	-1	-1
0.010911338031292	0.0157996267080307	0.0185112059116364	0.49961131811142	0.567202687263489	4.92090797424316	0.791531980037689	4.33133840560913	0.162564784288406	-0.213517308235168	-0.0292342882603407	-0.962875068187714	Bartender_HumanMale_Mesh_LOD1	Bartender_HumanMale_Mesh_LOD1	-1	-1
0.0112219359725714	0.0157996267080307	0.0185112059116364	0.49961131811142	0.567202687263489	4.92083597183228	0.79156905412674	4.33123207092285	0.162802770733833	-0.213462933897972	-0.0293151903897524	-0.962844431400299	Bartender_HumanMale_Mesh_LOD1	Bartender_HumanMale_Mesh_LOD1	-1	-1
0.0105471685528755	0.0157996267080307	0.0185112059116364	0.49961131811142	0.567202687263489	4.9208984375	0.791488647460938	4.33125972747803	0.162834420800209	-0.213285908102989	-0.0291641149669886	-0.962882936000824	Bartender_HumanMale_Mesh_LOD1	Bartender_HumanMale_Mesh_LOD1	-1	-1
0.0204994864761829	0.0152099877595901	0.0191366672515869	0.503053247928619	0.5665522813797	4.92089080810547	0.791482865810394	4.33126258850098	0.162553086876869	-0.213232636451721	-0.0291516184806824	-0.962942659854889	Bartender_HumanMale_Mesh_LOD1	Bartender_HumanMale_Mesh_LOD1	-1	-1
0.00793533213436604	0.0152099877595901	0.0191366672515869	0.503053247928619	0.5665522813797	4.92087507247925	0.791463017463684	4.33131265640259	0.16232493519783	-0.213078513741493	-0.0293691027909517	-0.963008642196655	Bartender_HumanMale_Mesh_LOD1	Bartender_HumanMale_Mesh_LOD1	-1	-1
0.0170489475131035	0.0159989148378372	0.0197598934173584	0.504753053188324	0.566240906715393	4.92091035842896	0.791432797908783	4.33123207092285	0.162288814783096	-0.212856963276863	-0.0298830159008503	-0.963047921657562	Bartender_HumanMale_Mesh_LOD1	Bartender_HumanMale_Mesh_LOD1	-1	-1
0.0103805987164378	0.0159989148378372	0.0197598934173584	0.504753053188324	0.566240906715393	4.92094230651855	0.791421473026276	4.33127784729004	0.162522614002228	-0.212693259119987	-0.0296876076608896	-0.963050663471222	Bartender_HumanMale_Mesh_LOD1	Bartender_HumanMale_Mesh_LOD1	-1	-1
0.0120070679113269	0.0153476148843765	0.0186950266361237	0.508296370506287	0.566716909408569	4.92096710205078	0.791431367397308	4.33123111724854	0.162704557180405	-0.212643072009087	-0.0292670670896769	-0.963043928146362	Bartender_HumanMale_Mesh_LOD1	Bartender_HumanMale_Mesh_LOD1	-1	-1
0.0111174276098609	0.0153476148843765	0.0186950266361237	0.508296370506287	0.566716909408569	4.92099905014038	0.791435182094574	4.33117389678955	0.162701815366745	-0.212757363915443	-0.0290122013539076	-0.963026881217957	Bartender_HumanMale_Mesh_LOD1	Bartender_HumanMale_Mesh_LOD1	-1	-1
0.0104350484907627	0.0153476148843765	0.0186950266361237	0.508296370506287	0.566716909408569	4.92101097106934	0.791425287723541	4.33117485046387	0.162833899259567	-0.212970778346062	-0.0289211384952068	-0.962960064411163	Bartender_HumanMale_Mesh_LOD1	Bartender_HumanMale_Mesh_LOD1	-1	-1
0.0112588219344616	0.0153476148843765	0.0186950266361237	0.508296370506287	0.566716909408569	4.92106771469116	0.791415393352509	4.33105754852295	0.16283144056797	-0.213111221790314	-0.0289912782609463	-0.962927341461182	Bartender_HumanMale_Mesh_LOD1	Bartender_HumanMale_Mesh_LOD1	-1	-1
0.0116209425032139	0.0175343453884125	0.0146441459655762	0.501346945762634	0.578860759735107	4.9212064743042	0.791463792324066	4.33099555969238	0.162720903754234	-0.213250502943993	-0.0291305519640446	-0.962911009788513	Bartender_HumanMale_Mesh_LOD1	Bartender_HumanMale_Mesh_LOD1	-1	-1
0.0108202956616879	0.0175343453884125	0.0146441459655762	0.501346945762634	0.578860759735107	4.92123413085938	0.791467249393463	4.3309326171875	0.162742450833321	-0.213436275720596	-0.0290901437401772	-0.962867438793182	Bartender_HumanMale_Mesh_LOD1	Bartender_HumanMale_Mesh_LOD1	-1	-1
0.0108065372332931	0.0175343453884125	0.0146441459655762	0.501346945762634	0.578860759735107	4.92134284973145	0.791440010070801	4.33088445663452	0.162716865539551	-0.213576823472977	-0.0290224738419056	-0.962842583656311	Bartender_HumanMale_Mesh_LOD1	Bartender_HumanMale_Mesh_LOD1	-1	-1
0.0119631569832563	0.0175343453884125	0.0146441459655762	0.501346945762634	0.578860759735107	4.92149066925049	0.791546523571014	4.33084297180176	0.162716165184975	-0.213912755250931	-0.0288336854428053	-0.96277379989624	Bartender_HumanMale_Mesh_LOD1	Bartender_HumanMale_Mesh_LOD1	-1	-1
0.0129742845892906	0.0166506767272949	0.0151726305484772	0.504535734653473	0.579133272171021	4.92151832580566	0.791586697101593	4.33084583282471	0.162872299551964	-0.214003160595894	-0.0287075247615576	-0.962731122970581	Bartender_HumanMale_Mesh_LOD1	Bartender_HumanMale_Mesh_LOD1	-1	-1
0.0151300299912691	0.0166506767272949	0.0151726305484772	0.504535734653473	0.579133272171021	4.92155456542969	0.79162073135376	4.33080196380615	0.162985846400261	-0.214112773537636	-0.02854716591537	-0.962692320346832	Bartender_HumanMale_Mesh_LOD1	Bartender_HumanMale_Mesh_LOD1	-1	-1
0.00580915389582515	0.0166506767272949	0.0151726305484772	0.504535734653473	0.579133272171021	4.92148113250732	0.791516482830048	4.33074951171875	0.16297048330307	-0.214312598109245	-0.0285692140460014	-0.962649762630463	Bartender_HumanMale_Mesh_LOD1	Bartender_HumanMale_Mesh_LOD1	-1	-1
0.00994529295712709	0.0166506767272949	0.0151726305484772	0.504535734653473	0.579133272171021	4.92146825790405	0.791538774967194	4.33070087432861	0.162908315658569	-0.214592233300209	-0.0284940339624882	-0.962600231170654	Bartender_HumanMale_Mesh_LOD1	Bartender_HumanMale_Mesh_LOD1	-1	-1
0.0114807197824121	0.0173346698284149	0.0154653787612915	0.506457209587097	0.578495562076569	4.92157125473022	0.791489124298096	4.33066940307617	0.16296412050724	-0.214490681886673	-0.0284084565937519	-0.96261590719223	Bartender_HumanMale_Mesh_LOD1	Bartender_HumanMale_Mesh_LOD1	-1	-1
0.011430075392127	0.0173346698284149	0.0154653787612915	0.506457209587097	0.578495562076569	4.92155647277832	0.79146546125412	4.33065700531006	0.16291455924511	-0.214492172002792	-0.0283930003643036	-0.962624430656433	Bartender_HumanMale_Mesh_LOD1	Bartender_HumanMale_Mesh_LOD1	-1	-1
0.0109283169731498	0.0173346698284149	0.0154653787612915	0.506457209587097	0.578495562076569	4.92155408859253	0.791473686695099	4.33066749572754	0.163011163473129	-0.214458614587784	-0.0284862089902163	-0.962612807750702	Bartender_HumanMale_Mesh_LOD1	Bartender_HumanMale_Mesh_LOD1	-1	-1
0.0115430736914277	0.0169932842254639	0.0165035128593445	0.508082747459412	0.578169941902161	4.92151975631714	0.791521370410919	4.33073711395264	0.162844076752663	-0.214347437024117	-0.0285277180373669	-0.962664663791656	Bartender_HumanMale_Mesh_LOD1	Bartender_HumanMale_Mesh_LOD1	-1	-1
0.010870061814785	0.0169932842254639	0.0165035128593445	0.508082747459412	0.578169941902161	4.92146062850952	0.791433453559875	4.3307466506958	0.16276927292347	-0.214314386248589	-0.0285430941730738	-0.962684154510498	Bartender_HumanMale_Mesh_LOD1	Bartender_HumanMale_Mesh_LOD1	-1	-1
0.0117269149050117	0.0171546041965485	0.014621376991272	0.508355140686035	0.579383909702301	4.92142724990845	0.791398584842682	4.33079719543457	0.162550777196884	-0.214299410581589	-0.0285120941698551	-0.962725341320038	Bartender_HumanMale_Mesh_LOD1	Bartender_HumanMale_Mesh_LOD1	-1	-1
0.0105214072391391	0.0171546041965485	0.014621376991272	0.508355140686035	0.579383909702301	4.92133617401123	0.791439235210419	4.33084058761597	0.162200376391411	-0.214213967323303	-0.0285225436091423	-0.962803184986115	Bartender_HumanMale_Mesh_LOD1	Bartender_HumanMale_Mesh_LOD1	-1	-1
0.0122916121035814	0.0171546041965485	0.014621376991272	0.508355140686035	0.579383909702301	4.92131042480469	0.791377723217011	4.33089542388916	0.161855310201645	-0.214270710945129	-0.028652498498559	-0.962844729423523	Bartender_HumanMale_Mesh_LOD1	Bartender_HumanMale_Mesh_LOD1	-1	-1
0.0107327662408352	0.0163231790065765	0.0146446526050568	0.509315729141235	0.579117774963379	4.92131328582764	0.791303694248199	4.33101940155029	0.161712691187859	-0.214165419340134	-0.0287022348493338	-0.962890625	Bartender_HumanMale_Mesh_LOD1	Bartender_HumanMale_Mesh_LOD1	-1	-1
0.0102661363780499	0.0163231790065765	0.0146446526050568	0.509315729141235	0.579117774963379	4.92131805419922	0.791289269924164	4.33107042312622	0.161525145173073	-0.214052677154541	-0.0289041083306074	-0.96294116973877	Bartender_HumanMale_Mesh_LOD1	Bartender_HumanMale_Mesh_LOD1	-1	-1
0.0125837679952383	0.0155560076236725	0.0149677991867065	0.511062741279602	0.579732537269592	4.92138910293579	0.791333079338074	4.331130027771	0.16139905154705	-0.213861867785454	-0.0289348121732473	-0.963003754615784	Bartender_HumanMale_Mesh_LOD1	Bartender_HumanMale_Mesh_LOD1	-1	-1
0.0159242358058691	0.0155560076236725	0.0149677991867065	0.511062741279602	0.579732537269592	4.9213228225708	0.791337549686432	4.33120918273926	0.161398619413376	-0.213755697011948	-0.0289588645100594	-0.963026702404022	Bartender_HumanMale_Mesh_LOD1	Bartender_HumanMale_Mesh_LOD1	-1	-1
0.00582261988893151	0.0155560076236725	0.0149677991867065	0.511062741279602	0.579732537269592	4.92134475708008	0.791295111179352	4.3313159942627	0.161013975739479	-0.213566020131111	-0.0289340522140265	-0.963133871555328	Bartender_HumanMale_Mesh_LOD1	Bartender_HumanMale_Mesh_LOD1	-1	-1
0.0110386805608869	0.0144774615764618	0.0153771638870239	0.515816450119019	0.577647626399994	4.92141628265381	0.791211545467377	4.33146667480469	0.160468950867653	-0.213402330875397	-0.0287693869322538	-0.96326607465744	Bartender_HumanMale_Mesh_LOD1	Bartender_HumanMale_Mesh_LOD1	-1	-1
0.0111812455579638	0.0144774615764618	0.0153771638870239	0.515816450119019	0.577647626399994	4.92148923873901	0.791001737117767	4.33167552947998	0.159719496965408	-0.213276520371437	-0.0285834446549416	-0.963424026966095	Bartender_HumanMale_Mesh_LOD1	Bartender_HumanMale_Mesh_LOD1	-1	-1
0.010550681501627	0.0144774615764618	0.0153771638870239	0.515816450119019	0.577647626399994	4.92155504226685	0.790832281112671	4.33193492889404	0.158718302845955	-0.213167041540146	-0.0283222422003746	-0.963621377944946	Bartender_HumanMale_Mesh_LOD1	Bartender_HumanMale_Mesh_LOD1	-1	-1
0.0115342913195491	0.0144774615764618	0.0153771638870239	0.515816450119019	0.577647626399994	4.92160224914551	0.790616571903229	4.33220767974854	0.157688900828362	-0.213087156414986	-0.0282523911446333	-0.963810086250305	Bartender_HumanMale_Mesh_LOD1	Bartender_HumanMale_Mesh_LOD1	-1	-1
0.0114991618320346	0.0146167278289795	0.0157167911529541	0.515990078449249	0.576407492160797	4.92172288894653	0.790477693080902	4.33269262313843	0.156342357397079	-0.213002651929855	-0.0283993929624558	-0.964043855667114	Bartender_HumanMale_Mesh_LOD1	Bartender_HumanMale_Mesh_LOD1	-1	-1
0.0103999190032482	0.0146167278289795	0.0157167911529541	0.515990078449249	0.576407492160797	4.92186212539673	0.790317952632904	4.33309173583984	0.155084371566772	-0.213162422180176	-0.0284519903361797	-0.964210152626038	Bartender_HumanMale_Mesh_LOD1	Bartender_HumanMale_Mesh_LOD1	-1	-1
0.0113404961302876	0.0146167278289795	0.0157167911529541	0.515990078449249	0.576407492160797	4.9220609664917	0.790111601352692	4.33355188369751	0.153871774673462	-0.213167056441307	-0.0285820905119181	-0.964399516582489	Bartender_HumanMale_Mesh_LOD1	Bartender_HumanMale_Mesh_LOD1	-1	-1
0.0111244535073638	0.0146167278289795	0.0157167911529541	0.515990078449249	0.576407492160797	4.92226552963257	0.789848864078522	4.33404397964478	0.152497187256813	-0.213365629315376	-0.0285700336098671	-0.96457427740097	Bartender_HumanMale_Mesh_LOD1	Bartender_HumanMale_Mesh_LOD1	-1	-1
0.0116004506126046	0.0156733989715576	0.0139696002006531	0.518433570861816	0.574824452400208	4.92246723175049	0.789596855640411	4.33458757400513	0.15093682706356	-0.213611647486687	-0.0282614212483168	-0.964774310588837	Bartender_HumanMale_Mesh_LOD1	Bartender_HumanMale_Mesh_LOD1	-1	-1
0.0111065963283181	0.0156733989715576	0.0139696002006531	0.518433570861816	0.574824452400208	4.92264080047607	0.789191067218781	4.33513832092285	0.149167731404305	-0.21368995308876	-0.0279628224670887	-0.965040802955627	Bartender_HumanMale_Mesh_LOD1	Bartender_HumanMale_Mesh_LOD1	-1	-1
0.0107154939323664	0.0156733989715576	0.0139696002006531	0.518433570861816	0.574824452400208	4.92288446426392	0.788851022720337	4.33567380905151	0.147295072674751	-0.21392160654068	-0.0276088714599609	-0.965287268161774	Bartender_HumanMale_Mesh_LOD1	Bartender_HumanMale_Mesh_LOD1	-1	-1
0.0118501586839557	0.054546058177948	0.146297141909599	0.587040960788727	0.419015526771545	4.92324686050415	0.788417160511017	4.33632755279541	0.145077839493752	-0.214234694838524	-0.0269537307322025	-0.965572059154511	Bartender_HumanMale_Mesh_LOD1	Bartender_HumanMale_Mesh_LOD1	-1	-1
0.0181148182600737	0.0813515186309814	0.164330348372459	0.61384642124176	0.400982320308685	4.92354249954224	0.788034319877625	4.33698511123657	0.142683893442154	-0.214535892009735	-0.0265581980347633	-0.965872824192047	Bartender_HumanMale_Mesh_LOD1	Cube.001	-1	34
0.00649153348058462	0.0813515186309814	0.164330348372459	0.61384642124176	0.400982320308685	4.92376852035522	0.787849366664886	4.33773612976074	0.14069552719593	-0.214838594198227	-0.0263123977929354	-0.966103971004486	Bartender_HumanMale_Mesh_LOD1	TheTavern_1	-1	16
0.00835863593965769	0.0813515186309814	0.164330348372459	0.61384642124176	0.400982320308685	4.92399597167969	0.78777277469635	4.33822870254517	0.139802843332291	-0.215042442083359	-0.026142418384552	-0.966192781925201	Bartender_HumanMale_Mesh_LOD1	TheTavern_1	-1	16
0.0118115171790123	0.0813515186309814	0.164330348372459	0.61384642124176	0.400982320308685	4.92418718338013	0.78785103559494	4.33864545822144	0.139494821429253	-0.215261891484261	-0.0258564092218876	-0.966196179389954	Bartender_HumanMale_Mesh_LOD1	TheTavern_1	-1	16
0.0110050151124597	0.327235132455826	0.248391754925251	0.381545454263687	0.482377290725708	4.92424631118774	0.788036823272705	4.3388819694519	0.140169143676758	-0.215352892875671	-0.0257381908595562	-0.966081440448761	Bartender_HumanMale_Mesh_LOD1	Bartender_HumanMale_Mesh_LOD1	-1	-1
0.0108047807589173	0.327235132455826	0.248391754925251	0.381545454263687	0.482377290725708	4.92426252365112	0.788308262825012	4.33898782730103	0.141295254230499	-0.215475991368294	-0.0259204041212797	-0.965885043144226	Bartender_HumanMale_Mesh_LOD1	Bartender_HumanMale_Mesh_LOD1	-1	-1
0.012070007622242	0.127003788948059	0.222704477608204	0.581776797771454	0.456690013408661	4.92438507080078	0.788574039936066	4.33910131454468	0.142116248607636	-0.21555532515049	-0.0262276008725166	-0.965738594532013	Bartender_HumanMale_Mesh_LOD1	Bartender_HumanMale_Mesh_LOD1	-1	-1
0.0102626234292984	0.127003788948059	0.222704477608204	0.581776797771454	0.456690013408661	4.92440748214722	0.788672626018524	4.33910846710205	0.142601415514946	-0.21546396613121	-0.02666393853724	-0.965675532817841	Bartender_HumanMale_Mesh_LOD1	Bartender_HumanMale_Mesh_LOD1	-1	-1
0.0108604012057185	0.127003788948059	0.222704477608204	0.581776797771454	0.456690013408661	4.9243483543396	0.788785040378571	4.33915901184082	0.142668321728706	-0.215355440974236	-0.0268678236752748	-0.965684175491333	Bartender_HumanMale_Mesh_LOD1	Bartender_HumanMale_Mesh_LOD1	-1	-1
0.0113958241418004	0.127003788948059	0.222704477608204	0.581776797771454	0.456690013408661	4.92437267303467	0.788817703723907	4.3391695022583	0.142637878656387	-0.215233981609344	-0.0266539677977562	-0.965721666812897	Bartender_HumanMale_Mesh_LOD1	Bartender_HumanMale_Mesh_LOD1	-1	-1
0.011911341920495	0.127003788948059	0.222704477608204	0.581776797771454	0.456690013408661	4.92432403564453	0.788780629634857	4.33921146392822	0.142350658774376	-0.21492637693882	-0.0262894127517939	-0.965842545032501	Bartender_HumanMale_Mesh_LOD1	Bartender_HumanMale_Mesh_LOD1	-1	-1
0.0106897335499525	0.127003788948059	0.222704477608204	0.581776797771454	0.456690013408661	4.92430114746094	0.788675606250763	4.33925151824951	0.141616269946098	-0.214812770485878	-0.0257593113929033	-0.96599006652832	Bartender_HumanMale_Mesh_LOD1	Bartender_HumanMale_Mesh_LOD1	-1	-1
0.0107965832576156	0.127003788948059	0.222704477608204	0.581776797771454	0.456690013408661	4.92422342300415	0.788443982601166	4.33931684494019	0.140853330492973	-0.214770838618279	-0.0250980835407972	-0.966128349304199	Bartender_HumanMale_Mesh_LOD1	Bartender_HumanMale_Mesh_LOD1	-1	-1
0.011284289881587	0.127003788948059	0.222704477608204	0.581776797771454	0.456690013408661	4.92429447174072	0.788311302661896	4.33942604064941	0.139690324664116	-0.214810624718666	-0.0245357844978571	-0.966302752494812	Bartender_HumanMale_Mesh_LOD1	Bartender_HumanMale_Mesh_LOD1	-1	-1
0.0278976392000914	0.00601464509963989	0.0821296572685242	0.460787653923035	0.59726482629776	4.92439365386963	0.788242995738983	4.33956050872803	0.138646706938744	-0.215171635150909	-0.0243899878114462	-0.966376423835754	Bartender_HumanMale_Mesh_LOD1	Bartender_HumanMale_Mesh_LOD1	-1	-1
0.00682437978684902	0.00601464509963989	0.0821296572685242	0.460787653923035	0.59726482629776	4.92450475692749	0.788245439529419	4.33971357345581	0.13801021873951	-0.215737149119377	-0.0245211981236935	-0.966338157653809	Bartender_HumanMale_Mesh_LOD1	Bartender_HumanMale_Mesh_LOD1	-1	-1
0.00991806760430336	0.00601464509963989	0.0821296572685242	0.460787653923035	0.59726482629776	4.9247465133667	0.788429498672485	4.34000110626221	0.138573005795479	-0.216693237423897	-0.0250520091503859	-0.966030061244965	Bartender_HumanMale_Mesh_LOD1	Bartender_HumanMale_Mesh_LOD1	-1	-1
0.01188909355551	0.0408390015363693	0.0458803772926331	0.413933992385864	0.633514106273651	4.92483854293823	0.788573563098907	4.34009790420532	0.139146983623505	-0.216816648840904	-0.0250953231006861	-0.965918719768524	Bartender_HumanMale_Mesh_LOD1	TheTavern_2	-1	10
0.0105653181672096	0.0408390015363693	0.0458803772926331	0.413933992385864	0.633514106273651	4.92487716674805	0.788584768772125	4.33999013900757	0.139555335044861	-0.216727152466774	-0.0250729341059923	-0.965880453586578	Bartender_HumanMale_Mesh_LOD1	TheTavern_2	-1	10
0.0111516788601875	0.0408390015363693	0.0458803772926331	0.413933992385864	0.633514106273651	4.9249119758606	0.788505494594574	4.34006357192993	0.139513552188873	-0.216538786888123	-0.0252702943980694	-0.965923607349396	Bartender_HumanMale_Mesh_LOD1	TheTavern_2	-1	10
0.0126914968714118	0.0554736703634262	0.0335686504840851	0.428568661212921	0.621202349662781	4.92495584487915	0.788468062877655	4.34009504318237	0.139148026704788	-0.216120705008507	-0.0256733279675245	-0.966059327125549	Bartender_HumanMale_Mesh_LOD1	TheTavern_2	-1	10
0.00931677781045437	0.0554736703634262	0.0335686504840851	0.428568661212921	0.621202349662781	4.92492866516113	0.788407742977142	4.34022903442383	0.138839691877365	-0.215817391872406	-0.0260577592998743	-0.96616119146347	Bartender_HumanMale_Mesh_LOD1	TheTavern_2	-1	10
0.0115767382085323	0.0554736703634262	0.0335686504840851	0.428568661212921	0.621202349662781	4.92479515075684	0.788434326648712	4.3402042388916	0.138858914375305	-0.215737193822861	-0.0263842791318893	-0.966167449951172	Bartender_HumanMale_Mesh_LOD1	TheTavern_2	-1	10
0.0110044293105602	0.0554736703634262	0.0335686504840851	0.428568661212921	0.621202349662781	4.92472791671753	0.788379967212677	4.34006023406982	0.139118641614914	-0.215370431542397	-0.0263047497719526	-0.966214120388031	Bartender_HumanMale_Mesh_LOD1	TheTavern_2	-1	10
0.0116426050662994	0.0554736703634262	0.0335686504840851	0.428568661212921	0.621202349662781	4.92467832565308	0.788319885730743	4.34007120132446	0.139171347022057	-0.215209797024727	-0.0262045618146658	-0.966244995594025	Bartender_HumanMale_Mesh_LOD1	TheTavern_2	-1	10
0.0113618662580848	0.0554736703634262	0.0335686504840851	0.428568661212921	0.621202349662781	4.92467880249023	0.788236200809479	4.34000205993652	0.138850957155228	-0.215095028281212	-0.0258527304977179	-0.966326177120209	Bartender_HumanMale_Mesh_LOD1	TheTavern_2	-1	10
0.010816490277648	0.0554736703634262	0.0335686504840851	0.428568661212921	0.621202349662781	4.92465305328369	0.788171589374542	4.34001445770264	0.138550758361816	-0.215065494179726	-0.0258806776255369	-0.966375052928925	Bartender_HumanMale_Mesh_LOD1	TheTavern_2	-1	10
0.0176399908959866	0.0554736703634262	0.0335686504840851	0.428568661212921	0.621202349662781	4.92460870742798	0.78814309835434	4.33994388580322	0.138558089733124	-0.214923143386841	-0.0261545926332474	-0.966398298740387	Bartender_HumanMale_Mesh_LOD1	TheTavern_2	-1	10
0.00634047901257873	0.0554736703634262	0.0335686504840851	0.428568661212921	0.621202349662781	4.9245777130127	0.788122177124023	4.33983707427979	0.138628765940666	-0.214953124523163	-0.026435224339366	-0.966373860836029	Bartender_HumanMale_Mesh_LOD1	TheTavern_2	-1	10
0.0128372814506292	0.0518925189971924	0.03105428814888	0.424987524747849	0.618687987327576	4.92455673217773	0.78817480802536	4.33966779708862	0.138802900910378	-0.214755281805992	-0.0265763644129038	-0.966389000415802	Bartender_HumanMale_Mesh_LOD1	TheTavern_2	-1	10
0.00751583417877555	0.0518925189971924	0.03105428814888	0.424987524747849	0.618687987327576	4.92450475692749	0.788175761699677	4.33956956863403	0.138855010271072	-0.214723959565163	-0.0265772752463818	-0.966388404369354	Bartender_HumanMale_Mesh_LOD1	TheTavern_2	-1	10
0.0115094082430005	0.0518925189971924	0.03105428814888	0.424987524747849	0.618687987327576	4.92446374893188	0.788124859333038	4.33939504623413	0.138835266232491	-0.214898511767387	-0.0265838503837585	-0.96635228395462	Bartender_HumanMale_Mesh_LOD1	TheTavern_2	-1	10
0.0110782003030181	0.0518925189971924	0.03105428814888	0.424987524747849	0.618687987327576	4.92452526092529	0.788094103336334	4.33920669555664	0.13881017267704	-0.215050414204597	-0.0264912135899067	-0.966324627399445	Bartender_HumanMale_Mesh_LOD1	TheTavern_2	-1	10
0.0127667309716344	0.0522552132606506	0.0327039361000061	0.425350219011307	0.620337665081024	4.92451906204224	0.788065254688263	4.33900737762451	0.138740658760071	-0.215740725398064	-0.0259708482772112	-0.966194868087769	Bartender_HumanMale_Mesh_LOD1	TheTavern_2	-1	10
0.00973568949848413	0.0522552132606506	0.0327039361000061	0.425350219011307	0.620337665081024	4.92452526092529	0.788063824176788	4.33880662918091	0.138753950595856	-0.21621935069561	-0.0255469791591167	-0.966097235679626	Bartender_HumanMale_Mesh_LOD1	TheTavern_2	-1	10
0.0116695370525122	0.0522552132606506	0.0327039361000061	0.425350219011307	0.620337665081024	4.92455720901489	0.788134753704071	4.33860874176025	0.138727709650993	-0.216561198234558	-0.0253616906702518	-0.966029345989227	Bartender_HumanMale_Mesh_LOD1	TheTavern_2	-1	10
0.0106932455673814	0.0522552132606506	0.0327039361000061	0.425350219011307	0.620337665081024	4.92450714111328	0.788191854953766	4.33844137191772	0.138968721032143	-0.216905757784843	-0.0254414081573486	-0.965915322303772	Bartender_HumanMale_Mesh_LOD1	TheTavern_2	-1	10
0.011382358148694	0.0938606113195419	0.0855002850294113	0.571466028690338	0.567541301250458	4.92445087432861	0.78827303647995	4.33830070495605	0.139581367373466	-0.217231512069702	-0.0259592719376087	-0.965739965438843	Bartender_HumanMale_Mesh_LOD1	TheTavern_2	-1	10
0.0105298962444067	0.0938606113195419	0.0855002850294113	0.571466028690338	0.567541301250458	4.92437791824341	0.788340449333191	4.33812046051025	0.140055432915688	-0.217272818088531	-0.026422843337059	-0.965649485588074	Bartender_HumanMale_Mesh_LOD1	TheTavern_2	-1	10
0.0119309555739164	0.0938606113195419	0.0855002850294113	0.571466028690338	0.567541301250458	4.92436075210571	0.788441598415375	4.33806037902832	0.140304490923882	-0.217228800058365	-0.0267685428261757	-0.965613663196564	Bartender_HumanMale_Mesh_LOD1	TheTavern_2	-1	10
0.011018774472177	0.0938606113195419	0.0855002850294113	0.571466028690338	0.567541301250458	4.92438840866089	0.788541674613953	4.33803987503052	0.14071749150753	-0.21718168258667	-0.0269207004457712	-0.965559959411621	Bartender_HumanMale_Mesh_LOD1	TheTavern_2	-1	10
0.01870147138834	0.356129854917526	0.101524487137794	0.309196799993515	0.583565533161163	4.92451143264771	0.788740277290344	4.33804225921631	0.141148179769516	-0.217317149043083	-0.0271470677107573	-0.965460300445557	Bartender_HumanMale_Mesh_LOD1	TheTavern_2	-1	10
0.00687853712588549	0.356129854917526	0.101524487137794	0.309196799993515	0.583565533161163	4.92454671859741	0.788829028606415	4.33808708190918	0.141515552997589	-0.217411532998085	-0.0271705761551857	-0.965384602546692	Bartender_HumanMale_Mesh_LOD1	TheTavern_2	-1	10
0.00775207625702024	0.356129854917526	0.101524487137794	0.309196799993515	0.583565533161163	4.92461347579956	0.788858950138092	4.33816719055176	0.141650855541229	-0.217569068074226	-0.0271584503352642	-0.965329587459564	Bartender_HumanMale_Mesh_LOD1	TheTavern_2	-1	10
0.0111270882189274	0.356129854917526	0.101524487137794	0.309196799993515	0.583565533161163	4.92463779449463	0.788953721523285	4.33815956115723	0.141893655061722	-0.217635169625282	-0.0272501166909933	-0.965276420116425	Bartender_HumanMale_Mesh_LOD1	TheTavern_2	-1	10
0.0112122762948275	0.356129854917526	0.101524487137794	0.309196799993515	0.583565533161163	4.9247088432312	0.788919270038605	4.33819580078125	0.14197900891304	-0.21756811439991	-0.0275885835289955	-0.965269386768341	Bartender_HumanMale_Mesh_LOD1	TheTavern_2	-1	10
0.0113680139183998	0.356129854917526	0.101524487137794	0.309196799993515	0.583565533161163	4.92470645904541	0.788836777210236	4.33829879760742	0.141590297222137	-0.217709496617317	-0.0278493147343397	-0.965287148952484	Bartender_HumanMale_Mesh_LOD1	TheTavern_2	-1	10
0.0109766190871596	0.0973920226097107	0.0807129591703415	0.567934632301331	0.562753975391388	4.92475509643555	0.788776755332947	4.3386025428772	0.141205281019211	-0.217630088329315	-0.0278720464557409	-0.965360760688782	Bartender_HumanMale_Mesh_LOD1	TheTavern_2	-1	10
0.0111566549167037	0.0973920226097107	0.0807129591703415	0.567934632301331	0.562753975391388	4.92475891113281	0.788778901100159	4.3387622833252	0.140772923827171	-0.217449769377708	-0.0277235768735409	-0.96546882390976	Bartender_HumanMale_Mesh_LOD1	TheTavern_2	-1	10
0.0116174295544624	0.0984302908182144	0.0818199664354324	0.566896378993988	0.563861012458801	4.92473173141479	0.788678407669067	4.33889007568359	0.140598401427269	-0.217382535338402	-0.0272208079695702	-0.965523719787598	Bartender_HumanMale_Mesh_LOD1	TheTavern_2	-1	10
0.0100667802616954	0.0984302908182144	0.0818199664354324	0.566896378993988	0.563861012458801	4.92481756210327	0.788644671440125	4.33913326263428	0.14022359251976	-0.217196509242058	-0.0264849960803986	-0.965640485286713	Bartender_HumanMale_Mesh_LOD1	TheTavern_2	-1	10
0.0120143862441182	0.0984302908182144	0.0818199664354324	0.566896378993988	0.563861012458801	4.92491912841797	0.788639962673187	4.33926010131836	0.140166029334068	-0.217092171311378	-0.025955444201827	-0.965686678886414	Bartender_HumanMale_Mesh_LOD1	TheTavern_2	-1	10
0.011189442127943	0.0984302908182144	0.0818199664354324	0.566896378993988	0.563861012458801	4.92491388320923	0.788519382476807	4.33936214447021	0.140402466058731	-0.216878071427345	-0.0258887838572264	-0.9657022356987	Bartender_HumanMale_Mesh_LOD1	TheTavern_2	-1	10
0.0104763247072697	0.0984302908182144	0.0818199664354324	0.566896378993988	0.563861012458801	4.9249472618103	0.788507044315338	4.33951807022095	0.140292271971703	-0.216775238513947	-0.0259716007858515	-0.965739130973816	Bartender_HumanMale_Mesh_LOD1	TheTavern_2	-1	10
0.0124517418444157	0.0984302908182144	0.0818199664354324	0.566896378993988	0.563861012458801	4.92503261566162	0.788463652133942	4.33963966369629	0.140254721045494	-0.216834589838982	-0.0261651147156954	-0.96572607755661	Bartender_HumanMale_Mesh_LOD1	TheTavern_2	-1	10
0.0164494141936302	0.0984302908182144	0.0818199664354324	0.566896378993988	0.563861012458801	4.92498731613159	0.788512110710144	4.33976745605469	0.14023432135582	-0.21701368689537	-0.0264109820127487	-0.965682089328766	Bartender_HumanMale_Mesh_LOD1	TheTavern_2	-1	10
0.00574914179742336	0.0984302908182144	0.0818199664354324	0.566896378993988	0.563861012458801	4.925133228302	0.788561999797821	4.3399019241333	0.140084370970726	-0.217080488801003	-0.0261973645538092	-0.965694665908813	Bartender_HumanMale_Mesh_LOD1	TheTavern_2	-1	10
0.0105579998344183	0.0984302908182144	0.0818199664354324	0.566896378993988	0.563861012458801	4.92519903182983	0.788621366024017	4.34007978439331	0.139791831374168	-0.217230349779129	-0.0259905979037285	-0.96570897102356	Bartender_HumanMale_Mesh_LOD1	TheTavern_2	-1	10
0.011594888754189	0.100495025515556	0.0842173248529434	0.564831614494324	0.566258370876312	4.9251561164856	0.788539350032806	4.34016418457031	0.139621451497078	-0.217509388923645	-0.0259599834680557	-0.965671598911285	Bartender_HumanMale_Mesh_LOD1	TheTavern_2	-1	10
0.0105357514694333	0.100495025515556	0.0842173248529434	0.564831614494324	0.566258370876312	4.92519760131836	0.788593471050262	4.34026432037354	0.139535531401634	-0.217909291386604	-0.0260771755129099	-0.965590715408325	Bartender_HumanMale_Mesh_LOD1	TheTavern_2	-1	10
0.0149529213085771	0.100495025515556	0.0842173248529434	0.564831614494324	0.566258370876312	4.92521095275879	0.78858745098114	4.34035348892212	0.139601588249207	-0.218389943242073	-0.0264202617108822	-0.965463221073151	Bartender_HumanMale_Mesh_LOD1	TheTavern_2	-1	10
0.00786331761628389	0.100495025515556	0.0842173248529434	0.564831614494324	0.566258370876312	4.92530345916748	0.788624227046967	4.34050512313843	0.139737084507942	-0.218450754880905	-0.0267466455698013	-0.96542090177536	Bartender_HumanMale_Mesh_LOD1	TheTavern_2	-1	10
0.0104903765022755	0.100495025515556	0.0842173248529434	0.564831614494324	0.566258370876312	4.92525291442871	0.788698434829712	4.34065628051758	0.139645755290985	-0.218696042895317	-0.0270433388650417	-0.965370297431946	Bartender_HumanMale_Mesh_LOD1	TheTavern_2	-1	10
0.0141721805557609	0.100495025515556	0.0842173248529434	0.564831614494324	0.566258370876312	4.92525005340576	0.788686811923981	4.34073734283447	0.13945634663105	-0.218835428357124	-0.0269606504589319	-0.965368390083313	Bartender_HumanMale_Mesh_LOD1	TheTavern_2	-1	10
0.00824739411473274	0.100495025515556	0.0842173248529434	0.564831614494324	0.566258370876312	4.92520713806152	0.78851717710495	4.34083938598633	0.139222219586372	-0.218853265047073	-0.0266536809504032	-0.965406656265259	Bartender_HumanMale_Mesh_LOD1	TheTavern_2	-1	10
0.0110749807208776	0.100495025515556	0.0842173248529434	0.564831614494324	0.566258370876312	4.92509937286377	0.788268685340881	4.34093856811523	0.138545796275139	-0.218971163034439	-0.0260020736604929	-0.965494990348816	Bartender_HumanMale_Mesh_LOD1	TheTavern_2	-1	10
0.015022593550384	0.100495025515556	0.0842173248529434	0.564831614494324	0.566258370876312	4.9250373840332	0.788032650947571	4.34104537963867	0.137685239315033	-0.218909978866577	-0.0254697762429714	-0.965646207332611	Bartender_HumanMale_Mesh_LOD1	TheTavern_2	-1	10
0.00741747347638011	0.100495025515556	0.0842173248529434	0.564831614494324	0.566258370876312	4.92499017715454	0.787926077842712	4.34116268157959	0.136823683977127	-0.21899339556694	-0.0251983776688576	-0.965756833553314	Bartender_HumanMale_Mesh_LOD1	TheTavern_2	-1	10
0.0109344646334648	0.100495025515556	0.0842173248529434	0.564831614494324	0.566258370876312	4.92486095428467	0.788007080554962	4.34122800827026	0.136519029736519	-0.219033047556877	-0.025504257529974	-0.965782940387726	Bartender_HumanMale_Mesh_LOD1	TheTavern_2	-1	10
0.0190858393907547	0.553753852844238	0.427636802196503	1.01809048652649	0.222838893532753	4.92472839355469	0.788145124912262	4.34134483337402	0.136907562613487	-0.218990728259087	-0.026065232232213	-0.965722560882568	Bartender_HumanMale_Mesh_LOD1	TheTavern_1	-1	16
0.00620084162801504	0.553753852844238	0.427636802196503	1.01809048652649	0.222838893532753	4.92467546463013	0.788129568099976	4.34139108657837	0.137360796332359	-0.218671858310699	-0.026858989149332	-0.96570873260498	Bartender_HumanMale_Mesh_LOD1	TheTavern_1	-1	16
0.0090960506349802	0.553753852844238	0.427636802196503	1.01809048652649	0.222838893532753	4.92455053329468	0.788125574588776	4.34162282943726	0.13709531724453	-0.218540400266647	-0.0276300497353077	-0.965754389762878	Bartender_HumanMale_Mesh_LOD1	TheTavern_1	-1	16
0.0111349923536181	0.0682692378759384	0.16600176692009	0.532605826854706	0.484473913908005	4.92445802688599	0.788100183010101	4.34168434143066	0.136454522609711	-0.21841162443161	-0.0281427577137947	-0.965859472751617	Bartender_HumanMale_Mesh_LOD1	Bartender_HumanMale_Mesh_LOD1	-1	-1
0.0107983397319913	0.0682692378759384	0.16600176692009	0.532605826854706	0.484473913908005	4.92438554763794	0.78802090883255	4.34179401397705	0.136115223169327	-0.218168660998344	-0.0283519551157951	-0.965956151485443	Bartender_HumanMale_Mesh_LOD1	Bartender_HumanMale_Mesh_LOD1	-1	-1
0.0117163760587573	0.123382642865181	0.165772378444672	0.46466451883316	0.487554728984833	4.92423677444458	0.787963330745697	4.34192371368408	0.135866716504097	-0.217873454093933	-0.0284018609672785	-0.966056287288666	Bartender_HumanMale_Mesh_LOD1	Bartender_HumanMale_Mesh_LOD1	-1	-1
0.0107875084504485	0.123382642865181	0.165772378444672	0.46466451883316	0.487554728984833	4.92410326004028	0.787806451320648	4.34200239181519	0.13595162332058	-0.217489570379257	-0.0286013390868902	-0.966124951839447	Bartender_HumanMale_Mesh_LOD1	Bartender_HumanMale_Mesh_LOD1	-1	-1
0.0110351676121354	0.123382642865181	0.165772378444672	0.46466451883316	0.487554728984833	4.92413330078125	0.787818014621735	4.34209585189819	0.135619327425957	-0.217045187950134	-0.0288541950285435	-0.966264069080353	Bartender_HumanMale_Mesh_LOD1	Bartender_HumanMale_Mesh_LOD1	-1	-1
0.0115313632413745	0.327279180288315	0.192363619804382	0.299370974302292	0.496968924999237	4.92396545410156	0.787760436534882	4.34216403961182	0.135089293122292	-0.216502711176872	-0.0291760265827179	-0.966450393199921	Bartender_HumanMale_Mesh_LOD1	TheTavern_2	-1	10
0.0111633883789182	0.327279180288315	0.192363619804382	0.299370974302292	0.496968924999237	4.92392635345459	0.787593066692352	4.34220027923584	0.134725198149681	-0.215903952717781	-0.0292292237281799	-0.966633498668671	Bartender_HumanMale_Mesh_LOD1	TheTavern_2	-1	10
0.0108583522960544	0.261247634887695	0.163409650325775	0.233339414000511	0.525922894477844	4.92374563217163	0.787569344043732	4.34228754043579	0.134173601865768	-0.215315267443657	-0.029288137331605	-0.966839730739594	Bartender_HumanMale_Mesh_LOD1	TheTavern_2	-1	10
0.011309758760035	0.261247634887695	0.163409650325775	0.233339414000511	0.525922894477844	4.92364883422852	0.78759503364563	4.34243440628052	0.13388092815876	-0.214976519346237	-0.0293721053749323	-0.966953098773956	Bartender_HumanMale_Mesh_LOD1	TheTavern_2	-1	10
0.0111499223858118	0.261247634887695	0.163409650325775	0.233339414000511	0.525922894477844	4.92349052429199	0.787768423557281	4.34262561798096	0.133995965123177	-0.214732110500336	-0.0297255478799343	-0.966980695724487	Bartender_HumanMale_Mesh_LOD1	TheTavern_2	-1	10
0.01089231017977	0.261247634887695	0.163409650325775	0.233339414000511	0.525922894477844	4.92354726791382	0.787869513034821	4.34266757965088	0.134479552507401	-0.214507594704628	-0.0303145684301853	-0.966945111751556	Bartender_HumanMale_Mesh_LOD1	TheTavern_2	-1	10
0.0180135294795036	0.0480704456567764	0.164266020059586	0.446516573429108	0.526779294013977	4.92345905303955	0.787875473499298	4.34266090393066	0.134628355503082	-0.214400544762611	-0.0307289194315672	-0.966935038566589	Bartender_HumanMale_Mesh_LOD1	Bartender_HumanMale_Mesh_LOD1	-1	-1
0.00665078451856971	0.0480704456567764	0.164266020059586	0.446516573429108	0.526779294013977	4.92344665527344	0.787858426570892	4.34263801574707	0.134197786450386	-0.214318707585335	-0.0310950372368097	-0.96700131893158	Bartender_HumanMale_Mesh_LOD1	Bartender_HumanMale_Mesh_LOD1	-1	-1
0.00879540573805571	0.0480704456567764	0.164266020059586	0.446516573429108	0.526779294013977	4.92344236373901	0.787745654582977	4.34262180328369	0.133818879723549	-0.214383080601692	-0.031017804518342	-0.967042028903961	Bartender_HumanMale_Mesh_LOD1	Bartender_HumanMale_Mesh_LOD1	-1	-1
0.0112714096903801	0.0480704456567764	0.164266020059586	0.446516573429108	0.526779294013977	4.92335653305054	0.787710607051849	4.34249687194824	0.133204981684685	-0.214561894536018	-0.0308498926460743	-0.967092514038086	Bartender_HumanMale_Mesh_LOD1	Bartender_HumanMale_Mesh_LOD1	-1	-1
0.011955545283854	0.296240448951721	0.152036041021347	0.198346570134163	0.514549255371094	4.92338275909424	0.78764671087265	4.34240341186523	0.132896989583969	-0.214573621749878	-0.0306600853800774	-0.967138290405273	Bartender_HumanMale_Mesh_LOD1	TheTavern_2	-1	10
0.0107257403433323	0.296240448951721	0.152036041021347	0.198346570134163	0.514549255371094	4.92338085174561	0.787710249423981	4.34232044219971	0.132955342531204	-0.214730873703957	-0.0306593012064695	-0.96709543466568	Bartender_HumanMale_Mesh_LOD1	TheTavern_2	-1	10
0.0108928950503469	0.296240448951721	0.152036041021347	0.198346570134163	0.514549255371094	4.9232873916626	0.78776216506958	4.34224319458008	0.133395910263062	-0.214873299002647	-0.0306881703436375	-0.967002213001251	Bartender_HumanMale_Mesh_LOD1	TheTavern_2	-1	10
0.011608062312007	0.296240448951721	0.152036041021347	0.198346570134163	0.514549255371094	4.92327737808228	0.787782728672028	4.34213638305664	0.13394995033741	-0.214683368802071	-0.0307251568883657	-0.96696662902832	Bartender_HumanMale_Mesh_LOD1	TheTavern_2	-1	10
0.0113044893369079	0.299283921718597	0.150657415390015	0.195303097367287	0.513170659542084	4.9233078956604	0.787666857242584	4.34208917617798	0.134155407547951	-0.214641094207764	-0.0306999795138836	-0.966948330402374	Bartender_HumanMale_Mesh_LOD1	TheTavern_2	-1	10
0.010721349157393	0.299283921718597	0.150657415390015	0.195303097367287	0.513170659542084	4.92328405380249	0.787657380104065	4.34213209152222	0.134225204586983	-0.214517802000046	-0.0305615216493607	-0.966970384120941	Bartender_HumanMale_Mesh_LOD1	TheTavern_2	-1	10
0.0111502148211002	0.299283921718597	0.150657415390015	0.195303097367287	0.513170659542084	4.92321062088013	0.787692666053772	4.34216165542603	0.13421094417572	-0.21457739174366	-0.0304629970341921	-0.966962277889252	Bartender_HumanMale_Mesh_LOD1	TheTavern_2	-1	10
0.0112854614853859	0.299283921718597	0.150657415390015	0.195303097367287	0.513170659542084	4.92326879501343	0.787777125835419	4.34212112426758	0.134050250053406	-0.214698955416679	-0.0303166583180428	-0.966962158679962	Bartender_HumanMale_Mesh_LOD1	TheTavern_2	-1	10
0.0108059514313936	0.299283921718597	0.150657415390015	0.195303097367287	0.513170659542084	4.92325305938721	0.787844002246857	4.34211206436157	0.134085327386856	-0.214946389198303	-0.0300778914242983	-0.966909825801849	Bartender_HumanMale_Mesh_LOD1	TheTavern_2	-1	10
0.0117541393265128	0.299283921718597	0.150657415390015	0.195303097367287	0.513170659542084	4.92326593399048	0.787880599498749	4.34204483032227	0.134351700544357	-0.215121865272522	-0.0298670120537281	-0.966840326786041	Bartender_HumanMale_Mesh_LOD1	TheTavern_2	-1	10
