deltaTime	avgXGazingUncertainty	avgYGazingUncertainty	gazeX	gazeY	headX	headY	headZ	headRotationX	headRotationY	headRotationZ	headRotationW	faceRaycastHitObjectName	gazeRaycastHitObjectName	faceRaycastHitTriangleName	gazeRaycastHitTriangleName
0.0134257106110454	0.014982670545578	0.0013149231672287	0.537076234817505	0.472990334033966	7.63040399551392	0.233067333698273	4.19270420074463	0.0747169777750969	-0.121310658752918	0.00859873089939356	-0.989761173725128	Companion_HumanMale_Mesh_LOD1	Companion_HumanMale_Mesh_LOD1	-1	-1
0.0107523957267404	0.014982670545578	0.0013149231672287	0.537076234817505	0.472990334033966	7.63051223754883	0.233101546764374	4.19265222549438	0.0747863799333572	-0.121856369078159	0.00868872087448835	-0.989688098430634	Companion_HumanMale_Mesh_LOD1	Companion_HumanMale_Mesh_LOD1	-1	-1
0.00914875790476799	0.014982670545578	0.0013149231672287	0.537076234817505	0.472990334033966	7.63060712814331	0.233064711093903	4.19263076782227	0.0748924687504768	-0.122275859117508	0.00883538648486137	-0.989627063274384	Companion_HumanMale_Mesh_LOD1	Companion_HumanMale_Mesh_LOD1	-1	-1
0.011391157284379	0.015049934387207	0.0011315643787384	0.537830829620361	0.473228871822357	7.63077259063721	0.233094274997711	4.19260740280151	0.0748643800616264	-0.122682102024555	0.00897456798702478	-0.989577651023865	Companion_HumanMale_Mesh_LOD1	Companion_HumanMale_Mesh_LOD1	-1	-1
0.0107705453410745	0.015049934387207	0.0011315643787384	0.537830829620361	0.473228871822357	7.63090801239014	0.23302173614502	4.19258880615234	0.0747060850262642	-0.123132690787315	0.00931804534047842	-0.989530444145203	Companion_HumanMale_Mesh_LOD1	Companion_HumanMale_Mesh_LOD1	-1	-1
0.0119854230433702	0.015049934387207	0.0011315643787384	0.537830829620361	0.473228871822357	7.63106822967529	0.233016788959503	4.19248104095459	0.0747730731964111	-0.123552955687046	0.00944216456264257	-0.989471793174744	Companion_HumanMale_Mesh_LOD1	Companion_HumanMale_Mesh_LOD1	-1	-1
0.0120425075292587	0.0156865417957306	1.29789113998413E-05	0.537683844566345	0.473739564418793	7.63125658035278	0.233057677745819	4.19245672225952	0.0747542455792427	-0.124052695930004	0.00946224108338356	-0.989410579204559	Companion_HumanMale_Mesh_LOD1	Companion_HumanMale_Mesh_LOD1	-1	-1
0.0110091296955943	0.0156865417957306	1.29789113998413E-05	0.537683844566345	0.473739564418793	7.63143348693848	0.233009576797485	4.19246959686279	0.0749005675315857	-0.124494679272175	0.0097641171887517	-0.989341020584106	Companion_HumanMale_Mesh_LOD1	Companion_HumanMale_Mesh_LOD1	-1	-1
0.00992920622229576	0.0156865417957306	1.29789113998413E-05	0.537683844566345	0.473739564418793	7.63155555725098	0.233027279376984	4.19238185882568	0.0752242654561996	-0.124933369457722	0.01003488432616	-0.989258468151093	Companion_HumanMale_Mesh_LOD1	Companion_HumanMale_Mesh_LOD1	-1	-1
0.0111314952373505	0.0156865417957306	1.29789113998413E-05	0.537683844566345	0.473739564418793	7.63173246383667	0.233072459697723	4.19233798980713	0.0753549933433533	-0.125326842069626	0.0102824056521058	-0.989196240901947	Companion_HumanMale_Mesh_LOD1	Companion_HumanMale_Mesh_LOD1	-1	-1
0.0124640548601747	0.0149579048156738	0.000238373875617981	0.537255525588989	0.473749399185181	7.63182067871094	0.233062326908112	4.19229507446289	0.0754284486174583	-0.125670000910759	0.0103430738672614	-0.98914647102356	Companion_HumanMale_Mesh_LOD1	Companion_HumanMale_Mesh_LOD1	-1	-1
0.010419256053865	0.0149579048156738	0.000238373875617981	0.537255525588989	0.473749399185181	7.63191080093384	0.233071029186249	4.19223976135254	0.0754549726843834	-0.126058086752892	0.010484398342669	-0.989093542098999	Companion_HumanMale_Mesh_LOD1	Companion_HumanMale_Mesh_LOD1	-1	-1
0.018782002851367	0.0147241950035095	0.000410079956054688	0.537456572055817	0.473823398351669	7.63208484649658	0.23306667804718	4.19215774536133	0.0755299478769302	-0.126322910189629	0.010686120018363	-0.989051878452301	Companion_HumanMale_Mesh_LOD1	Companion_HumanMale_Mesh_LOD1	-1	-1
0.00837474875152111	0.0147241950035095	0.000410079956054688	0.537456572055817	0.473823398351669	7.63210153579712	0.233092486858368	4.1920804977417	0.075556218624115	-0.126826494932175	0.0109780980274081	-0.988982200622559	Companion_HumanMale_Mesh_LOD1	Companion_HumanMale_Mesh_LOD1	-1	-1
0.0182418935000896	0.0150861442089081	0.0012069046497345	0.536982893943787	0.473979502916336	7.63220357894897	0.233009219169617	4.19207286834717	0.0754901692271233	-0.127715155482292	0.0110809551551938	-0.98887175321579	Companion_HumanMale_Mesh_LOD1	Companion_HumanMale_Mesh_LOD1	-1	-1
0.0106950178742409	0.0150861442089081	0.0012069046497345	0.536982893943787	0.473979502916336	7.63219118118286	0.233033716678619	4.19198131561279	0.0754515007138252	-0.128178790211678	0.0112849250435829	-0.988812386989594	Companion_HumanMale_Mesh_LOD1	Companion_HumanMale_Mesh_LOD1	-1	-1
0.0100902142003179	0.0150861442089081	0.0012069046497345	0.536982893943787	0.473979502916336	7.63223218917847	0.232986032962799	4.1919469833374	0.0755378305912018	-0.128586784005165	0.0112196300178766	-0.9887535572052	Companion_HumanMale_Mesh_LOD1	Companion_HumanMale_Mesh_LOD1	-1	-1
0.0121338423341513	0.0155301690101624	0.000761851668357849	0.534969508647919	0.473648190498352	7.63231134414673	0.233003556728363	4.19191837310791	0.0756652876734734	-0.12904766201973	0.0114214848726988	-0.988681435585022	Companion_HumanMale_Mesh_LOD1	Companion_HumanMale_Mesh_LOD1	-1	-1
0.01114437635988	0.0155301690101624	0.000761851668357849	0.534969508647919	0.473648190498352	7.63242959976196	0.233048975467682	4.19190311431885	0.0756267830729485	-0.129480808973312	0.0115195838734508	-0.988626658916473	Companion_HumanMale_Mesh_LOD1	Companion_HumanMale_Mesh_LOD1	-1	-1
0.0115299168974161	0.0155301690101624	0.000761851668357849	0.534969508647919	0.473648190498352	7.63247203826904	0.23303085565567	4.19188117980957	0.0755404308438301	-0.129703387618065	0.0115811536088586	-0.988603353500366	Companion_HumanMale_Mesh_LOD1	Companion_HumanMale_Mesh_LOD1	-1	-1
0.0103068426251411	0.0155301690101624	0.000761851668357849	0.534969508647919	0.473648190498352	7.63255071640015	0.233017861843109	4.19181060791016	0.0755525082349777	-0.129984766244888	0.0116730788722634	-0.988564431667328	Companion_HumanMale_Mesh_LOD1	Companion_HumanMale_Mesh_LOD1	-1	-1
0.0119025772437453	0.0151922106742859	0.000247836112976074	0.534600615501404	0.474554419517517	7.63245344161987	0.232855558395386	4.19181060791016	0.0755263268947601	-0.130261585116386	0.0116734011098742	-0.988529980182648	Companion_HumanMale_Mesh_LOD1	Companion_HumanMale_Mesh_LOD1	-1	-1
0.01099859084934	0.0151922106742859	0.000247836112976074	0.534600615501404	0.474554419517517	7.63246583938599	0.232866942882538	4.19179344177246	0.0754885673522949	-0.13047631084919	0.0117452396079898	-0.988503694534302	Companion_HumanMale_Mesh_LOD1	Companion_HumanMale_Mesh_LOD1	-1	-1
0.0109643405303359	0.0154516696929932	0.000351309776306152	0.53483909368515	0.474910020828247	7.63259172439575	0.232810199260712	4.19165229797363	0.0756883770227432	-0.130761072039604	0.0118878073990345	-0.988449037075043	Companion_HumanMale_Mesh_LOD1	Companion_HumanMale_Mesh_LOD1	-1	-1
0.0111701376736164	0.0154516696929932	0.000351309776306152	0.53483909368515	0.474910020828247	7.63254022598267	0.232790887355804	4.19160985946655	0.0757986530661583	-0.131071895360947	0.011948624625802	-0.988398730754852	Companion_HumanMale_Mesh_LOD1	Companion_HumanMale_Mesh_LOD1	-1	-1
0.024784080684185	0.0156494081020355	0.00107231736183167	0.53434431552887	0.475214064121246	7.63256978988647	0.232814490795136	4.1916036605835	0.0757768303155899	-0.131253406405449	0.0119771361351013	-0.988375961780548	Companion_HumanMale_Mesh_LOD1	Companion_HumanMale_Mesh_LOD1	-1	-1
0.00631677638739347	0.0156494081020355	0.00107231736183167	0.53434431552887	0.475214064121246	7.63256549835205	0.232811748981476	4.19155836105347	0.0758511424064636	-0.131451219320297	0.0118807712569833	-0.988345086574554	Companion_HumanMale_Mesh_LOD1	Companion_HumanMale_Mesh_LOD1	-1	-1
0.0137951504439116	0.0163227617740631	0.000301659107208252	0.534937739372253	0.474969655275345	7.63248157501221	0.232760429382324	4.19152784347534	0.0759054943919182	-0.131541192531586	0.0116681838408113	-0.988331496715546	Companion_HumanMale_Mesh_LOD1	Companion_HumanMale_Mesh_LOD1	-1	-1
0.0109432628378272	0.0163227617740631	0.000301659107208252	0.534937739372253	0.474969655275345	7.63244867324829	0.232804596424103	4.19151973724365	0.0759071931242943	-0.131515935063362	0.0114846955984831	-0.988336861133575	Companion_HumanMale_Mesh_LOD1	Companion_HumanMale_Mesh_LOD1	-1	-1
0.0114473635330796	0.0163227617740631	0.000301659107208252	0.534937739372253	0.474969655275345	7.63230228424072	0.232836067676544	4.19147539138794	0.0759599804878235	-0.131522551178932	0.0113074667751789	-0.988334000110626	Companion_HumanMale_Mesh_LOD1	Companion_HumanMale_Mesh_LOD1	-1	-1
0.0101010454818606	0.0163227617740631	0.000301659107208252	0.534937739372253	0.474969655275345	7.63222122192383	0.23285323381424	4.19142723083496	0.0761310309171677	-0.131476268172264	0.0111687649041414	-0.988328576087952	Companion_HumanMale_Mesh_LOD1	Companion_HumanMale_Mesh_LOD1	-1	-1
0.0125053320080042	0.0155283510684967	0.000340014696121216	0.533860683441162	0.475636959075928	7.63218879699707	0.232913315296173	4.19140148162842	0.0762677416205406	-0.131216391921043	0.0111025292426348	-0.988353312015533	Companion_HumanMale_Mesh_LOD1	Companion_HumanMale_Mesh_LOD1	-1	-1
0.00996170099824667	0.0155283510684967	0.000340014696121216	0.533860683441162	0.475636959075928	7.63209342956543	0.232905209064484	4.19139099121094	0.0766770765185356	-0.130988076329231	0.0110658798366785	-0.988352358341217	Companion_HumanMale_Mesh_LOD1	Companion_HumanMale_Mesh_LOD1	-1	-1
0.0120878824964166	0.0155283510684967	0.000340014696121216	0.533860683441162	0.475636959075928	7.63200616836548	0.232974350452423	4.19137096405029	0.0768834426999092	-0.130776569247246	0.0108597707003355	-0.988366603851318	Companion_HumanMale_Mesh_LOD1	Companion_HumanMale_Mesh_LOD1	-1	-1
0.0101853553205729	0.0155283510684967	0.000340014696121216	0.533860683441162	0.475636959075928	7.63194751739502	0.233039796352386	4.19140815734863	0.0772787630558014	-0.130528181791306	0.0108351148664951	-0.98836886882782	Companion_HumanMale_Mesh_LOD1	Companion_HumanMale_Mesh_LOD1	-1	-1
0.0123665723949671	0.0156488418579102	0.000603124499320984	0.53577584028244	0.474922001361847	7.63208341598511	0.233172714710236	4.19150066375732	0.0773191675543785	-0.130302160978317	0.0108283739537001	-0.988395631313324	Companion_HumanMale_Mesh_LOD1	Companion_HumanMale_Mesh_LOD1	-1	-1
0.0113326087594032	0.0156488418579102	0.000603124499320984	0.53577584028244	0.474922001361847	7.63205003738403	0.233189523220062	4.19159507751465	0.0773215815424919	-0.130055740475655	0.0109844133257866	-0.988426148891449	Companion_HumanMale_Mesh_LOD1	Companion_HumanMale_Mesh_LOD1	-1	-1
0.0109535092487931	0.0157667100429535	2.62260437011719E-05	0.53634774684906	0.474617034196854	7.63207101821899	0.233181774616241	4.19158744812012	0.0773831307888031	-0.129931509494781	0.0112542789429426	-0.988434672355652	Companion_HumanMale_Mesh_LOD1	Companion_HumanMale_Mesh_LOD1	-1	-1
0.0165381394326687	0.0157667100429535	2.62260437011719E-05	0.53634774684906	0.474617034196854	7.63202857971191	0.233078300952911	4.19162940979004	0.0772585570812225	-0.129880607128143	0.0115108024328947	-0.988448143005371	Companion_HumanMale_Mesh_LOD1	Companion_HumanMale_Mesh_LOD1	-1	-1
0.00646373257040977	0.0157667100429535	2.62260437011719E-05	0.53634774684906	0.474617034196854	7.63201522827148	0.233053088188171	4.19163417816162	0.0769758000969887	-0.130037307739258	0.0115765016525984	-0.988448798656464	Companion_HumanMale_Mesh_LOD1	Companion_HumanMale_Mesh_LOD1	-1	-1
0.00991749670356512	0.0152105093002319	0.000993892550468445	0.536484837532043	0.474047780036926	7.63204288482666	0.233041346073151	4.1916618347168	0.0768008232116699	-0.130149528384209	0.011433188803494	-0.988449335098267	Companion_HumanMale_Mesh_LOD1	Companion_HumanMale_Mesh_LOD1	-1	-1
0.0106926765292883	0.0152105093002319	0.000993892550468445	0.536484837532043	0.474047780036926	7.63195037841797	0.233005225658417	4.19166088104248	0.0767226815223694	-0.130445465445518	0.0113097690045834	-0.98841780424118	Companion_HumanMale_Mesh_LOD1	Companion_HumanMale_Mesh_LOD1	-1	-1
0.0123911621049047	0.0153646469116211	0.000741139054298401	0.535989344120026	0.474119663238525	7.63190650939941	0.232978284358978	4.19161033630371	0.0766076296567917	-0.130718812346458	0.0111238742247224	-0.98839271068573	Companion_HumanMale_Mesh_LOD1	Companion_HumanMale_Mesh_LOD1	-1	-1
0.0102283880114555	0.0153646469116211	0.000741139054298401	0.535989344120026	0.474119663238525	7.63190460205078	0.232953488826752	4.19160461425781	0.0764754936099052	-0.130913227796555	0.0108793955296278	-0.988379955291748	Companion_HumanMale_Mesh_LOD1	Companion_HumanMale_Mesh_LOD1	-1	-1
0.0113999396562576	0.0153646469116211	0.000741139054298401	0.535989344120026	0.474119663238525	7.63184976577759	0.232858955860138	4.19163417816162	0.0762773677706718	-0.131035313010216	0.0107295671477914	-0.98838073015213	Companion_HumanMale_Mesh_LOD1	Companion_HumanMale_Mesh_LOD1	-1	-1
0.0107866460457444	0.0153646469116211	0.000741139054298401	0.535989344120026	0.474119663238525	7.63180780410767	0.232774913311005	4.19170665740967	0.076118990778923	-0.1310945302248	0.0108913714066148	-0.988383293151855	Companion_HumanMale_Mesh_LOD1	Companion_HumanMale_Mesh_LOD1	-1	-1
0.0123973097652197	0.015585869550705	0.00018686056137085	0.535320162773132	0.472703278064728	7.63179206848145	0.232775807380676	4.19176006317139	0.0758537873625755	-0.131119385361671	0.0107837338000536	-0.988401532173157	Companion_HumanMale_Mesh_LOD1	Companion_HumanMale_Mesh_LOD1	-1	-1
0.0101572517305613	0.015585869550705	0.00018686056137085	0.535320162773132	0.472703278064728	7.63173294067383	0.23276275396347	4.19178342819214	0.0758298709988594	-0.131376057863235	0.0107096051797271	-0.98837012052536	Companion_HumanMale_Mesh_LOD1	Companion_HumanMale_Mesh_LOD1	-1	-1
0.0116247646510601	0.015585869550705	0.00018686056137085	0.535320162773132	0.472703278064728	7.63168525695801	0.232707977294922	4.19181537628174	0.0756196230649948	-0.131412535905838	0.0105190360918641	-0.988383412361145	Companion_HumanMale_Mesh_LOD1	Companion_HumanMale_Mesh_LOD1	-1	-1
0.0106464233249426	0.015585869550705	0.00018686056137085	0.535320162773132	0.472703278064728	7.63170146942139	0.232641875743866	4.19177913665771	0.0753872618079185	-0.131348446011543	0.01036605425179	-0.9884113073349	Companion_HumanMale_Mesh_LOD1	Companion_HumanMale_Mesh_LOD1	-1	-1
0.0119748841971159	0.0161359310150146	0.000907555222511292	0.534612834453583	0.470954060554504	7.631667137146	0.232636868953705	4.19180202484131	0.0749228447675705	-0.13120473921299	0.0102247223258018	-0.988467216491699	Companion_HumanMale_Mesh_LOD1	Companion_HumanMale_Mesh_LOD1	-1	-1
0.0109479464590549	0.0161359310150146	0.000907555222511292	0.534612834453583	0.470954060554504	7.63158321380615	0.232578814029694	4.19184494018555	0.0746071264147758	-0.13097982108593	0.0102127026766539	-0.988520979881287	Companion_HumanMale_Mesh_LOD1	Companion_HumanMale_Mesh_LOD1	-1	-1
0.0179784260690212	0.015749454498291	0.000241830945014954	0.534219026565552	0.470684289932251	7.63159847259521	0.232549667358398	4.19179821014404	0.0742959603667259	-0.130648508667946	0.0102121336385608	-0.988588273525238	Companion_HumanMale_Mesh_LOD1	Companion_HumanMale_Mesh_LOD1	-1	-1
0.00735981436446309	0.015749454498291	0.000241830945014954	0.534219026565552	0.470684289932251	7.63145399093628	0.232476532459259	4.19180488586426	0.0740616619586945	-0.13061361014843	0.0102363592013717	-0.98861026763916	Companion_HumanMale_Mesh_LOD1	Companion_HumanMale_Mesh_LOD1	-1	-1
0.00775120966136456	0.015749454498291	0.000241830945014954	0.534219026565552	0.470684289932251	7.63142204284668	0.232536256313324	4.19173765182495	0.0740098506212235	-0.130428895354271	0.0104456394910812	-0.988636374473572	Companion_HumanMale_Mesh_LOD1	Companion_HumanMale_Mesh_LOD1	-1	-1
0.0114991785958409	0.0159518718719482	0.000433489680290222	0.534866034984589	0.470660090446472	7.63141918182373	0.232636630535126	4.19174337387085	0.0740541517734528	-0.130412071943283	0.0104908840730786	-0.988634765148163	Companion_HumanMale_Mesh_LOD1	Companion_HumanMale_Mesh_LOD1	-1	-1
0.0104016913101077	0.0159518718719482	0.000433489680290222	0.534866034984589	0.470660090446472	7.63136529922485	0.232734620571136	4.19166564941406	0.0743075087666512	-0.130423977971077	0.0102021740749478	-0.988617181777954	Companion_HumanMale_Mesh_LOD1	Companion_HumanMale_Mesh_LOD1	-1	-1
0.0119722494855523	0.0159518718719482	0.000433489680290222	0.534866034984589	0.470660090446472	7.63133859634399	0.232816874980927	4.19161605834961	0.0744341909885406	-0.130507275462151	0.00996041111648083	-0.988599121570587	Companion_HumanMale_Mesh_LOD1	Companion_HumanMale_Mesh_LOD1	-1	-1
0.0113768130540848	0.0159518718719482	0.000433489680290222	0.534866034984589	0.470660090446472	7.6313591003418	0.232893288135529	4.19158267974854	0.0742884129285812	-0.130535185337067	0.00939390808343887	-0.988611936569214	Companion_HumanMale_Mesh_LOD1	Companion_HumanMale_Mesh_LOD1	-1	-1
0.0107275126501918	0.0162806212902069	0.000245213508605957	0.534247159957886	0.467513263225555	7.63129234313965	0.23299640417099	4.19149827957153	0.0742733106017113	-0.130746841430664	0.00892813969403505	-0.988589465618134	Companion_HumanMale_Mesh_LOD1	Companion_HumanMale_Mesh_LOD1	-1	-1
0.0107518099248409	0.0162806212902069	0.000245213508605957	0.534247159957886	0.467513263225555	7.63127040863037	0.233140647411346	4.19148826599121	0.0746489241719246	-0.130817472934723	0.00887858960777521	-0.988552212715149	Companion_HumanMale_Mesh_LOD1	Companion_HumanMale_Mesh_LOD1	-1	-1
0.0112971877679229	0.0162806212902069	0.000245213508605957	0.534247159957886	0.467513263225555	7.63126230239868	0.233436644077301	4.19148254394531	0.0751510933041573	-0.131043657660484	0.00882796104997396	-0.988484680652618	Companion_HumanMale_Mesh_LOD1	Companion_HumanMale_Mesh_LOD1	-1	-1
0.0111405709758401	0.0162806212902069	0.000245213508605957	0.534247159957886	0.467513263225555	7.6312141418457	0.233635127544403	4.19145774841309	0.0757002979516983	-0.131358459591866	0.00862027704715729	-0.988402843475342	Companion_HumanMale_Mesh_LOD1	Companion_HumanMale_Mesh_LOD1	-1	-1
0.0140211470425129	0.0145122110843658	0.000366061925888062	0.535170435905457	0.461792379617691	7.63129854202271	0.233806669712067	4.19148635864258	0.076486274600029	-0.131551891565323	0.00807161815464497	-0.988321244716644	Companion_HumanMale_Mesh_LOD1	Companion_HumanMale_Mesh_LOD1	-1	-1
0.00824418663978577	0.0145122110843658	0.000366061925888062	0.535170435905457	0.461792379617691	7.63140058517456	0.234088838100433	4.19153738021851	0.0767214670777321	-0.132243737578392	0.00713431416079402	-0.988217830657959	Companion_HumanMale_Mesh_LOD1	Companion_HumanMale_Mesh_LOD1	-1	-1
0.0111701376736164	0.0145122110843658	0.000366061925888062	0.535170435905457	0.461792379617691	7.63147306442261	0.234393060207367	4.19160842895508	0.0770724937319756	-0.132877632975578	0.00645232666283846	-0.988110244274139	Companion_HumanMale_Mesh_LOD1	Companion_HumanMale_Mesh_LOD1	-1	-1
0.0182445291429758	0.00916576385498047	0.0020982027053833	0.562893867492676	0.457879513502121	7.63150644302368	0.234629273414612	4.19166088104248	0.0773331224918365	-0.133554205298424	0.00673890858888626	-0.987996697425842	Companion_HumanMale_Mesh_LOD1	Companion_HumanMale_Mesh_LOD1	-1	-1
0.00635600369423628	0.00916576385498047	0.0020982027053833	0.562893867492676	0.457879513502121	7.63162422180176	0.234656989574432	4.19155359268188	0.0775874927639961	-0.13415715098381	0.00683481898158789	-0.987894415855408	Companion_HumanMale_Mesh_LOD1	Companion_HumanMale_Mesh_LOD1	-1	-1
0.00934899225831032	0.0139256715774536	0.00723296403884888	0.567653775215149	0.452744752168655	7.63160705566406	0.234595239162445	4.1915545463562	0.0770513191819191	-0.13474802672863	0.00656839786097407	-0.987857758998871	Companion_HumanMale_Mesh_LOD1	Companion_HumanMale_Mesh_LOD1	-1	-1
0.0108850076794624	0.0139256715774536	0.00723296403884888	0.567653775215149	0.452744752168655	7.63156509399414	0.234348058700562	4.19146585464478	0.0764331147074699	-0.135705024003983	0.00605961307883263	-0.987778007984161	Companion_HumanMale_Mesh_LOD1	Companion_HumanMale_Mesh_LOD1	-1	-1
0.0119631746783853	0.00344270467758179	0.00302630662918091	0.582415640354156	0.434817492961884	7.63158702850342	0.23391205072403	4.19147872924805	0.0744753777980804	-0.136610969901085	0.00590529013425112	-0.987803637981415	Companion_HumanMale_Mesh_LOD1	Companion_HumanMale_Mesh_LOD1	-1	-1
0.0100852372124791	0.00344270467758179	0.00302630662918091	0.582415640354156	0.434817492961884	7.63165760040283	0.233709454536438	4.19136381149292	0.0718401595950127	-0.137914299964905	0.00645949877798557	-0.987814247608185	Companion_HumanMale_Mesh_LOD1	Companion_HumanMale_Mesh_LOD1	-1	-1
0.0119631746783853	0.00344270467758179	0.00302630662918091	0.582415640354156	0.434817492961884	7.63165235519409	0.233435571193695	4.19127559661865	0.0705060660839081	-0.138900279998779	0.00730858091264963	-0.987766265869141	Companion_HumanMale_Mesh_LOD1	Companion_HumanMale_Mesh_LOD1	-1	-1
0.0103665618225932	0.00344270467758179	0.00302630662918091	0.582415640354156	0.434817492961884	7.6316876411438	0.233214318752289	4.19119071960449	0.0693597719073296	-0.139800265431404	0.00853303074836731	-0.987710654735565	Companion_HumanMale_Mesh_LOD1	Companion_HumanMale_Mesh_LOD1	-1	-1
0.011901113204658	0.00644579529762268	0.00379426777362823	0.585240006446838	0.422226846218109	7.63150691986084	0.232902467250824	4.19120407104492	0.0685307756066322	-0.140480384230614	0.00941837672144175	-0.987663984298706	Companion_HumanMale_Mesh_LOD1	Companion_HumanMale_Mesh_LOD1	-1	-1
0.0116312056779861	0.00644579529762268	0.00379426777362823	0.585240006446838	0.422226846218109	7.63149166107178	0.232843816280365	4.19139957427979	0.0675172507762909	-0.141275301575661	0.00993778090924025	-0.987615287303925	Companion_HumanMale_Mesh_LOD1	Companion_HumanMale_Mesh_LOD1	-1	-1
0.0104201333597302	0.00644579529762268	0.00379426777362823	0.585240006446838	0.422226846218109	7.63152313232422	0.232886493206024	4.19153165817261	0.0677697211503983	-0.142328590154648	0.0098521439358592	-0.987447679042816	Companion_HumanMale_Mesh_LOD1	Companion_HumanMale_Mesh_LOD1	-1	-1
0.0110738258808851	0.00644579529762268	0.00379426777362823	0.585240006446838	0.422226846218109	7.63154602050781	0.233056724071503	4.19173622131348	0.0686975568532944	-0.143246188759804	0.00943890865892172	-0.987254858016968	Companion_HumanMale_Mesh_LOD1	Companion_HumanMale_Mesh_LOD1	-1	-1
0.0114008178934455	0.00539550185203552	0.00226861238479614	0.581370234489441	0.418932348489761	7.63152122497559	0.233297884464264	4.1920280456543	0.0706028863787651	-0.144128069281578	0.00870017427951097	-0.986998796463013	Companion_HumanMale_Mesh_LOD1	Companion_HumanMale_Mesh_LOD1	-1	-1
0.0117122950032353	0.00539550185203552	0.00226861238479614	0.581370234489441	0.418932348489761	7.63155174255371	0.233487784862518	4.19256401062012	0.0725718587636948	-0.144693419337273	0.00812523998320103	-0.986778140068054	Companion_HumanMale_Mesh_LOD1	Companion_HumanMale_Mesh_LOD1	-1	-1
0.0170636102557182	0.00570076704025269	0.000960856676101685	0.577495396137238	0.413739025592804	7.63153553009033	0.233811438083649	4.19306659698486	0.0750214010477066	-0.145169973373413	0.00750442501157522	-0.986529886722565	Companion_HumanMale_Mesh_LOD1	Companion_HumanMale_Mesh_LOD1	-1	-1
0.0074941823258996	0.00570076704025269	0.000960856676101685	0.577495396137238	0.413739025592804	7.63146781921387	0.234038650989532	4.19364356994629	0.0774281919002533	-0.145654439926147	0.00614802027121186	-0.986281871795654	Companion_HumanMale_Mesh_LOD1	Companion_HumanMale_Mesh_LOD1	-1	-1
0.00907440111041069	0.00570076704025269	0.000960856676101685	0.577495396137238	0.413739025592804	7.6313648223877	0.23429000377655	4.19417524337769	0.0794978588819504	-0.14613164961338	0.00496093928813934	-0.986053287982941	Companion_HumanMale_Mesh_LOD1	Companion_HumanMale_Mesh_LOD1	-1	-1
0.0100146867334843	0.00570076704025269	0.000960856676101685	0.577495396137238	0.413739025592804	7.63128137588501	0.234638869762421	4.19467067718506	0.0815110355615616	-0.146303787827492	0.00478610768914223	-0.985864222049713	Companion_HumanMale_Mesh_LOD1	Companion_HumanMale_Mesh_LOD1	-1	-1
0.0110357692465186	0.00798553228378296	0.000999018549919128	0.578141152858734	0.407953143119812	7.63096332550049	0.234946668148041	4.19504928588867	0.0836202278733253	-0.146175727248192	0.00489878421649337	-0.985706031322479	Companion_HumanMale_Mesh_LOD1	Companion_HumanMale_Mesh_LOD1	-1	-1
0.0114338975399733	0.00798553228378296	0.000999018549919128	0.578141152858734	0.407953143119812	7.630455493927	0.235345661640167	4.1954345703125	0.0858919024467468	-0.145459905266762	0.00456914585083723	-0.98561817407608	Companion_HumanMale_Mesh_LOD1	Companion_HumanMale_Mesh_LOD1	-1	-1
0.0124573223292828	0.01016765832901	9.34600830078125E-05	0.576854526996613	0.400952368974686	7.6298713684082	0.23564475774765	4.19576120376587	0.0879201963543892	-0.145105928182602	0.00304384646005929	-0.985497415065765	Companion_HumanMale_Mesh_LOD1	Companion_HumanMale_Mesh_LOD1	-1	-1
0.0140887703746557	0.01016765832901	9.34600830078125E-05	0.576854526996613	0.400952368974686	7.62932777404785	0.235797047615051	4.19611930847168	0.0898258537054062	-0.144592627882957	0.00113921507727355	-0.985405027866364	Companion_HumanMale_Mesh_LOD1	Companion_HumanMale_Mesh_LOD1	-1	-1
0.00726145319640636	0.01016765832901	9.34600830078125E-05	0.576854526996613	0.400952368974686	7.62874555587769	0.235856473445892	4.19637632369995	0.0901190191507339	-0.144563317298889	-0.00027583132032305	-0.985383152961731	Companion_HumanMale_Mesh_LOD1	Companion_HumanMale_Mesh_LOD1	-1	-1
0.0107172662392259	0.01016765832901	9.34600830078125E-05	0.576854526996613	0.400952368974686	7.62821960449219	0.235675454139709	4.19658946990967	0.0899366140365601	-0.144694834947586	-0.00133690249640495	-0.985379636287689	Companion_HumanMale_Mesh_LOD1	Companion_HumanMale_Mesh_LOD1	-1	-1
0.0119538065046072	0.0154955387115479	0.00134856998920441	0.584157466888428	0.391592025756836	7.62766790390015	0.235402047634125	4.19677686691284	0.0886995941400528	-0.14451040327549	-0.0014976654201746	-0.985518634319305	Companion_HumanMale_Mesh_LOD1	Companion_HumanMale_Mesh_LOD1	-1	-1
0.0102201914414763	0.0154955387115479	0.00134856998920441	0.584157466888428	0.391592025756836	7.62697839736938	0.235138475894928	4.19687461853027	0.0881018713116646	-0.14413495361805	-0.0014697106089443	-0.985627233982086	Companion_HumanMale_Mesh_LOD1	Companion_HumanMale_Mesh_LOD1	-1	-1
0.0120644625276327	0.0154955387115479	0.00134856998920441	0.584157466888428	0.391592025756836	7.62631320953369	0.234732806682587	4.19703483581543	0.0875431224703789	-0.143176019191742	-0.00148511573206633	-0.985816776752472	Companion_HumanMale_Mesh_LOD1	Companion_HumanMale_Mesh_LOD1	-1	-1
0.0111224204301834	0.0154955387115479	0.00134856998920441	0.584157466888428	0.391592025756836	7.62558889389038	0.234289348125458	4.1971755027771	0.0864991322159767	-0.142023980617523	-0.00166466203518212	-0.986075222492218	Companion_HumanMale_Mesh_LOD1	Companion_HumanMale_Mesh_LOD1	-1	-1
0.0196704734116793	0.0139496028423309	0.00270955264568329	0.583443880081177	0.387410640716553	7.62495946884155	0.233682751655579	4.19725131988525	0.0845095291733742	-0.1410091817379	-0.00230741058476269	-0.986392021179199	Companion_HumanMale_Mesh_LOD1	Companion_HumanMale_Mesh_LOD1	-1	-1
0.00801379885524511	0.0139496028423309	0.00270955264568329	0.583443880081177	0.387410640716553	7.62419128417969	0.233051538467407	4.19738483428955	0.0808645486831665	-0.140490844845772	-0.00360885774716735	-0.986767590045929	Companion_HumanMale_Mesh_LOD1	Companion_HumanMale_Mesh_LOD1	-1	-1
0.0165126696228981	0.00741535425186157	0.00705666840076447	0.541358053684235	0.380814075469971	7.62298488616943	0.231787025928497	4.19752883911133	0.0773520320653915	-0.140301570296288	-0.00494261598214507	-0.987070262432098	Companion_HumanMale_Mesh_LOD1	Companion_HumanMale_Mesh_LOD1	-1	-1
0.0115632889792323	0.00741535425186157	0.00705666840076447	0.541358053684235	0.380814075469971	7.62243175506592	0.231193482875824	4.19754409790039	0.0755491554737091	-0.140854820609093	-0.00583243649452925	-0.987126231193542	Companion_HumanMale_Mesh_LOD1	Companion_HumanMale_Mesh_LOD1	-1	-1
0.0109865888953209	0.000918090343475342	0.00343514978885651	0.533727049827576	0.378690302371979	7.62187767028809	0.230554640293121	4.19755983352661	0.0732578635215759	-0.141375049948692	-0.00686410767957568	-0.987217962741852	Companion_HumanMale_Mesh_LOD1	Companion_HumanMale_Mesh_LOD1	-1	-1
0.0111677953973413	0.000918090343475342	0.00343514978885651	0.533727049827576	0.378690302371979	7.62140464782715	0.229837656021118	4.19758462905884	0.0712872594594955	-0.142000019550323	-0.00740240700542927	-0.987268626689911	Companion_HumanMale_Mesh_LOD1	Companion_HumanMale_Mesh_LOD1	-1	-1
0.0109497029334307	0.000894546508789063	0.004222571849823	0.531781315803528	0.384653508663177	7.6208348274231	0.229381263256073	4.19763231277466	0.0705311596393585	-0.142150774598122	-0.00734690763056278	-0.987301647663116	Companion_HumanMale_Mesh_LOD1	Companion_HumanMale_Mesh_LOD1	-1	-1
0.0113700795918703	0.000894546508789063	0.004222571849823	0.531781315803528	0.384653508663177	7.62025594711304	0.229239165782928	4.19767951965332	0.0713619962334633	-0.141455441713333	-0.00669194804504514	-0.987346470355988	Companion_HumanMale_Mesh_LOD1	Companion_HumanMale_Mesh_LOD1	-1	-1
0.011007959023118	0.000894546508789063	0.004222571849823	0.531781315803528	0.384653508663177	7.61956262588501	0.229358494281769	4.19773006439209	0.0724000856280327	-0.140092059969902	-0.00685868784785271	-0.987464129924774	Companion_HumanMale_Mesh_LOD1	Companion_HumanMale_Mesh_LOD1	-1	-1
0.0109760500490665	0.000894546508789063	0.004222571849823	0.531781315803528	0.384653508663177	7.61915969848633	0.229796171188354	4.19779491424561	0.0736029595136642	-0.138354793190956	-0.00820702128112316	-0.98760986328125	Companion_HumanMale_Mesh_LOD1	Companion_HumanMale_Mesh_LOD1	-1	-1
0.0123864784836769	0.0115344822406769	0.00444446504116058	0.520792722702026	0.397301018238068	7.61860370635986	0.230126321315765	4.19784450531006	0.074404314160347	-0.13634304702282	-0.0102629438042641	-0.98781031370163	Companion_HumanMale_Mesh_LOD1	Companion_HumanMale_Mesh_LOD1	-1	-1
0.0103896884247661	0.0115344822406769	0.00444446504116058	0.520792722702026	0.397301018238068	7.61819648742676	0.230304360389709	4.19784021377563	0.074457123875618	-0.134720370173454	-0.0121098700910807	-0.988008081912994	Companion_HumanMale_Mesh_LOD1	Companion_HumanMale_Mesh_LOD1	-1	-1
0.0113109461963177	0.0115344822406769	0.00444446504116058	0.520792722702026	0.397301018238068	7.61788940429688	0.230571091175079	4.19786739349365	0.074251189827919	-0.133488789200783	-0.0135326972231269	-0.988172292709351	Companion_HumanMale_Mesh_LOD1	Companion_HumanMale_Mesh_LOD1	-1	-1
0.0181549489498138	0.0109076201915741	0.00767435133457184	0.521419525146484	0.400530934333801	7.61759948730469	0.230884492397308	4.19786262512207	0.0738942101597786	-0.132646262645721	-0.0142073119059205	-0.988303005695343	Companion_HumanMale_Mesh_LOD1	Companion_HumanMale_Mesh_LOD1	-1	-1
0.00685512786731124	0.0109076201915741	0.00767435133457184	0.521419525146484	0.400530934333801	7.61732292175293	0.231330156326294	4.19803142547607	0.0742774456739426	-0.131895691156387	-0.0143908113241196	-0.988372087478638	Companion_HumanMale_Mesh_LOD1	Companion_HumanMale_Mesh_LOD1	-1	-1
0.00788674876093864	0.0109076201915741	0.00767435133457184	0.521419525146484	0.400530934333801	7.61726808547974	0.2321417927742	4.19824504852295	0.0762081891298294	-0.130743086338043	-0.0141765577718616	-0.988381326198578	Companion_HumanMale_Mesh_LOD1	Companion_HumanMale_Mesh_LOD1	-1	-1
0.0128089040517807	0.0109076201915741	0.00767435133457184	0.521419525146484	0.400530934333801	7.61713266372681	0.233089208602905	4.19862079620361	0.0785736963152885	-0.12920293211937	-0.0144897866994143	-0.98839408159256	Companion_HumanMale_Mesh_LOD1	Companion_HumanMale_Mesh_LOD1	-1	-1
0.00966164097189903	0.0109076201915741	0.00767435133457184	0.521419525146484	0.400530934333801	7.61705160140991	0.234214007854462	4.19894886016846	0.0811159238219261	-0.127857893705368	-0.0157388467341661	-0.988344490528107	Companion_HumanMale_Mesh_LOD1	Companion_HumanMale_Mesh_LOD1	-1	-1
0.0112398099154234	0.0109076201915741	0.00767435133457184	0.521419525146484	0.400530934333801	7.61727380752563	0.235222935676575	4.1993293762207	0.083748571574688	-0.126656278967857	-0.0175914987921715	-0.988248407840729	Companion_HumanMale_Mesh_LOD1	Companion_HumanMale_Mesh_LOD1	-1	-1
0.0112758176401258	0.0107173323631287	0.0174422860145569	0.521609842777252	0.410298854112625	7.61750507354736	0.236144840717316	4.19978666305542	0.0863303765654564	-0.126339942216873	-0.0193724352866411	-0.988033473491669	Companion_HumanMale_Mesh_LOD1	Companion_HumanMale_Mesh_LOD1	-1	-1
0.0114377029240131	0.0107173323631287	0.0174422860145569	0.521609842777252	0.410298854112625	7.61780643463135	0.236888289451599	4.20020055770874	0.087852381169796	-0.126672193408012	-0.0206169206649065	-0.98783153295517	Companion_HumanMale_Mesh_LOD1	Companion_HumanMale_Mesh_LOD1	-1	-1
0.0106235891580582	0.0107173323631287	0.0174422860145569	0.521609842777252	0.410298854112625	7.61806631088257	0.237355172634125	4.20060539245605	0.0884685292840004	-0.127315521240234	-0.0210701543837786	-0.98768424987793	Companion_HumanMale_Mesh_LOD1	Companion_HumanMale_Mesh_LOD1	-1	-1
0.0115287462249398	0.00120389461517334	0.0109565258026123	0.531123280525208	0.403813093900681	7.61847114562988	0.237717747688293	4.20115184783936	0.0881869122385979	-0.128445416688919	-0.0210389252752066	-0.987563788890839	Companion_HumanMale_Mesh_LOD1	Companion_HumanMale_Mesh_LOD1	-1	-1
0.0121534559875727	0.00120389461517334	0.0109565258026123	0.531123280525208	0.403813093900681	7.61879205703735	0.238066256046295	4.2016716003418	0.0880770236253738	-0.129356697201729	-0.0207388661801815	-0.987460970878601	Companion_HumanMale_Mesh_LOD1	Companion_HumanMale_Mesh_LOD1	-1	-1
0.00987563468515873	0.00120389461517334	0.0109565258026123	0.531123280525208	0.403813093900681	7.61922073364258	0.238484263420105	4.20226097106934	0.0877244248986244	-0.130092144012451	-0.0199761409312487	-0.987411499023438	Companion_HumanMale_Mesh_LOD1	Companion_HumanMale_Mesh_LOD1	-1	-1
0.0123422741889954	0.0101723968982697	0.00526061654090881	0.536828517913818	0.418974727392197	7.61960697174072	0.238870561122894	4.2028751373291	0.087966114282608	-0.130431145429611	-0.0199547577649355	-0.987345695495605	Companion_HumanMale_Mesh_LOD1	Companion_HumanMale_Mesh_LOD1	-1	-1
0.0100843589752913	0.0101723968982697	0.00526061654090881	0.536828517913818	0.418974727392197	7.61987113952637	0.23932683467865	4.20346164703369	0.0883474126458168	-0.130329966545105	-0.0205834321677685	-0.987312078475952	Companion_HumanMale_Mesh_LOD1	Companion_HumanMale_Mesh_LOD1	-1	-1
0.0182931236922741	0.0137530267238617	0.00414559245109558	0.533247947692871	0.42008975148201	7.62020397186279	0.239705264568329	4.20408868789673	0.0882312580943108	-0.129815965890884	-0.0216132961213589	-0.987368226051331	Companion_HumanMale_Mesh_LOD1	Companion_HumanMale_Mesh_LOD1	-1	-1
0.00691660353913903	0.0137530267238617	0.00414559245109558	0.533247947692871	0.42008975148201	7.62054347991943	0.23996514081955	4.2047119140625	0.0881198570132256	-0.129143163561821	-0.0226008128374815	-0.987444281578064	Companion_HumanMale_Mesh_LOD1	Companion_HumanMale_Mesh_LOD1	-1	-1
0.0100787971168756	0.0137530267238617	0.00414559245109558	0.533247947692871	0.42008975148201	7.62084293365479	0.240103304386139	4.20527744293213	0.0872684568166733	-0.128434002399445	-0.0234295055270195	-0.987592995166779	Companion_HumanMale_Mesh_LOD1	Companion_HumanMale_Mesh_LOD1	-1	-1
0.00967569183558226	0.0104975998401642	0.00455501675605774	0.530271410942078	0.41837015748024	7.62126970291138	0.24015611410141	4.20579814910889	0.0859256386756897	-0.127743065357208	-0.0237759947776794	-0.987792074680328	Companion_HumanMale_Mesh_LOD1	Companion_HumanMale_Mesh_LOD1	-1	-1
0.0112216603010893	0.0104975998401642	0.00455501675605774	0.530271410942078	0.41837015748024	7.62163352966309	0.240106821060181	4.20631647109985	0.0842841118574142	-0.127191245555878	-0.0239383056759834	-0.988000810146332	Companion_HumanMale_Mesh_LOD1	Companion_HumanMale_Mesh_LOD1	-1	-1
0.0107679106295109	0.0104975998401642	0.00455501675605774	0.530271410942078	0.41837015748024	7.62195205688477	0.23992919921875	4.20671510696411	0.082346148788929	-0.126693576574326	-0.0240203533321619	-0.988226115703583	Companion_HumanMale_Mesh_LOD1	Companion_HumanMale_Mesh_LOD1	-1	-1
0.0114658065140247	0.0104975998401642	0.00455501675605774	0.530271410942078	0.41837015748024	7.62228918075562	0.239715039730072	4.20717525482178	0.0805630907416344	-0.126264080405235	-0.0243747625499964	-0.988419353961945	Companion_HumanMale_Mesh_LOD1	Companion_HumanMale_Mesh_LOD1	-1	-1
0.0117070255801082	0.00876247882843018	0.00303049385547638	0.531607925891876	0.41539478302002	7.62263011932373	0.23961740732193	4.20759296417236	0.079517088830471	-0.125851988792419	-0.0246638059616089	-0.988549470901489	Companion_HumanMale_Mesh_LOD1	Companion_HumanMale_Mesh_LOD1	-1	-1
0.0105632841587067	0.00876247882843018	0.00303049385547638	0.531607925891876	0.41539478302002	7.62303829193115	0.239587426185608	4.20809841156006	0.0799819380044937	-0.125191807746887	-0.0248902458697557	-0.988590121269226	Companion_HumanMale_Mesh_LOD1	Companion_HumanMale_Mesh_LOD1	-1	-1
0.0112371752038598	0.00876247882843018	0.00303049385547638	0.531607925891876	0.41539478302002	7.62341022491455	0.239801943302155	4.20849990844727	0.0806938707828522	-0.124385192990303	-0.0250744726508856	-0.988629400730133	Companion_HumanMale_Mesh_LOD1	Companion_HumanMale_Mesh_LOD1	-1	-1
0.0142623661085963	0.0118309855461121	0.00104327499866486	0.528974175453186	0.423005521297455	7.62372922897339	0.240005910396576	4.20881605148315	0.0815711095929146	-0.123220473527908	-0.025608541443944	-0.988689601421356	Companion_HumanMale_Mesh_LOD1	Companion_HumanMale_Mesh_LOD1	-1	-1
0.00883406028151512	0.0118309855461121	0.00104327499866486	0.528974175453186	0.423005521297455	7.6240701675415	0.240009963512421	4.20920658111572	0.0820131823420525	-0.121971465647221	-0.0264551248401403	-0.988785624504089	Companion_HumanMale_Mesh_LOD1	Companion_HumanMale_Mesh_LOD1	-1	-1
0.0102816671133041	0.0118309855461121	0.00104327499866486	0.528974175453186	0.423005521297455	7.62425422668457	0.239881575107574	4.20946311950684	0.081789955496788	-0.120562396943569	-0.0273750480264425	-0.988951861858368	Companion_HumanMale_Mesh_LOD1	Companion_HumanMale_Mesh_LOD1	-1	-1
0.0120758796110749	0.0110183954238892	0.00110669434070587	0.529538512229919	0.420745432376862	7.62452697753906	0.239793658256531	4.2097544670105	0.0811831578612328	-0.119253948330879	-0.0279398616403341	-0.989144682884216	Companion_HumanMale_Mesh_LOD1	Companion_HumanMale_Mesh_LOD1	-1	-1
0.0158223863691092	0.0110183954238892	0.00110669434070587	0.529538512229919	0.420745432376862	7.62485456466675	0.239528238773346	4.20995807647705	0.0800121799111366	-0.117976546287537	-0.0282819401472807	-0.989383518695831	Companion_HumanMale_Mesh_LOD1	Companion_HumanMale_Mesh_LOD1	-1	-1
0.00670553697273135	0.0110183954238892	0.00110669434070587	0.529538512229919	0.420745432376862	7.6251425743103	0.239209592342377	4.21013450622559	0.0788749307394028	-0.116901069879532	-0.0287193059921265	-0.989589869976044	Companion_HumanMale_Mesh_LOD1	Companion_HumanMale_Mesh_LOD1	-1	-1
0.0102090667933226	0.00940129160881042	0.00129953026771545	0.532482862472534	0.417017698287964	7.62547779083252	0.239038050174713	4.21042728424072	0.0781975388526917	-0.115459911525249	-0.029339924454689	-0.989794611930847	Companion_HumanMale_Mesh_LOD1	Companion_HumanMale_Mesh_LOD1	-1	-1
0.0116165680810809	0.00940129160881042	0.00129953026771545	0.532482862472534	0.417017698287964	7.62572288513184	0.238970339298248	4.21056032180786	0.0783414989709854	-0.113904476165771	-0.0296650342643261	-0.989953756332397	Companion_HumanMale_Mesh_LOD1	Companion_HumanMale_Mesh_LOD1	-1	-1
0.0111004654318094	0.0102575421333313	0.0017365962266922	0.533843696117401	0.421366333961487	7.62621164321899	0.23909854888916	4.21068906784058	0.0786838978528976	-0.112235672771931	-0.0297174192965031	-0.990115642547607	Companion_HumanMale_Mesh_LOD1	Companion_HumanMale_Mesh_LOD1	-1	-1
0.0107406862080097	0.0102575421333313	0.0017365962266922	0.533843696117401	0.421366333961487	7.62654209136963	0.23909467458725	4.21066379547119	0.0791901051998138	-0.110502801835537	-0.029400609433651	-0.990279614925385	Companion_HumanMale_Mesh_LOD1	Companion_HumanMale_Mesh_LOD1	-1	-1
0.0109640471637249	0.0102575421333313	0.0017365962266922	0.533843696117401	0.421366333961487	7.62691688537598	0.238901317119598	4.21067047119141	0.0792707353830338	-0.108977846801281	-0.0290431920439005	-0.990452706813812	Companion_HumanMale_Mesh_LOD1	Companion_HumanMale_Mesh_LOD1	-1	-1
0.0114564383402467	0.0102575421333313	0.0017365962266922	0.533843696117401	0.421366333961487	7.62727785110474	0.238729178905487	4.21059942245483	0.0787952989339828	-0.107594460248947	-0.0287959687411785	-0.990649044513702	Companion_HumanMale_Mesh_LOD1	Companion_HumanMale_Mesh_LOD1	-1	-1
0.011676287278533	0.00973731279373169	0.00368766486644745	0.53494781255722	0.420999884605408	7.62768220901489	0.238524258136749	4.21046352386475	0.0780177116394043	-0.106176115572453	-0.0285046845674515	-0.990872025489807	Companion_HumanMale_Mesh_LOD1	Companion_HumanMale_Mesh_LOD1	-1	-1
0.0108492933213711	0.00973731279373169	0.00368766486644745	0.53494781255722	0.420999884605408	7.62806987762451	0.238248646259308	4.21033382415771	0.0774985775351524	-0.104888655245304	-0.0280017293989658	-0.991064190864563	Companion_HumanMale_Mesh_LOD1	Companion_HumanMale_Mesh_LOD1	-1	-1
0.0105583081021905	0.00973731279373169	0.00368766486644745	0.53494781255722	0.420999884605408	7.62846374511719	0.237955749034882	4.21005630493164	0.0769158005714417	-0.103630416095257	-0.0269905459135771	-0.991270005702972	Companion_HumanMale_Mesh_LOD1	Companion_HumanMale_Mesh_LOD1	-1	-1
0.0112149268388748	0.00973731279373169	0.00368766486644745	0.53494781255722	0.420999884605408	7.62889051437378	0.237705171108246	4.20968151092529	0.0763608142733574	-0.102505743503571	-0.0256706867367029	-0.991464912891388	Companion_HumanMale_Mesh_LOD1	Companion_HumanMale_Mesh_LOD1	-1	-1
0.0124587854370475	0.00579783320426941	0.00639583170413971	0.53888726234436	0.423708081245422	7.62926483154297	0.237397611141205	4.20930194854736	0.075750857591629	-0.101665370166302	-0.0240027364343405	-0.991639971733093	Companion_HumanMale_Mesh_LOD1	Companion_HumanMale_Mesh_LOD1	-1	-1
0.0110082514584064	0.00579783320426941	0.00639583170413971	0.53888726234436	0.423708081245422	7.62969875335693	0.237064182758331	4.20889234542847	0.0751196220517159	-0.100943095982075	-0.0219200532883406	-0.991810023784637	Companion_HumanMale_Mesh_LOD1	Companion_HumanMale_Mesh_LOD1	-1	-1
0.0177102759480476	0.00387033820152283	0.00588135421276093	0.540814757347107	0.423193573951721	7.63015604019165	0.23670905828476	4.20846652984619	0.0748937129974365	-0.100245527923107	-0.0201798975467682	-0.991934776306152	Companion_HumanMale_Mesh_LOD1	Companion_HumanMale_Mesh_LOD1	-1	-1
0.0072394972667098	0.00387033820152283	0.00588135421276093	0.540814757347107	0.423193573951721	7.63055562973022	0.236425817012787	4.20801115036011	0.0748305767774582	-0.0996540859341621	-0.0184259749948978	-0.992033243179321	Companion_HumanMale_Mesh_LOD1	Companion_HumanMale_Mesh_LOD1	-1	-1
0.0191772039979696	0.00387033820152283	0.00588135421276093	0.540814757347107	0.423193573951721	7.63140535354614	0.235999822616577	4.20697021484375	0.0752280727028847	-0.0986568927764893	-0.0152357891201973	-0.992156982421875	Companion_HumanMale_Mesh_LOD1	Companion_HumanMale_Mesh_LOD1	-1	-1
0.0116461347788572	0.00387033820152283	0.00588135421276093	0.540814757347107	0.423193573951721	7.63172292709351	0.23576146364212	4.20644855499268	0.0753352269530296	-0.0986876413226128	-0.0136919002979994	-0.992168307304382	Companion_HumanMale_Mesh_LOD1	Companion_HumanMale_Mesh_LOD1	-1	-1
0.0106739411130548	0.00387033820152283	0.00588135421276093	0.540814757347107	0.423193573951721	7.63231229782104	0.235672116279602	4.20592212677002	0.0753128752112389	-0.0986634790897369	-0.0119750099256635	-0.992194592952728	Companion_HumanMale_Mesh_LOD1	Companion_HumanMale_Mesh_LOD1	-1	-1
0.0111625259742141	0.00540277361869812	0.00636732578277588	0.607219696044922	0.451565891504288	7.63276481628418	0.235465109348297	4.20519924163818	0.0754418596625328	-0.0990662649273872	-0.0104769421741366	-0.992161631584167	Companion_HumanMale_Mesh_LOD1	Companion_HumanMale_Mesh_LOD1	-1	-1
0.0110062025487423	0.00540277361869812	0.00636732578277588	0.607219696044922	0.451565891504288	7.63315296173096	0.235284328460693	4.20466756820679	0.0754925012588501	-0.0997499525547028	-0.00926877185702324	-0.992101311683655	Companion_HumanMale_Mesh_LOD1	Companion_HumanMale_Mesh_LOD1	-1	-1
0.0109248198568821	0.00540277361869812	0.00636732578277588	0.607219696044922	0.451565891504288	7.63356065750122	0.235157907009125	4.20418167114258	0.0756108015775681	-0.10034091770649	-0.00779836671426892	-0.992045342922211	Companion_HumanMale_Mesh_LOD1	Companion_HumanMale_Mesh_LOD1	-1	-1
0.0112813794985414	0.00540277361869812	0.00636732578277588	0.607219696044922	0.451565891504288	7.63395261764526	0.235136926174164	4.20364713668823	0.0759071558713913	-0.10117095708847	-0.0064256708137691	-0.991948187351227	Companion_HumanMale_Mesh_LOD1	Companion_HumanMale_Mesh_LOD1	-1	-1
0.01127406116575	0.00495421886444092	0.00425370037555695	0.606771111488342	0.453679502010345	7.63423347473145	0.235183298587799	4.20311260223389	0.076629675924778	-0.102064818143845	-0.00529126357287169	-0.991807758808136	Companion_HumanMale_Mesh_LOD1	Companion_HumanMale_Mesh_LOD1	-1	-1
0.0120486551895738	0.00495421886444092	0.00425370037555695	0.606771111488342	0.453679502010345	7.63465547561646	0.235434949398041	4.20259380340576	0.0775280222296715	-0.103181585669518	-0.00395787227898836	-0.991628646850586	Companion_HumanMale_Mesh_LOD1	Companion_HumanMale_Mesh_LOD1	-1	-1
0.0102357063442469	0.00495421886444092	0.00425370037555695	0.606771111488342	0.453679502010345	7.63500547409058	0.235596120357513	4.20203018188477	0.0784692317247391	-0.10432293266058	-0.00234322552569211	-0.991440296173096	Companion_HumanMale_Mesh_LOD1	Companion_HumanMale_Mesh_LOD1	-1	-1
0.0120987137779593	0.00495421886444092	0.00425370037555695	0.606771111488342	0.453679502010345	7.63524341583252	0.23578280210495	4.20150947570801	0.0797372609376907	-0.105756603181362	-0.000632936949841678	-0.991189777851105	Companion_HumanMale_Mesh_LOD1	Companion_HumanMale_Mesh_LOD1	-1	-1
0.017166068777442	0.00495421886444092	0.00425370037555695	0.606771111488342	0.453679502010345	7.63551425933838	0.235876977443695	4.20098972320557	0.0806383490562439	-0.107289247214794	0.000974885188043118	-0.990951836109161	Companion_HumanMale_Mesh_LOD1	Companion_HumanMale_Mesh_LOD1	-1	-1
0.00703106541186571	0.00495421886444092	0.00425370037555695	0.606771111488342	0.453679502010345	7.63585567474365	0.235959470272064	4.20037698745728	0.0812025591731071	-0.108844012022018	0.00213905237615108	-0.990734338760376	Companion_HumanMale_Mesh_LOD1	Companion_HumanMale_Mesh_LOD1	-1	-1
0.00919061992317438	0.00495421886444092	0.00425370037555695	0.606771111488342	0.453679502010345	7.6360034942627	0.236105263233185	4.19982433319092	0.0816555023193359	-0.110593073070049	0.00276003056205809	-0.990501880645752	Companion_HumanMale_Mesh_LOD1	Companion_HumanMale_Mesh_LOD1	-1	-1
0.0105439638718963	0.00495421886444092	0.00425370037555695	0.606771111488342	0.453679502010345	7.63623666763306	0.236267447471619	4.19935417175293	0.082291379570961	-0.112065352499485	0.00304169137962162	-0.990282952785492	Companion_HumanMale_Mesh_LOD1	Companion_HumanMale_Mesh_LOD1	-1	-1
0.0135644702240825	0.00495421886444092	0.00425370037555695	0.606771111488342	0.453679502010345	7.63633441925049	0.236456692218781	4.19887542724609	0.0831029713153839	-0.113376684486866	0.00308767450042069	-0.990065693855286	Companion_HumanMale_Mesh_LOD1	Companion_HumanMale_Mesh_LOD1	-1	-1
0.00913616921752691	0.00495421886444092	0.00425370037555695	0.606771111488342	0.453679502010345	7.63628673553467	0.236688911914825	4.19839382171631	0.0841912850737572	-0.114260539412498	0.00331043056212366	-0.989871442317963	Companion_HumanMale_Mesh_LOD1	Companion_HumanMale_Mesh_LOD1	-1	-1
0.0105354739353061	0.00495421886444092	0.00425370037555695	0.606771111488342	0.453679502010345	7.63630294799805	0.236874282360077	4.19796180725098	0.0853417739272118	-0.11518394947052	0.00361485010944307	-0.989664793014526	Companion_HumanMale_Mesh_LOD1	Companion_HumanMale_Mesh_LOD1	-1	-1
0.0114207239821553	0.00495421886444092	0.00425370037555695	0.606771111488342	0.453679502010345	7.63626623153687	0.236997902393341	4.19744157791138	0.0862625613808632	-0.11567047983408	0.00405068369582295	-0.989526569843292	Companion_HumanMale_Mesh_LOD1	Companion_HumanMale_Mesh_LOD1	-1	-1
0.0112398099154234	0.00495421886444092	0.00425370037555695	0.606771111488342	0.453679502010345	7.63616514205933	0.237034320831299	4.19704151153564	0.0867604538798332	-0.11634536087513	0.00452642608433962	-0.989401817321777	Companion_HumanMale_Mesh_LOD1	Companion_HumanMale_Mesh_LOD1	-1	-1
0.0106265163049102	0.00495421886444092	0.00425370037555695	0.606771111488342	0.453679502010345	7.63594913482666	0.236957252025604	4.19663000106812	0.0871250033378601	-0.116701319813728	0.00473137944936752	-0.989326894283295	Companion_HumanMale_Mesh_LOD1	Companion_HumanMale_Mesh_LOD1	-1	-1
0.0115135237574577	0.00495421886444092	0.00425370037555695	0.606771111488342	0.453679502010345	7.63575029373169	0.236935675144196	4.19621181488037	0.0871844440698624	-0.117010243237019	0.0044694347307086	-0.989286363124847	Companion_HumanMale_Mesh_LOD1	Companion_HumanMale_Mesh_LOD1	-1	-1
0.0119075533002615	0.00495421886444092	0.00425370037555695	0.606771111488342	0.453679502010345	7.63550567626953	0.236786544322968	4.19581174850464	0.0867680907249451	-0.117048352956772	0.00400162767618895	-0.989320456981659	Companion_HumanMale_Mesh_LOD1	Companion_HumanMale_Mesh_LOD1	-1	-1
0.0107910372316837	0.00495421886444092	0.00425370037555695	0.606771111488342	0.453679502010345	7.63515758514404	0.236689388751984	4.19536399841309	0.0865576192736626	-0.116898827254772	0.0034706573933363	-0.989358603954315	Companion_HumanMale_Mesh_LOD1	Companion_HumanMale_Mesh_LOD1	-1	-1
0.0105577223002911	0.00495421886444092	0.00425370037555695	0.606771111488342	0.453679502010345	7.6348352432251	0.236649096012115	4.19496774673462	0.0864219591021538	-0.116570517420769	0.00293014850467443	-0.989410936832428	Companion_HumanMale_Mesh_LOD1	Companion_HumanMale_Mesh_LOD1	-1	-1
0.0181221626698971	0.00495421886444092	0.00425370037555695	0.606771111488342	0.453679502010345	7.63446998596191	0.236559152603149	4.19460010528564	0.0862866416573524	-0.116168521344662	0.00215664133429527	-0.989471971988678	Companion_HumanMale_Mesh_LOD1	Companion_HumanMale_Mesh_LOD1	-1	-1
0.00766104506328702	0.00495421886444092	0.00425370037555695	0.606771111488342	0.453679502010345	7.63406038284302	0.236518442630768	4.1942024230957	0.0861931219696999	-0.115983195602894	0.00137233291752636	-0.98950332403183	Companion_HumanMale_Mesh_LOD1	Companion_HumanMale_Mesh_LOD1	-1	-1
0.00815021619200706	0.00495421886444092	0.00425370037555695	0.606771111488342	0.453679502010345	7.63367748260498	0.236461222171783	4.19381809234619	0.086208201944828	-0.115772739052773	0.000645756314042956	-0.989527404308319	Companion_HumanMale_Mesh_LOD1	Companion_HumanMale_Mesh_LOD1	-1	-1
0.0117345433682203	0.00495421886444092	0.00425370037555695	0.606771111488342	0.453679502010345	7.63319778442383	0.236434996128082	4.19341516494751	0.0863203704357147	-0.115579403936863	0.000111767811176833	-0.989540457725525	Companion_HumanMale_Mesh_LOD1	Companion_HumanMale_Mesh_LOD1	-1	-1
0.0106768682599068	0.00495421886444092	0.00425370037555695	0.606771111488342	0.453679502010345	7.63269233703613	0.236350357532501	4.19304752349854	0.0862192213535309	-0.11530888825655	-0.000579653424210846	-0.989580631256104	Companion_HumanMale_Mesh_LOD1	Companion_HumanMale_Mesh_LOD1	-1	-1
0.0105682611465454	0.00495421886444092	0.00425370037555695	0.606771111488342	0.453679502010345	7.63214921951294	0.236390352249146	4.19279289245605	0.086168110370636	-0.114939108490944	-0.00143393129110336	-0.989627242088318	Companion_HumanMale_Mesh_LOD1	Companion_HumanMale_Mesh_LOD1	-1	-1
0.0123273450881243	0.00495421886444092	0.00425370037555695	0.606771111488342	0.453679502010345	7.63153648376465	0.236416101455688	4.19243240356445	0.0863035395741463	-0.114450082182884	-0.00251102028414607	-0.989669919013977	Companion_HumanMale_Mesh_LOD1	Companion_HumanMale_Mesh_LOD1	-1	-1
0.010257369838655	0.00495421886444092	0.00425370037555695	0.606771111488342	0.453679502010345	7.6310510635376	0.23652857542038	4.19211196899414	0.0868657529354095	-0.113932132720947	-0.00302745681256056	-0.989679098129272	Companion_HumanMale_Mesh_LOD1	Companion_HumanMale_Mesh_LOD1	-1	-1
0.0110085438936949	0.00495421886444092	0.00425370037555695	0.606771111488342	0.453679502010345	7.63052749633789	0.23666125535965	4.19177532196045	0.0876053348183632	-0.113190367817879	-0.00356991775333881	-0.989697217941284	Companion_HumanMale_Mesh_LOD1	Companion_HumanMale_Mesh_LOD1	-1	-1
0.0119368275627494	0.00495421886444092	0.00425370037555695	0.606771111488342	0.453679502010345	7.62999629974365	0.236694991588593	4.19144916534424	0.0885667875409126	-0.112743444740772	-0.00444649113342166	-0.989659070968628	Companion_HumanMale_Mesh_LOD1	Companion_HumanMale_Mesh_LOD1	-1	-1
0.0104552628472447	0.00495421886444092	0.00425370037555695	0.606771111488342	0.453679502010345	7.62951374053955	0.236693918704987	4.19114875793457	0.0890900269150734	-0.112320609390736	-0.00547205936163664	-0.989655077457428	Companion_HumanMale_Mesh_LOD1	Companion_HumanMale_Mesh_LOD1	-1	-1
0.0120015237480402	0.00495421886444092	0.00425370037555695	0.606771111488342	0.453679502010345	7.6290431022644	0.236489653587341	4.19074630737305	0.089184857904911	-0.111981093883514	-0.00668995035812259	-0.989677488803864	Companion_HumanMale_Mesh_LOD1	Companion_HumanMale_Mesh_LOD1	-1	-1
0.0103879319503903	0.00495421886444092	0.00425370037555695	0.606771111488342	0.453679502010345	7.62843418121338	0.236242055892944	4.1903223991394	0.0884409323334694	-0.11145207285881	-0.00767054874449968	-0.989796876907349	Companion_HumanMale_Mesh_LOD1	Companion_HumanMale_Mesh_LOD1	-1	-1
0.0122122969478369	0.0461925566196442	0.00591729581356049	0.565532803535461	0.443508505821228	7.62784099578857	0.235985457897186	4.18989515304565	0.0871546193957329	-0.11087017506361	-0.00878024101257324	-0.989967107772827	Companion_HumanMale_Mesh_LOD1	Companion_HumanMale_Mesh_LOD1	-1	-1
0.0166593343019485	0.0461925566196442	0.00591729581356049	0.565532803535461	0.443508505821228	7.62725400924683	0.235758066177368	4.18944835662842	0.0864401608705521	-0.110057473182678	-0.0102080358192325	-0.990106701850891	Companion_HumanMale_Mesh_LOD1	Companion_HumanMale_Mesh_LOD1	-1	-1
0.00662678945809603	0.0461925566196442	0.00591729581356049	0.565532803535461	0.443508505821228	7.62667322158813	0.235586583614349	4.18902683258057	0.086033895611763	-0.109371855854988	-0.0114710116758943	-0.990204215049744	Companion_HumanMale_Mesh_LOD1	Companion_HumanMale_Mesh_LOD1	-1	-1
0.0101572517305613	0.0461925566196442	0.00591729581356049	0.565532803535461	0.443508505821228	7.62602853775024	0.235449492931366	4.18857002258301	0.0857536047697067	-0.108701698482037	-0.0124042388051748	-0.990291118621826	Companion_HumanMale_Mesh_LOD1	Companion_HumanMale_Mesh_LOD1	-1	-1
0.0102772759273648	0.0461925566196442	0.00591729581356049	0.565532803535461	0.443508505821228	7.62541818618774	0.235348761081696	4.18822860717773	0.0859519839286804	-0.107792496681213	-0.013017725199461	-0.990365386009216	Companion_HumanMale_Mesh_LOD1	Companion_HumanMale_Mesh_LOD1	-1	-1
0.0115158651024103	0.0461925566196442	0.00591729581356049	0.565532803535461	0.443508505821228	7.62491750717163	0.23524683713913	4.18793487548828	0.0860799923539162	-0.107056111097336	-0.0135153122246265	-0.990427494049072	Companion_HumanMale_Mesh_LOD1	Companion_HumanMale_Mesh_LOD1	-1	-1
0.0118721313774586	0.0461925566196442	0.00591729581356049	0.565532803535461	0.443508505821228	7.62433576583862	0.235150635242462	4.18759346008301	0.0858200043439865	-0.106129534542561	-0.0144447181373835	-0.990536689758301	Companion_HumanMale_Mesh_LOD1	Companion_HumanMale_Mesh_LOD1	-1	-1
0.00995848048478365	0.0461925566196442	0.00591729581356049	0.565532803535461	0.443508505821228	7.62377786636353	0.235123574733734	4.18736124038696	0.0858007147908211	-0.105307839810848	-0.0153984799981117	-0.990611612796783	Companion_HumanMale_Mesh_LOD1	Companion_HumanMale_Mesh_LOD1	-1	-1
0.0123750614002347	0.0461925566196442	0.00591729581356049	0.565532803535461	0.443508505821228	7.62312793731689	0.235286176204681	4.18715000152588	0.0863182172179222	-0.10453923791647	-0.0161104053258896	-0.990636765956879	Companion_HumanMale_Mesh_LOD1	Companion_HumanMale_Mesh_LOD1	-1	-1
0.0157755464315414	0.0461925566196442	0.00591729581356049	0.565532803535461	0.443508505821228	7.62256288528442	0.235502898693085	4.18698930740356	0.0874255076050758	-0.103553757071495	-0.0166256614029408	-0.990634679794312	Companion_HumanMale_Mesh_LOD1	Companion_HumanMale_Mesh_LOD1	-1	-1
0.0175153091549873	0.0305484533309937	0.0180465579032898	0.549888670444489	0.419544667005539	7.62136602401733	0.235779345035553	4.18669843673706	0.0894646942615509	-0.101558424532413	-0.0178993064910173	-0.990636944770813	Companion_HumanMale_Mesh_LOD1	Companion_HumanMale_Mesh_LOD1	-1	-1
0.0103267496451736	0.0305484533309937	0.0180465579032898	0.549888670444489	0.419544667005539	7.62075328826904	0.235915184020996	4.18663597106934	0.0899899378418922	-0.100591465830803	-0.0182785224169493	-0.990681111812592	Companion_HumanMale_Mesh_LOD1	Companion_HumanMale_Mesh_LOD1	-1	-1
0.0118932090699673	0.0478172451257706	0.00294548273086548	0.532619893550873	0.404443591833115	7.62020587921143	0.236007452011108	4.18643856048584	0.0904803350567818	-0.0994396656751633	-0.0187055431306362	-0.990744769573212	Companion_HumanMale_Mesh_LOD1	Companion_HumanMale_Mesh_LOD1	-1	-1
0.010830850340426	0.0478172451257706	0.00294548273086548	0.532619893550873	0.404443591833115	7.61967515945435	0.236195743083954	4.18640899658203	0.0908955112099648	-0.0986546576023102	-0.0193264931440353	-0.990773320198059	Companion_HumanMale_Mesh_LOD1	Companion_HumanMale_Mesh_LOD1	-1	-1
0.0198323577642441	0.0478172451257706	0.00294548273086548	0.532619893550873	0.404443591833115	7.61908912658691	0.236409783363342	4.18638753890991	0.0914560407400131	-0.097953662276268	-0.0198636781424284	-0.990780651569366	TheTavern_1	Companion_HumanMale_Mesh_LOD1	127	-1
0.00735893612727523	0.0478172451257706	0.00294548273086548	0.532619893550873	0.404443591833115	7.61856269836426	0.236659646034241	4.18639898300171	0.0923845916986465	-0.0974926650524139	-0.0203829426318407	-0.990729451179504	TheTavern_1	Companion_HumanMale_Mesh_LOD1	127	-1
0.018294295296073	0.0389948785305023	0.00123041868209839	0.541442275047302	0.402728527784348	7.61745309829712	0.237033486366272	4.18659210205078	0.0939678475260735	-0.0965117067098618	-0.021834334358573	-0.990645706653595	TheTavern_1	Companion_HumanMale_Mesh_LOD1	127	-1
0.0101876966655254	0.0389948785305023	0.00123041868209839	0.541442275047302	0.402728527784348	7.61684370040894	0.23710972070694	4.18689298629761	0.0942752659320831	-0.0960489958524704	-0.0228400025516748	-0.990638732910156	TheTavern_1	Companion_HumanMale_Mesh_LOD1	127	-1
0.0119134085252881	0.0389948785305023	0.00123041868209839	0.541442275047302	0.402728527784348	7.61610317230225	0.237017691135406	4.18711185455322	0.0944286361336708	-0.0955896228551865	-0.0236764419823885	-0.990648925304413	TheTavern_1	Companion_HumanMale_Mesh_LOD1	127	-1
0.0108235320076346	0.0389948785305023	0.00123041868209839	0.541442275047302	0.402728527784348	7.61545372009277	0.23694634437561	4.18737459182739	0.0942141190171242	-0.0952770039439201	-0.0240214373916388	-0.990691125392914	TheTavern_1	Companion_HumanMale_Mesh_LOD1	127	-1
0.0111991185694933	0.0389948785305023	0.00123041868209839	0.541442275047302	0.402728527784348	7.61475086212158	0.236901640892029	4.1878604888916	0.0939150303602219	-0.0948597118258476	-0.024473587051034	-0.990748524665833	TheTavern_1	Companion_HumanMale_Mesh_LOD1	127	-1
0.0104737058281899	0.0389948785305023	0.00123041868209839	0.541442275047302	0.402728527784348	7.61403226852417	0.236640870571136	4.18825817108154	0.0932706966996193	-0.0943882316350937	-0.0251238141208887	-0.990838170051575	TheTavern_1	Companion_HumanMale_Mesh_LOD1	127	-1
0.0120703177526593	0.0389948785305023	0.00123041868209839	0.541442275047302	0.402728527784348	7.6133975982666	0.236387252807617	4.18878364562988	0.0921317562460899	-0.0940422341227531	-0.0257900543510914	-0.990960478782654	TheTavern_1	Companion_HumanMale_Mesh_LOD1	127	-1
0.010843145661056	0.0389948785305023	0.00123041868209839	0.541442275047302	0.402728527784348	7.61287212371826	0.236119329929352	4.18913221359253	0.0909051969647408	-0.0936218425631523	-0.0265208948403597	-0.991094291210175	TheTavern_1	Companion_HumanMale_Mesh_LOD1	127	-1
0.0114561459049582	0.0389948785305023	0.00123041868209839	0.541442275047302	0.402728527784348	7.61222982406616	0.235844671726227	4.18957281112671	0.0895695313811302	-0.0935042649507523	-0.027042793110013	-0.991212904453278	TheTavern_1	Companion_HumanMale_Mesh_LOD1	127	-1
0.0103115271776915	0.0389948785305023	0.00123041868209839	0.541442275047302	0.402728527784348	7.61167573928833	0.235630035400391	4.19000816345215	0.0883019417524338	-0.0935583710670471	-0.0275676753371954	-0.991307020187378	TheTavern_1	Companion_HumanMale_Mesh_LOD1	127	-1
0.0119687365368009	0.0389948785305023	0.00123041868209839	0.541442275047302	0.402728527784348	7.61112785339355	0.235397636890411	4.19054317474365	0.0868208408355713	-0.0939024537801743	-0.0281315743923187	-0.991389513015747	TheTavern_1	Companion_HumanMale_Mesh_LOD1	127	-1
0.0167225655168295	0.0389948785305023	0.00123041868209839	0.541442275047302	0.402728527784348	7.61059761047363	0.23535543680191	4.19094848632813	0.0855590477585793	-0.0942969024181366	-0.0284029934555292	-0.991454005241394	TheTavern_1	Companion_HumanMale_Mesh_LOD1	127	-1
0.00690430821850896	0.0244199931621552	0.0104594826698303	0.556017160415649	0.411957591772079	7.61004209518433	0.235212981700897	4.19148826599121	0.0843886509537697	-0.0947733372449875	-0.0284349359571934	-0.991507947444916	Companion_HumanMale_Mesh_LOD1	Companion_HumanMale_Mesh_LOD1	-1	-1
0.00956679228693247	0.0244199931621552	0.0104594826698303	0.556017160415649	0.411957591772079	7.60956287384033	0.235133111476898	4.19188976287842	0.0837583541870117	-0.0953782200813293	-0.0280234050005674	-0.991515159606934	Companion_HumanMale_Mesh_LOD1	Companion_HumanMale_Mesh_LOD1	-1	-1
0.0111066130921245	0.0244199931621552	0.0104594826698303	0.556017160415649	0.411957591772079	7.60898447036743	0.235180079936981	4.19231462478638	0.083244726061821	-0.0957691818475723	-0.0276478156447411	-0.991531252861023	Companion_HumanMale_Mesh_LOD1	Companion_HumanMale_Mesh_LOD1	-1	-1
0.0112632289528847	0.0251239538192749	0.0124298930168152	0.555313169956207	0.413928002119064	7.60845994949341	0.235174894332886	4.1928014755249	0.0826134011149406	-0.0963115766644478	-0.0274541638791561	-0.991536855697632	Companion_HumanMale_Mesh_LOD1	Companion_HumanMale_Mesh_LOD1	-1	-1
0.0112488847225904	0.0251239538192749	0.0124298930168152	0.555313169956207	0.413928002119064	7.60800790786743	0.235102593898773	4.19320154190063	0.0819756612181664	-0.0968237891793251	-0.0278237573802471	-0.991529643535614	Companion_HumanMale_Mesh_LOD1	Companion_HumanMale_Mesh_LOD1	-1	-1
