deltaTime	avgXGazingUncertainty	avgYGazingUncertainty	gazeX	gazeY	headX	headY	headZ	headRotationX	headRotationY	headRotationZ	headRotationW	faceRaycastHitObjectName	gazeRaycastHitObjectName	faceRaycastHitTriangleName	gazeRaycastHitTriangleName
0.0131124770268798	0.079692542552948	0.0331527888774872	0.459827840328217	0.614418387413025	1.54625749588013	0.268090426921844	2.73263168334961	-0.0974207520484924	0.809316337108612	-0.0195191912353039	-0.578908801078796	NPCNearDoor_HumanMale_Mesh_LOD1	Cube.001	-1	122
0.0107600064948201	0.079692542552948	0.0331527888774872	0.459827840328217	0.614418387413025	1.54631304740906	0.268078446388245	2.73261165618896	-0.0973825231194496	0.809334397315979	-0.0195257756859064	-0.578889727592468	NPCNearDoor_HumanMale_Mesh_LOD1	Cube.001	-1	122
0.00956532824784517	0.079692542552948	0.0331527888774872	0.459827840328217	0.614418387413025	1.54628694057465	0.268099963665009	2.73264646530151	-0.0973169133067131	0.809330999851227	-0.0195709578692913	-0.578904032707214	NPCNearDoor_HumanMale_Mesh_LOD1	Cube.001	-1	122
0.0122717237100005	0.0797273069620132	0.0313902199268341	0.459793090820313	0.616180896759033	1.54634130001068	0.268069446086884	2.73267030715942	-0.0973121300339699	0.809367477893829	-0.0195389986038208	-0.57885479927063	NPCNearDoor_HumanMale_Mesh_LOD1	Cube.001	-1	122
0.0101089496165514	0.0797273069620132	0.0313902199268341	0.459793090820313	0.616180896759033	1.54638719558716	0.268029749393463	2.73264169692993	-0.0972183495759964	0.809325277805328	-0.0195383504033089	-0.578929543495178	NPCNearDoor_HumanMale_Mesh_LOD1	Cube.001	-1	122
0.0111350081861019	0.0797273069620132	0.0313902199268341	0.459793090820313	0.616180896759033	1.54634392261505	0.268098890781403	2.73256778717041	-0.0972516387701035	0.809311211109161	-0.0195074956864119	-0.578944802284241	NPCNearDoor_HumanMale_Mesh_LOD1	Cube.001	-1	122
0.0117474235594273	0.0797273069620132	0.0313902199268341	0.459793090820313	0.616180896759033	1.54636263847351	0.268108904361725	2.73255348205566	-0.0972065106034279	0.809331715106964	-0.0194807127118111	-0.578924596309662	NPCNearDoor_HumanMale_Mesh_LOD1	Cube.001	-1	122
0.0110304998233914	0.0702257007360458	0.00905075669288635	0.451634049415588	0.572656750679016	1.54657411575317	0.268103778362274	2.73254776000977	-0.0969989523291588	0.80938446521759	-0.0193813666701317	-0.578889012336731	NPCNearDoor_HumanMale_Mesh_LOD1	TheTavern_3	-1	10
0.0123677430674434	0.0702257007360458	0.00905075669288635	0.451634049415588	0.572656750679016	1.54656541347504	0.268126368522644	2.73259830474854	-0.0969282016158104	0.809438705444336	-0.0193759500980377	-0.578825175762177	NPCNearDoor_HumanMale_Mesh_LOD1	TheTavern_3	-1	10
0.0162919424474239	0.0712285935878754	0.010977178812027	0.450352936983109	0.57243812084198	1.54656958580017	0.2681605219841	2.73259019851685	-0.0969197750091553	0.809387505054474	-0.019447373226285	-0.578895688056946	NPCNearDoor_HumanMale_Mesh_LOD1	TheTavern_3	-1	10
0.00552666699513793	0.0712285935878754	0.010977178812027	0.450352936983109	0.57243812084198	1.54654204845428	0.268174350261688	2.73256349563599	-0.0969314202666283	0.809437394142151	-0.0195054467767477	-0.578822135925293	NPCNearDoor_HumanMale_Mesh_LOD1	TheTavern_3	-1	10
0.0105600645765662	0.0712285935878754	0.010977178812027	0.450352936983109	0.57243812084198	1.54651236534119	0.268199384212494	2.73255825042725	-0.0968062505125999	0.809476554393768	-0.0195603966712952	-0.578786432743073	NPCNearDoor_HumanMale_Mesh_LOD1	TheTavern_3	-1	10
0.0116809718310833	0.0712285935878754	0.010977178812027	0.450352936983109	0.57243812084198	1.54656028747559	0.268172681331635	2.73252868652344	-0.0967486798763275	0.809543907642365	-0.0195716321468353	-0.578701376914978	NPCNearDoor_HumanMale_Mesh_LOD1	TheTavern_3	-1	10
0.0113607123494148	0.0718298554420471	0.0105599761009216	0.450531125068665	0.575293779373169	1.54659223556519	0.268154203891754	2.73251056671143	-0.0967018157243729	0.809545755386353	-0.0195873267948627	-0.578706204891205	NPCNearDoor_HumanMale_Mesh_LOD1	TheTavern_3	-1	10
0.0111355939880013	0.0718298554420471	0.0105599761009216	0.450531125068665	0.575293779373169	1.54654836654663	0.268207907676697	2.73252630233765	-0.0969054326415062	0.809503495693207	-0.0195140559226274	-0.578733682632446	NPCNearDoor_HumanMale_Mesh_LOD1	TheTavern_3	-1	10
0.0111074913293123	0.0718298554420471	0.0105599761009216	0.450531125068665	0.575293779373169	1.54653763771057	0.268227398395538	2.73253965377808	-0.0969280526041985	0.80949479341507	-0.0194676052778959	-0.578743577003479	NPCNearDoor_HumanMale_Mesh_LOD1	TheTavern_3	-1	10
0.0113446116447449	0.0704315602779388	0.00965967774391174	0.451929420232773	0.574393510818481	1.54650187492371	0.268121659755707	2.73251390457153	-0.0969323888421059	0.809442281723022	-0.019344924017787	-0.578820526599884	NPCNearDoor_HumanMale_Mesh_LOD1	TheTavern_3	-1	10
0.0105776283890009	0.0704315602779388	0.00965967774391174	0.451929420232773	0.574393510818481	1.54646170139313	0.268144428730011	2.73255634307861	-0.0968513563275337	0.809443891048431	-0.0195518638938665	-0.578824877738953	NPCNearDoor_HumanMale_Mesh_LOD1	TheTavern_3	-1	10
0.0119570270180702	0.0704315602779388	0.00965967774391174	0.451929420232773	0.574393510818481	1.54636883735657	0.268202602863312	2.73261404037476	-0.0969045087695122	0.80949205160141	-0.0195717234164476	-0.578747928142548	NPCNearDoor_HumanMale_Mesh_LOD1	TheTavern_3	-1	10
0.0107149248942733	0.0704315602779388	0.00965967774391174	0.451929420232773	0.574393510818481	1.54652762413025	0.268222033977509	2.73260164260864	-0.0968297198414803	0.809409916400909	-0.019523985683918	-0.578876852989197	NPCNearDoor_HumanMale_Mesh_LOD1	TheTavern_3	-1	10
0.0111467186361551	0.0706483870744705	0.00878569483757019	0.451712608337402	0.573519468307495	1.5464928150177	0.268257141113281	2.73256969451904	-0.0968885719776154	0.809369206428528	-0.0194965843111277	-0.578924834728241	NPCNearDoor_HumanMale_Mesh_LOD1	TheTavern_3	-1	10
0.0109479464590549	0.0706483870744705	0.00878569483757019	0.451712608337402	0.573519468307495	1.54646027088165	0.268272697925568	2.73259973526001	-0.0968955755233765	0.809357464313507	-0.0195874311029911	-0.578936994075775	NPCNearDoor_HumanMale_Mesh_LOD1	TheTavern_3	-1	10
0.0116552105173469	0.0706483870744705	0.00878569483757019	0.451712608337402	0.573519468307495	1.54639542102814	0.268148720264435	2.73257970809937	-0.0970947295427322	0.809264123439789	-0.0195272173732519	-0.579036295413971	NPCNearDoor_HumanMale_Mesh_LOD1	TheTavern_3	-1	10
0.0197755675762892	0.0576658844947815	0.0108077526092529	0.464107751846313	0.571942508220673	1.54635119438171	0.268154084682465	2.73259496688843	-0.0971908792853355	0.809179186820984	-0.0195293910801411	-0.579138696193695	NPCNearDoor_HumanMale_Mesh_LOD1	Cube.001	-1	34
0.00640840409323573	0.0576658844947815	0.0108077526092529	0.464107751846313	0.571942508220673	1.54634189605713	0.268147826194763	2.73260927200317	-0.0973024815320969	0.809120357036591	-0.019654517993331	-0.579197824001312	NPCNearDoor_HumanMale_Mesh_LOD1	Cube.001	-1	35
0.00667801918461919	0.0576658844947815	0.0108077526092529	0.464107751846313	0.571942508220673	1.54626083374023	0.268050014972687	2.73260116577148	-0.097229853272438	0.809094250202179	-0.0196750331670046	-0.579245865345001	NPCNearDoor_HumanMale_Mesh_LOD1	Cube.001	-1	35
0.00911626312881708	0.0545970648527145	0.0121184587478638	0.467176556587219	0.573253214359283	1.54620146751404	0.268072187900543	2.73260736465454	-0.0972568467259407	0.809065818786621	-0.0197419058531523	-0.579278707504272	NPCNearDoor_HumanMale_Mesh_LOD1	Cube.001	-1	34
0.0113542722538114	0.0545970648527145	0.0121184587478638	0.467176556587219	0.573253214359283	1.54615998268127	0.268106520175934	2.73264479637146	-0.0972374752163887	0.809023082256317	-0.0197769291698933	-0.57934045791626	NPCNearDoor_HumanMale_Mesh_LOD1	Cube.001	-1	34
0.010988637804985	0.0545970648527145	0.0121184587478638	0.467176556587219	0.573253214359283	1.54620718955994	0.268037974834442	2.73265886306763	-0.0973373427987099	0.809043765068054	-0.0196384079754353	-0.579299628734589	NPCNearDoor_HumanMale_Mesh_LOD1	Cube.001	-1	34
0.0111847743391991	0.0545970648527145	0.0121184587478638	0.467176556587219	0.573253214359283	1.54615926742554	0.268066823482513	2.73271918296814	-0.097308985888958	0.808971881866455	-0.0196616668254137	-0.579403877258301	NPCNearDoor_HumanMale_Mesh_LOD1	Cube.001	-1	34
0.0116508193314075	0.0538551658391953	0.0136309266090393	0.467918455600739	0.574765682220459	1.54612565040588	0.268097698688507	2.73276591300964	-0.0973764434456825	0.809010565280914	-0.0195815414190292	-0.579341232776642	NPCNearDoor_HumanMale_Mesh_LOD1	TheTavern_3	-1	10
0.0114713683724403	0.0538551658391953	0.0136309266090393	0.467918455600739	0.574765682220459	1.54621124267578	0.268093883991241	2.73275518417358	-0.0972332358360291	0.809053599834442	-0.0195380225777626	-0.579306781291962	NPCNearDoor_HumanMale_Mesh_LOD1	TheTavern_3	-1	10
0.0101876966655254	0.0538551658391953	0.0136309266090393	0.467918455600739	0.574765682220459	1.54614210128784	0.268145859241486	2.73272228240967	-0.0971879959106445	0.809090316295624	-0.0195045359432697	-0.579264223575592	NPCNearDoor_HumanMale_Mesh_LOD1	TheTavern_3	-1	10
0.0116768730804324	0.0542709678411484	0.0111766755580902	0.467661142349243	0.577669858932495	1.54612421989441	0.268174350261688	2.73271155357361	-0.0972131639719009	0.809079885482788	-0.0194475073367357	-0.579276502132416	NPCNearDoor_HumanMale_Mesh_LOD1	TheTavern_3	-1	10
0.0114857126027346	0.0542709678411484	0.0111766755580902	0.467661142349243	0.577669858932495	1.54635763168335	0.268215358257294	2.73275327682495	-0.0971943289041519	0.809228479862213	-0.0192374363541603	-0.57907897233963	NPCNearDoor_HumanMale_Mesh_LOD1	TheTavern_3	-1	10
0.0103510469198227	0.0542709678411484	0.0111766755580902	0.467661142349243	0.577669858932495	1.54631495475769	0.268254339694977	2.73276138305664	-0.0970674902200699	0.809178650379181	-0.0192530695348978	-0.579169392585754	NPCNearDoor_HumanMale_Mesh_LOD1	TheTavern_3	-1	10
0.0115164509043098	0.0542709678411484	0.0111766755580902	0.467661142349243	0.577669858932495	1.54635262489319	0.268236517906189	2.73274612426758	-0.0969672799110413	0.809260308742523	-0.0192613434046507	-0.579071819782257	NPCNearDoor_HumanMale_Mesh_LOD1	TheTavern_3	-1	10
0.0172966308891773	0.0537198930978775	0.010991096496582	0.468212246894836	0.577484309673309	1.54623544216156	0.268217265605927	2.73269939422607	-0.0968701094388962	0.809262156486511	-0.0194305647164583	-0.579079806804657	NPCNearDoor_HumanMale_Mesh_LOD1	TheTavern_3	-1	10
0.00481735402718186	0.0537198930978775	0.010991096496582	0.468212246894836	0.577484309673309	1.54613041877747	0.268255770206451	2.73262643814087	-0.0969678834080696	0.809289276599884	-0.0194993559271097	-0.579023241996765	NPCNearDoor_HumanMale_Mesh_LOD1	TheTavern_3	-1	10
0.0112494705244899	0.0537198930978775	0.010991096496582	0.468212246894836	0.577484309673309	1.54613614082336	0.268219530582428	2.73257541656494	-0.0970214307308197	0.809254765510559	-0.0193888638168573	-0.579066276550293	NPCNearDoor_HumanMale_Mesh_LOD1	TheTavern_3	-1	10
0.0115700224414468	0.0537198930978775	0.010991096496582	0.468212246894836	0.577484309673309	1.54623079299927	0.268204629421234	2.73257207870483	-0.0971647053956985	0.809299230575562	-0.0193592552095652	-0.578980982303619	NPCNearDoor_HumanMale_Mesh_LOD1	TheTavern_3	-1	10
0.0105492323637009	0.05401411652565	0.0159140229225159	0.467435866594315	0.57442843914032	1.54615247249603	0.268214762210846	2.73258018493652	-0.0971658974885941	0.809245586395264	-0.0192989464849234	-0.57905775308609	NPCNearDoor_HumanMale_Mesh_LOD1	TheTavern_3	-1	10
0.0118121197447181	0.05401411652565	0.0159140229225159	0.467435866594315	0.57442843914032	1.54613721370697	0.268192887306213	2.73256349563599	-0.0971397459506989	0.80927962064743	-0.0193054061383009	-0.579014480113983	NPCNearDoor_HumanMale_Mesh_LOD1	TheTavern_3	-1	10
0.0107775712385774	0.053075298666954	0.0159018337726593	0.468374669551849	0.574416279792786	1.54609858989716	0.268168866634369	2.73251938819885	-0.0972134992480278	0.809226393699646	-0.0194487050175667	-0.579071700572968	NPCNearDoor_HumanMale_Mesh_LOD1	TheTavern_3	-1	10
0.0113372933119535	0.053075298666954	0.0159018337726593	0.468374669551849	0.574416279792786	1.54601514339447	0.268156588077545	2.73259496688843	-0.0973097458481789	0.809169888496399	-0.0194794274866581	-0.57913339138031	NPCNearDoor_HumanMale_Mesh_LOD1	TheTavern_3	-1	10
0.0110196685418487	0.053075298666954	0.0159018337726593	0.468374669551849	0.574416279792786	1.54596936702728	0.268150508403778	2.73263549804688	-0.0973867923021317	0.809208631515503	-0.019512290135026	-0.579065263271332	NPCNearDoor_HumanMale_Mesh_LOD1	TheTavern_3	-1	10
0.0116194961592555	0.022370234131813	0.0975264608860016	0.435007154941559	0.492654651403427	1.54594969749451	0.268082797527313	2.73260354995728	-0.0975587517023087	0.809141337871552	-0.0194065682590008	-0.579133808612823	NPCNearDoor_HumanMale_Mesh_LOD1	TheTavern_3	-1	11
0.0108317285776138	0.022370234131813	0.0975264608860016	0.435007154941559	0.492654651403427	1.54586148262024	0.268085539340973	2.73270225524902	-0.0976305976510048	0.809130966663361	-0.0194387529045343	-0.579135060310364	NPCNearDoor_HumanMale_Mesh_LOD1	TheTavern_3	-1	11
0.0107810841873288	0.022370234131813	0.0975264608860016	0.435007154941559	0.492654651403427	1.54576861858368	0.268112897872925	2.73271226882935	-0.0976570770144463	0.809065759181976	-0.0195259284228086	-0.579218804836273	NPCNearDoor_HumanMale_Mesh_LOD1	TheTavern_3	-1	11
0.0120764654129744	0.021239310503006	0.0975263714790344	0.436138093471527	0.49265456199646	1.54584443569183	0.268148601055145	2.73273181915283	-0.0976090803742409	0.809081137180328	-0.0194704458117485	-0.579207360744476	NPCNearDoor_HumanMale_Mesh_LOD1	TheTavern_3	-1	11
0.0107916230335832	0.021239310503006	0.0975263714790344	0.436138093471527	0.49265456199646	1.5457546710968	0.268176972866058	2.73278594017029	-0.0976241454482079	0.809018492698669	-0.0194557961076498	-0.579292833805084	NPCNearDoor_HumanMale_Mesh_LOD1	TheTavern_3	-1	11
0.0168200489133596	0.021239310503006	0.0975263714790344	0.436138093471527	0.49265456199646	1.54575228691101	0.268147885799408	2.73280477523804	-0.097632497549057	0.808994829654694	-0.0193626172840595	-0.579327464103699	NPCNearDoor_HumanMale_Mesh_LOD1	TheTavern_3	-1	11
0.00546841137111187	0.0224571824073792	0.0977734625339508	0.434920221567154	0.492901653051376	1.54572463035584	0.268082082271576	2.7327778339386	-0.097591869533062	0.808949589729309	-0.0193678326904774	-0.579397439956665	NPCNearDoor_HumanMale_Mesh_LOD1	TheTavern_3	-1	11
0.0114704901352525	0.0224571824073792	0.0977734625339508	0.434920221567154	0.492901653051376	1.54565238952637	0.268096745014191	2.73285555839539	-0.0976569056510925	0.808924555778503	-0.0193824972957373	-0.579420924186707	NPCNearDoor_HumanMale_Mesh_LOD1	TheTavern_3	-1	11
0.0106203686445951	0.0224571824073792	0.0977734625339508	0.434920221567154	0.492901653051376	1.54569506645203	0.268023073673248	2.73286294937134	-0.0976556614041328	0.809005379676819	-0.0194189045578241	-0.579307019710541	NPCNearDoor_HumanMale_Mesh_LOD1	TheTavern_3	-1	11
0.0112152202054858	0.0224571824073792	0.0977734625339508	0.434920221567154	0.492901653051376	1.54574084281921	0.267979919910431	2.73283720016479	-0.0977265313267708	0.808981597423553	-0.0194193758070469	-0.579328179359436	NPCNearDoor_HumanMale_Mesh_LOD1	TheTavern_3	-1	11
0.0114233586937189	0.0240420997142792	0.0960348099470139	0.42972457408905	0.49483460187912	1.54567074775696	0.267971932888031	2.73290252685547	-0.0977529138326645	0.80897855758667	-0.0194192454218864	-0.579328119754791	NPCNearDoor_HumanMale_Mesh_LOD1	TheTavern_3	-1	11
0.0109710730612278	0.0240420997142792	0.0960348099470139	0.42972457408905	0.49483460187912	1.54554092884064	0.268042623996735	2.73286819458008	-0.0978988930583	0.808914124965668	-0.0195240285247564	-0.579389929771423	NPCNearDoor_HumanMale_Mesh_LOD1	TheTavern_3	-1	11
0.011875937692821	0.00708888471126556	0.0324241518974304	0.397727251052856	0.626001000404358	1.54564249515533	0.26805979013443	2.73284721374512	-0.0979989320039749	0.808914363384247	-0.0195240341126919	-0.579372525215149	NPCNearDoor_HumanMale_Mesh_LOD1	TheTavern_3	-1	10
0.0122456699609756	0.00708888471126556	0.0324241518974304	0.397727251052856	0.626001000404358	1.54557812213898	0.268089592456818	2.7328667640686	-0.0980570837855339	0.808899283409119	-0.0195006020367146	-0.579384565353394	NPCNearDoor_HumanMale_Mesh_LOD1	TheTavern_3	-1	10
0.009994194842875	0.00708888471126556	0.0324241518974304	0.397727251052856	0.626001000404358	1.54561674594879	0.268057286739349	2.73285627365112	-0.0979873389005661	0.808890104293823	-0.0195303484797478	-0.579408228397369	NPCNearDoor_HumanMale_Mesh_LOD1	TheTavern_3	-1	10
0.0113624688237906	0.00708888471126556	0.0324241518974304	0.397727251052856	0.626001000404358	1.54562556743622	0.268019497394562	2.73281478881836	-0.0979690402746201	0.808826923370361	-0.0196280386298895	-0.579496264457703	NPCNearDoor_HumanMale_Mesh_LOD1	TheTavern_3	-1	10
0.0110152773559093	0.00332033634185791	0.027031809091568	0.402289509773254	0.619740962982178	1.54553961753845	0.268072664737701	2.7326979637146	-0.0980287343263626	0.808831512928009	-0.0195563361048698	-0.579482197761536	NPCNearDoor_HumanMale_Mesh_LOD1	Cube.001	-1	118
0.0113896932452917	0.00332033634185791	0.027031809091568	0.402289509773254	0.619740962982178	1.54550623893738	0.26807826757431	2.73267602920532	-0.0979860201478004	0.808796346187592	-0.0196128282696009	-0.579536557197571	NPCNearDoor_HumanMale_Mesh_LOD1	Cube.001	-1	118
0.0119090173393488	0.00288811326026917	0.0265648365020752	0.401857286691666	0.620207965373993	1.54558670520782	0.268059313297272	2.73265075683594	-0.0979549735784531	0.808779895305634	-0.019642872735858	-0.579563796520233	NPCNearDoor_HumanMale_Mesh_LOD1	Cube.001	-1	118
0.0167872607707977	0.00288811326026917	0.0265648365020752	0.401857286691666	0.620207965373993	1.5455379486084	0.268072068691254	2.73269128799438	-0.0980200245976448	0.808767855167389	-0.019736722111702	-0.579566359519959	NPCNearDoor_HumanMale_Mesh_LOD1	Cube.001	-1	118
0.005418352317065	0.00288811326026917	0.0265648365020752	0.401857286691666	0.620207965373993	1.54554462432861	0.268043220043182	2.73271989822388	-0.0979665815830231	0.808792889118195	-0.0197836924344301	-0.579538762569427	NPCNearDoor_HumanMale_Mesh_LOD1	Cube.001	-1	118
0.0113794477656484	0.00369139015674591	0.0267112553119659	0.402660548686981	0.62006151676178	1.54567992687225	0.268060386180878	2.73266983032227	-0.0979840084910393	0.808749556541443	-0.0197932869195938	-0.579595983028412	NPCNearDoor_HumanMale_Mesh_LOD1	Cube.001	-1	118
0.0107067273929715	0.00369139015674591	0.0267112553119659	0.402660548686981	0.62006151676178	1.54564726352692	0.268080413341522	2.73275136947632	-0.0979446023702621	0.808772265911102	-0.0199771989136934	-0.57956475019455	NPCNearDoor_HumanMale_Mesh_LOD1	Cube.001	-1	118
0.0108062596991658	0.00369139015674591	0.0267112553119659	0.402660548686981	0.62006151676178	1.54571998119354	0.268032968044281	2.73271942138672	-0.0978073552250862	0.808743596076965	-0.0198490098118782	-0.579632341861725	NPCNearDoor_HumanMale_Mesh_LOD1	Cube.001	-1	118
0.0121824378147721	0.00223290920257568	0.0262732803821564	0.401202082633972	0.620499491691589	1.54573702812195	0.26798951625824	2.73268127441406	-0.0978734120726585	0.808784902095795	-0.0198444034904242	-0.579563558101654	NPCNearDoor_HumanMale_Mesh_LOD1	Cube.001	-1	118
0.0102046765387058	0.00223290920257568	0.0262732803821564	0.401202082633972	0.620499491691589	1.54572212696075	0.268020153045654	2.73268413543701	-0.0979324951767921	0.808788180351257	-0.0197965074330568	-0.579550802707672	NPCNearDoor_HumanMale_Mesh_LOD1	Cube.001	-1	118
0.0114453146234155	0.00223290920257568	0.0262732803821564	0.401202082633972	0.620499491691589	1.54572510719299	0.26801735162735	2.73267316818237	-0.0976852104067802	0.80890154838562	-0.0197711046785116	-0.579435050487518	NPCNearDoor_HumanMale_Mesh_LOD1	Cube.001	-1	118
0.0114037450402975	0.00289297103881836	0.017717182636261	0.407631367444992	0.61303436756134	1.5457808971405	0.267998278141022	2.73263072967529	-0.0976781025528908	0.808947563171387	-0.0198491234332323	-0.579369366168976	NPCNearDoor_HumanMale_Mesh_LOD1	Cube.001	-1	123
0.0111894588917494	0.00289297103881836	0.017717182636261	0.407631367444992	0.61303436756134	1.5457626581192	0.268026173114777	2.732666015625	-0.0976205244660378	0.808920621871948	-0.019855534657836	-0.579416513442993	NPCNearDoor_HumanMale_Mesh_LOD1	Cube.001	-1	123
0.0111879948526621	0.00289297103881836	0.017717182636261	0.407631367444992	0.61303436756134	1.54586088657379	0.26795095205307	2.73260688781738	-0.0975867062807083	0.809059858322144	-0.0198189616203308	-0.579229056835175	NPCNearDoor_HumanMale_Mesh_LOD1	Cube.001	-1	123
0.0111549152061343	0.00289297103881836	0.017717182636261	0.407631367444992	0.61303436756134	1.54604268074036	0.267966687679291	2.7325553894043	-0.0974853858351707	0.809045255184174	-0.0197232328355312	-0.579269707202911	NPCNearDoor_HumanMale_Mesh_LOD1	Cube.001	-1	123
0.0112538617104292	0.0436667650938034	0.0189507901668549	0.44153219461441	0.587282299995422	1.54606831073761	0.26797753572464	2.73251581192017	-0.0974091589450836	0.809074640274048	-0.0198778882622719	-0.579236268997192	NPCNearDoor_HumanMale_Mesh_LOD1	Cube.001	-1	165
0.0108566116541624	0.0436667650938034	0.0189507901668549	0.44153219461441	0.587282299995422	1.54600608348846	0.268026053905487	2.73249101638794	-0.0973920673131943	0.809123635292053	-0.0199126582592726	-0.579169511795044	NPCNearDoor_HumanMale_Mesh_LOD1	Cube.001	-1	165
0.0178788937628269	0.0422280132770538	0.0182871520519257	0.442970931529999	0.586618661880493	1.54609382152557	0.267987489700317	2.73244953155518	-0.0973166227340698	0.809168696403503	-0.0199728310108185	-0.579117178916931	NPCNearDoor_HumanMale_Mesh_LOD1	Cube.001	-1	165
0.00475470768287778	0.0422280132770538	0.0182871520519257	0.442970931529999	0.586618661880493	1.54598999023438	0.268066823482513	2.73248767852783	-0.0974191576242447	0.809179365634918	-0.0200462769716978	-0.579082369804382	NPCNearDoor_HumanMale_Mesh_LOD1	Cube.001	-1	165
0.0109049137681723	0.0422280132770538	0.0182871520519257	0.442970931529999	0.586618661880493	1.54597556591034	0.268094003200531	2.73247480392456	-0.0974198803305626	0.809246480464935	-0.020023986697197	-0.578989326953888	NPCNearDoor_HumanMale_Mesh_LOD1	Cube.001	-1	165
0.0115720713511109	0.0422280132770538	0.0182871520519257	0.442970931529999	0.586618661880493	1.54599499702454	0.268055498600006	2.73243999481201	-0.0974076315760612	0.809298098087311	-0.0199562832713127	-0.578921437263489	NPCNearDoor_HumanMale_Mesh_LOD1	Cube.001	-1	165
0.0106786247342825	0.0363821238279343	0.0141994059085846	0.43833726644516	0.591730117797852	1.54597461223602	0.268085181713104	2.73236894607544	-0.0975344255566597	0.809317529201508	-0.0199211128056049	-0.578874230384827	NPCNearDoor_HumanMale_Mesh_LOD1	Cube.001	-1	166
0.0113806184381247	0.0363821238279343	0.0141994059085846	0.43833726644516	0.591730117797852	1.54599928855896	0.268053829669952	2.73235750198364	-0.0976119488477707	0.809319674968719	-0.0198857225477695	-0.578859448432922	NPCNearDoor_HumanMale_Mesh_LOD1	Cube.001	-1	166
0.011657259427011	0.0364270806312561	0.0147762596607208	0.438292294740677	0.592306971549988	1.54597008228302	0.267954766750336	2.73230361938477	-0.09764364361763	0.809243202209473	-0.0198592748492956	-0.578961908817291	NPCNearDoor_HumanMale_Mesh_LOD1	Cube.001	-1	23
0.0104868784546852	0.0364270806312561	0.0147762596607208	0.438292294740677	0.592306971549988	1.54589211940765	0.267973124980927	2.7323522567749	-0.0976236909627914	0.809140205383301	-0.0199612695723772	-0.579105615615845	NPCNearDoor_HumanMale_Mesh_LOD1	Cube.001	-1	166
0.0111587205901742	0.0364270806312561	0.0147762596607208	0.438292294740677	0.592306971549988	1.54583621025085	0.267981350421906	2.73237109184265	-0.0976875051856041	0.809091091156006	-0.0200907215476036	-0.579159080982208	NPCNearDoor_HumanMale_Mesh_LOD1	Cube.001	-1	166
0.0111165661364794	0.0364270806312561	0.0147762596607208	0.438292294740677	0.592306971549988	1.54584431648254	0.267897725105286	2.73236227035522	-0.0977187305688858	0.809014737606049	-0.0201176702976227	-0.57925945520401	NPCNearDoor_HumanMale_Mesh_LOD1	Cube.001	-1	166
0.011768501251936	0.0366663932800293	0.0163501799106598	0.438052982091904	0.593880891799927	1.54574465751648	0.267926871776581	2.73248195648193	-0.0979288592934608	0.808970153331757	-0.0202203635126352	-0.579282701015472	NPCNearDoor_HumanMale_Mesh_LOD1	Cube.001	-1	23
0.011349587701261	0.0366663932800293	0.0163501799106598	0.438052982091904	0.593880891799927	1.54565024375916	0.267955720424652	2.73248076438904	-0.0980067476630211	0.808904767036438	-0.0203010812401772	-0.579358041286469	NPCNearDoor_HumanMale_Mesh_LOD1	Cube.001	-1	23
0.0104514574632049	0.0366663932800293	0.0163501799106598	0.438052982091904	0.593880891799927	1.54571962356567	0.26793247461319	2.73247718811035	-0.0980672836303711	0.808841645717621	-0.0202922485768795	-0.579436182975769	NPCNearDoor_HumanMale_Mesh_LOD1	Cube.001	-1	23
0.0121115939691663	0.0345661491155624	0.0132742822170258	0.435916066169739	0.594082355499268	1.54566764831543	0.267929136753082	2.73249244689941	-0.0981301888823509	0.808777689933777	-0.0203147642314434	-0.579513907432556	NPCNearDoor_HumanMale_Mesh_LOD1	Cube.001	-1	23
0.0168800614774227	0.0345661491155624	0.0132742822170258	0.435916066169739	0.594082355499268	1.54570627212524	0.267870962619781	2.73250246047974	-0.0981857031583786	0.80872106552124	-0.020369915291667	-0.579581618309021	NPCNearDoor_HumanMale_Mesh_LOD1	Cube.001	-1	23
0.0052055292762816	0.0345661491155624	0.0132742822170258	0.435916066169739	0.594082355499268	1.54574751853943	0.267832934856415	2.73248767852783	-0.0983200296759605	0.808696031570435	-0.0203655287623405	-0.579594016075134	NPCNearDoor_HumanMale_Mesh_LOD1	Cube.001	-1	23
0.0105190807953477	0.0344413220882416	0.0137788355350494	0.436040878295898	0.594586968421936	1.5456485748291	0.267889320850372	2.73246932029724	-0.098394587635994	0.808686017990112	-0.0204012058675289	-0.57959395647049	NPCNearDoor_HumanMale_Mesh_LOD1	Cube.001	-1	23
0.0111370580270886	0.0344413220882416	0.0137788355350494	0.436040878295898	0.594586968421936	1.54567766189575	0.267838001251221	2.73248100280762	-0.0983084067702293	0.808772623538971	-0.0204517729580402	-0.579486072063446	NPCNearDoor_HumanMale_Mesh_LOD1	Cube.001	-1	23
0.0111385211348534	0.0344413220882416	0.0137788355350494	0.436040878295898	0.594586968421936	1.54574751853943	0.267812788486481	2.73244190216064	-0.0983564704656601	0.808744490146637	-0.0204822979867458	-0.579516112804413	NPCNearDoor_HumanMale_Mesh_LOD1	Cube.001	-1	23
0.0126859527081251	0.0320804119110107	0.0132740139961243	0.438401788473129	0.594082117080688	1.5457170009613	0.2678182721138	2.73242044448853	-0.0983331277966499	0.80885910987854	-0.0204765535891056	-0.57936030626297	NPCNearDoor_HumanMale_Mesh_LOD1	Cube.001	-1	23
0.00993945263326168	0.0320804119110107	0.0132740139961243	0.438401788473129	0.594082117080688	1.54568386077881	0.267834722995758	2.73238325119019	-0.0983008369803429	0.80882316827774	-0.0204884558916092	-0.579415440559387	NPCNearDoor_HumanMale_Mesh_LOD1	Cube.001	-1	23
0.0111168585717678	0.0320804119110107	0.0132740139961243	0.438401788473129	0.594082117080688	1.54577934741974	0.267827093601227	2.73236799240112	-0.0984510630369186	0.808866560459137	-0.0204458814114332	-0.579330921173096	NPCNearDoor_HumanMale_Mesh_LOD1	Cube.001	-1	23
0.0109526310116053	0.0265586376190186	0.0117705464363098	0.443923562765121	0.592578649520874	1.54571378231049	0.267855584621429	2.73241424560547	-0.0984485596418381	0.808824121952057	-0.0205297209322453	-0.579387664794922	NPCNearDoor_HumanMale_Mesh_LOD1	Cube.001	-1	166
0.0112014608457685	0.0265586376190186	0.0117705464363098	0.443923562765121	0.592578649520874	1.54565227031708	0.267892599105835	2.73242950439453	-0.0984988659620285	0.808868944644928	-0.020803352817893	-0.579306662082672	NPCNearDoor_HumanMale_Mesh_LOD1	Cube.001	-1	166
0.0110143991187215	0.0265586376190186	0.0117705464363098	0.443923562765121	0.592578649520874	1.54569065570831	0.267814993858337	2.7323956489563	-0.0985445156693459	0.80877012014389	-0.0208005551248789	-0.579436957836151	NPCNearDoor_HumanMale_Mesh_LOD1	Cube.001	-1	166
0.0121759977191687	0.0266006886959076	0.0123698115348816	0.443881511688232	0.593177914619446	1.54560041427612	0.267856657505035	2.73233413696289	-0.0986149981617928	0.808806002140045	-0.0209793504327536	-0.579368472099304	NPCNearDoor_HumanMale_Mesh_LOD1	Cube.001	-1	166
0.0105211297050118	0.0266006886959076	0.0123698115348816	0.443881511688232	0.593177914619446	1.54560816287994	0.26781564950943	2.73231363296509	-0.0984854176640511	0.80876624584198	-0.0212991070002317	-0.579434275627136	NPCNearDoor_HumanMale_Mesh_LOD1	Cube.001	-1	166
0.0114131132140756	0.0266006886959076	0.0123698115348816	0.443881511688232	0.593177914619446	1.545649766922	0.26775735616684	2.73229503631592	-0.0984276607632637	0.80880606174469	-0.0214499942958355	-0.579383075237274	NPCNearDoor_HumanMale_Mesh_LOD1	Cube.001	-1	166
0.0179242696613073	0.0259109139442444	0.0125650465488434	0.444571286439896	0.59337317943573	1.54561734199524	0.267738997936249	2.73229074478149	-0.0985072776675224	0.808797895908356	-0.0214845668524504	-0.579379558563232	NPCNearDoor_HumanMale_Mesh_LOD1	Cube.001	-1	166
0.00530476868152618	0.0259109139442444	0.0125650465488434	0.444571286439896	0.59337317943573	1.54567587375641	0.267672955989838	2.73229742050171	-0.098647303879261	0.808821141719818	-0.02150490693748	-0.579322516918182	NPCNearDoor_HumanMale_Mesh_LOD1	Cube.001	-1	166
0.010336116887629	0.0259109139442444	0.0125650465488434	0.444571286439896	0.59337317943573	1.54568541049957	0.267647922039032	2.73231792449951	-0.0987525284290314	0.808847963809967	-0.0215548370033503	-0.579265296459198	NPCNearDoor_HumanMale_Mesh_LOD1	Cube.001	-1	166
0.0112562039867044	0.0263067036867142	0.0127426981925964	0.444175481796265	0.593550801277161	1.54566359519959	0.267601549625397	2.73231887817383	-0.0989246368408203	0.808802247047424	-0.0217263344675303	-0.579293489456177	NPCNearDoor_HumanMale_Mesh_LOD1	Cube.001	-1	166
0.0108434380963445	0.0263067036867142	0.0127426981925964	0.444175481796265	0.593550801277161	1.54562735557556	0.267529904842377	2.73233556747437	-0.0991702303290367	0.808821380138397	-0.0220326501876116	-0.579213201999664	NPCNearDoor_HumanMale_Mesh_LOD1	Cube.001	-1	166
0.0113697871565819	0.0263067036867142	0.0127426981925964	0.444175481796265	0.593550801277161	1.54556679725647	0.267373442649841	2.73230886459351	-0.0993043631315231	0.80876898765564	-0.0223681479692459	-0.579250454902649	NPCNearDoor_HumanMale_Mesh_LOD1	Cube.001	-1	166
0.0111721865832806	0.0263067036867142	0.0127426981925964	0.444175481796265	0.593550801277161	1.54553306102753	0.267311632633209	2.73228693008423	-0.0994977429509163	0.80872118473053	-0.0226084999740124	-0.579274713993073	NPCNearDoor_HumanMale_Mesh_LOD1	Cube.001	-1	166
0.0109470682218671	0.026032879948616	0.0123270153999329	0.444449305534363	0.593135118484497	1.54541742801666	0.267319619655609	2.73229885101318	-0.0995958596467972	0.808635711669922	-0.0227462071925402	-0.579371690750122	NPCNearDoor_HumanMale_Mesh_LOD1	Cube.001	-1	166
0.0110875843092799	0.026032879948616	0.0123270153999329	0.444449305534363	0.593135118484497	1.54541563987732	0.267272174358368	2.73230743408203	-0.0996218547224998	0.808568358421326	-0.0227032043039799	-0.579462945461273	NPCNearDoor_HumanMale_Mesh_LOD1	Cube.001	-1	166
0.0111496457830071	0.026032879948616	0.0123270153999329	0.444449305534363	0.593135118484497	1.54530489444733	0.267259478569031	2.73241996765137	-0.0996614098548889	0.808402299880981	-0.0225864201784134	-0.579692304134369	NPCNearDoor_HumanMale_Mesh_LOD1	Cube.001	-1	166
0.0110012255609035	0.0265449285507202	0.013191819190979	0.44393727183342	0.593999922275543	1.54520523548126	0.267281472682953	2.73245716094971	-0.0996513143181801	0.808312356472015	-0.0226341113448143	-0.579817593097687	NPCNearDoor_HumanMale_Mesh_LOD1	Cube.001	-1	166
0.0116780437529087	0.0265449285507202	0.013191819190979	0.44393727183342	0.593999922275543	1.54517495632172	0.267300426959991	2.73239970207214	-0.0996381193399429	0.808154404163361	-0.0227043405175209	-0.580037355422974	NPCNearDoor_HumanMale_Mesh_LOD1	Cube.001	-1	166
0.0113823749125004	0.0265449285507202	0.013191819190979	0.44393727183342	0.593999922275543	1.54509389400482	0.267307698726654	2.73242235183716	-0.099725678563118	0.808015942573547	-0.0226500779390335	-0.580217301845551	NPCNearDoor_HumanMale_Mesh_LOD1	Cube.001	-1	166
0.0109374076128006	0.0261387228965759	0.0136294364929199	0.444343477487564	0.594437539577484	1.54502046108246	0.267284333705902	2.73246002197266	-0.099776104092598	0.808022141456604	-0.0226369947195053	-0.580200493335724	NPCNearDoor_HumanMale_Mesh_LOD1	Cube.001	-1	166
0.0168343931436539	0.0261387228965759	0.0136294364929199	0.444343477487564	0.594437539577484	1.54508888721466	0.267375946044922	2.73248386383057	-0.0998713150620461	0.807965159416199	-0.0225636027753353	-0.580266296863556	NPCNearDoor_HumanMale_Mesh_LOD1	Cube.001	-1	166
0.00503017706796527	0.0261387228965759	0.0136294364929199	0.444343477487564	0.594437539577484	1.54508709907532	0.267347395420074	2.73245096206665	-0.0998550057411194	0.807868659496307	-0.0225150585174561	-0.580405235290527	NPCNearDoor_HumanMale_Mesh_LOD1	Cube.001	-1	166
0.011587293818593	0.0267305970191956	0.0126895308494568	0.443751603364944	0.593497633934021	1.54505658149719	0.267366230487823	2.73245620727539	-0.0998733043670654	0.807864725589752	-0.022469675168395	-0.580409348011017	NPCNearDoor_HumanMale_Mesh_LOD1	Cube.001	-1	166
0.0111622335389256	0.0267305970191956	0.0126895308494568	0.443751603364944	0.593497633934021	1.54509425163269	0.267357647418976	2.73242950439453	-0.099889948964119	0.807895064353943	-0.0223765149712563	-0.580367863178253	NPCNearDoor_HumanMale_Mesh_LOD1	Cube.001	-1	166
0.0107629345729947	0.0267305970191956	0.0126895308494568	0.443751603364944	0.593497633934021	1.54497075080872	0.267460227012634	2.73241996765137	-0.0999464243650436	0.807972133159637	-0.0223050490021706	-0.580253660678864	NPCNearDoor_HumanMale_Mesh_LOD1	Cube.001	-1	166
0.0111110033467412	0.0271969139575958	0.0129647254943848	0.443285286426544	0.593772828578949	1.54491472244263	0.2674880027771	2.7323751449585	-0.0998272299766541	0.808016002178192	-0.0221878178417683	-0.58021754026413	NPCNearDoor_HumanMale_Mesh_LOD1	Cube.001	-1	166
0.0113334869965911	0.0271969139575958	0.0129647254943848	0.443285286426544	0.593772828578949	1.54499769210815	0.267573177814484	2.73236036300659	-0.0996071621775627	0.808204650878906	-0.0219645835459232	-0.580000996589661	NPCNearDoor_HumanMale_Mesh_LOD1	Cube.001	-1	166
0.0120606571435928	0.0271969139575958	0.0129647254943848	0.443285286426544	0.593772828578949	1.54491472244263	0.267670154571533	2.73239278793335	-0.0994104892015457	0.808257400989532	-0.0217331703752279	-0.579970061779022	NPCNearDoor_HumanMale_Mesh_LOD1	Cube.001	-1	166
0.0110908048227429	0.0263575911521912	0.0120458006858826	0.444124609231949	0.592853903770447	1.54490518569946	0.26775735616684	2.73235940933228	-0.0990822166204453	0.808360457420349	-0.021418709307909	-0.579894304275513	NPCNearDoor_HumanMale_Mesh_LOD1	Cube.001	-1	166
0.0110770454630256	0.0263575911521912	0.0120458006858826	0.444124609231949	0.592853903770447	1.54479539394379	0.267805874347687	2.73233556747437	-0.0988123565912247	0.808502435684204	-0.0210539717227221	-0.579755663871765	NPCNearDoor_HumanMale_Mesh_LOD1	Cube.001	-1	166
0.0109865888953209	0.0263575911521912	0.0120458006858826	0.444124609231949	0.592853903770447	1.54480493068695	0.267886340618134	2.73227214813232	-0.0984653607010841	0.808636426925659	-0.0208583790808916	-0.57963502407074	NPCNearDoor_HumanMale_Mesh_LOD1	Cube.001	-1	166
0.0113004073500633	0.0263575911521912	0.0120458006858826	0.444124609231949	0.592853903770447	1.54472744464874	0.26800400018692	2.73222732543945	-0.0981202349066734	0.808784127235413	-0.0206538364291191	-0.579494774341583	NPCNearDoor_HumanMale_Mesh_LOD1	Cube.001	-1	166
0.0115249399095774	0.0259966850280762	0.0113027989864349	0.444485515356064	0.592110872268677	1.5446949005127	0.268078863620758	2.73211479187012	-0.0979326739907265	0.808883011341095	-0.0205244086682796	-0.579392969608307	NPCNearDoor_HumanMale_Mesh_LOD1	Cube.001	-1	166
0.0112137561663985	0.0259966850280762	0.0113027989864349	0.444485515356064	0.592110872268677	1.54470121860504	0.268125832080841	2.73207187652588	-0.0978454351425171	0.809006631374359	-0.0204033013433218	-0.57923948764801	NPCNearDoor_HumanMale_Mesh_LOD1	Cube.001	-1	166
0.0168993808329105	0.0255551934242249	0.0112719237804413	0.444927006959915	0.592079997062683	1.54477274417877	0.268130719661713	2.73203754425049	-0.09771828353405	0.809142529964447	-0.0203369483351707	-0.579073309898376	NPCNearDoor_HumanMale_Mesh_LOD1	Cube.001	-1	166
0.00485394708812237	0.0255551934242249	0.0112719237804413	0.444927006959915	0.592079997062683	1.54477024078369	0.268190205097198	2.73192930221558	-0.0974046215415001	0.80925053358078	-0.0203724913299084	-0.578974068164825	NPCNearDoor_HumanMale_Mesh_LOD1	Cube.001	-1	166
0.0114063797518611	0.0255551934242249	0.0112719237804413	0.444927006959915	0.592079997062683	1.54474306106567	0.268254816532135	2.73188352584839	-0.0972604304552078	0.809305012226105	-0.0204212833195925	-0.578920423984528	NPCNearDoor_HumanMale_Mesh_LOD1	Cube.001	-1	166
0.0112137561663985	0.0255551934242249	0.0112719237804413	0.444927006959915	0.592079997062683	1.54475164413452	0.26825350522995	2.73183584213257	-0.0969884246587753	0.809446036815643	-0.0204077940434217	-0.578769385814667	NPCNearDoor_HumanMale_Mesh_LOD1	Cube.001	-1	166
0.0116663342341781	0.0244974792003632	0.00762569904327393	0.445984721183777	0.588433802127838	1.54473662376404	0.268296897411346	2.73177051544189	-0.0968876332044601	0.809524714946747	-0.0203264690935612	-0.578678965568542	NPCNearDoor_HumanMale_Mesh_LOD1	Cube.001	-1	165
0.0104640452191234	0.0244974792003632	0.00762569904327393	0.445984721183777	0.588433802127838	1.544757604599	0.268298208713531	2.73168039321899	-0.0966598391532898	0.80954110622406	-0.0203780252486467	-0.578692317008972	NPCNearDoor_HumanMale_Mesh_LOD1	Cube.001	-1	165
0.0119833732023835	0.0246921479701996	0.00757551193237305	0.44579005241394	0.588383615016937	1.54466664791107	0.268366277217865	2.73163270950317	-0.0964937061071396	0.809626996517181	-0.0204254202544689	-0.578598320484161	NPCNearDoor_HumanMale_Mesh_LOD1	Cube.001	-1	165
0.0104491151869297	0.0246921479701996	0.00757551193237305	0.44579005241394	0.588383615016937	1.54460835456848	0.268316090106964	2.73164987564087	-0.0964266955852509	0.80962198972702	-0.0204835962504148	-0.578614413738251	NPCNearDoor_HumanMale_Mesh_LOD1	Cube.001	-1	165
0.0114180892705917	0.0246921479701996	0.00757551193237305	0.44579005241394	0.588383615016937	1.54458689689636	0.268324673175812	2.73160362243652	-0.0963434278964996	0.809548258781433	-0.0206250362098217	-0.578726410865784	NPCNearDoor_HumanMale_Mesh_LOD1	Cube.001	-1	165
0.0114107709378004	0.0238851308822632	0.00791823863983154	0.446597069501877	0.588726341724396	1.54467344284058	0.268280148506165	2.73156785964966	-0.0962627977132797	0.809574663639069	-0.0206817258149385	-0.57870078086853	NPCNearDoor_HumanMale_Mesh_LOD1	Cube.001	-1	165
0.012427169829607	0.0237563997507095	0.00629964470863342	0.446725785732269	0.58710777759552	1.5446058511734	0.268308341503143	2.73165893554688	-0.0961383059620857	0.809544801712036	-0.0207564011216164	-0.57876068353653	NPCNearDoor_HumanMale_Mesh_LOD1	Cube.001	-1	165
0.00950619485229254	0.0237563997507095	0.00629964470863342	0.446725785732269	0.58710777759552	1.54462099075317	0.268284022808075	2.73160934448242	-0.0958810895681381	0.809576570987701	-0.02069909311831	-0.578760981559753	NPCNearDoor_HumanMale_Mesh_LOD1	Cube.001	-1	165
0.0104318438097835	0.0237563997507095	0.00629964470863342	0.446725785732269	0.58710777759552	1.54459714889526	0.268303632736206	2.73159122467041	-0.0955995321273804	0.809647679328918	-0.0206925738602877	-0.578708291053772	NPCNearDoor_HumanMale_Mesh_LOD1	Cube.001	-1	165
0.0120389945805073	0.0519148409366608	0.0195291340351105	0.47534391283989	0.602206945419312	1.54459702968597	0.26832115650177	2.73158192634583	-0.0954685062170029	0.809574365615845	-0.02065753005445	-0.578833758831024	NPCNearDoor_HumanMale_Mesh_LOD1	Cube.001	-1	22
0.0163317564874887	0.0519148409366608	0.0195291340351105	0.47534391283989	0.602206945419312	1.54461848735809	0.268310785293579	2.73154926300049	-0.0954719632863998	0.809549391269684	-0.0206589568406343	-0.57886791229248	NPCNearDoor_HumanMale_Mesh_LOD1	Cube.001	-1	22
0.00578954862430692	0.0506486743688583	0.0208759307861328	0.476610064506531	0.600860118865967	1.54474556446075	0.26828545331955	2.73154544830322	-0.0955440923571587	0.809536933898926	-0.0206715185195208	-0.578873097896576	NPCNearDoor_HumanMale_Mesh_LOD1	Cube.001	-1	22
0.0107895731925964	0.0506486743688583	0.0208759307861328	0.476610064506531	0.600860118865967	1.54469752311707	0.268300414085388	2.73147964477539	-0.0955971702933311	0.80946809053421	-0.0207676514983177	-0.578957140445709	NPCNearDoor_HumanMale_Mesh_LOD1	Cube.001	-1	22
0.0110597740858793	0.0506486743688583	0.0208759307861328	0.476610064506531	0.600860118865967	1.54474258422852	0.268250584602356	2.73147821426392	-0.0956110283732414	0.809414803981781	-0.0208902377635241	-0.579024970531464	NPCNearDoor_HumanMale_Mesh_LOD1	Cube.001	-1	22
0.0106209544464946	0.0506486743688583	0.0208759307861328	0.476610064506531	0.600860118865967	1.54475629329681	0.268222212791443	2.73145866394043	-0.0956891253590584	0.809295356273651	-0.0209800582379103	-0.579175710678101	NPCNearDoor_HumanMale_Mesh_LOD1	Cube.001	-1	22
0.0114160403609276	0.0509168356657028	0.0213185846805573	0.476341903209686	0.600417494773865	1.54481172561646	0.268215775489807	2.73154234886169	-0.0957609564065933	0.809250891208649	-0.020965076982975	-0.579226493835449	NPCNearDoor_HumanMale_Mesh_LOD1	Cube.001	-1	22
0.0112907467409968	0.0509168356657028	0.0213185846805573	0.476341903209686	0.600417494773865	1.54482889175415	0.268197238445282	2.73153162002563	-0.0956533178687096	0.80917227268219	-0.0210409872233868	-0.579351305961609	NPCNearDoor_HumanMale_Mesh_LOD1	Cube.001	-1	22
0.0114663923159242	0.051656648516655	0.0219481885433197	0.475602090358734	0.599787831306458	1.54490208625793	0.268200218677521	2.7315092086792	-0.0955587774515152	0.80906343460083	-0.0210123881697655	-0.579519927501678	NPCNearDoor_HumanMale_Mesh_LOD1	Cube.001	-1	22
0.0109895160421729	0.051656648516655	0.0219481885433197	0.475602090358734	0.599787831306458	1.54487538337708	0.26822417974472	2.73156929016113	-0.0955609679222107	0.808964490890503	-0.0209651365876198	-0.579659461975098	NPCNearDoor_HumanMale_Mesh_LOD1	Cube.001	-1	22
0.0109479464590549	0.051656648516655	0.0219481885433197	0.475602090358734	0.599787831306458	1.54494631290436	0.268194019794464	2.73154497146606	-0.0955524370074272	0.808903574943542	-0.021032428368926	-0.579743325710297	NPCNearDoor_HumanMale_Mesh_LOD1	Cube.001	-1	22
0.0109491180628538	0.051656648516655	0.0219481885433197	0.475602090358734	0.599787831306458	1.54487371444702	0.268137156963348	2.73150300979614	-0.0957093387842178	0.808777451515198	-0.0211582500487566	-0.579888820648193	NPCNearDoor_HumanMale_Mesh_LOD1	Cube.001	-1	23
0.0115703148767352	0.0509432852268219	0.0226284861564636	0.476315468549728	0.599107563495636	1.54485678672791	0.268144190311432	2.7315194606781	-0.0957190990447998	0.808663189411163	-0.0213231705129147	-0.580040633678436	NPCNearDoor_HumanMale_Mesh_LOD1	Cube.001	-1	23
0.0115931490436196	0.0509432852268219	0.0226284861564636	0.476315468549728	0.599107563495636	1.54488682746887	0.268123149871826	2.73153018951416	-0.0958166196942329	0.808599531650543	-0.0213738940656185	-0.580111384391785	NPCNearDoor_HumanMale_Mesh_LOD1	Cube.001	-1	166
0.0110012255609035	0.0509432852268219	0.0226284861564636	0.476315468549728	0.599107563495636	1.54493141174316	0.268121421337128	2.73153352737427	-0.0957787185907364	0.808553218841553	-0.0215027239173651	-0.580177426338196	NPCNearDoor_HumanMale_Mesh_LOD1	Cube.001	-1	166
0.0171411857008934	0.0505751818418503	0.023478090763092	0.476683557033539	0.598257958889008	1.54497718811035	0.268117845058441	2.73151445388794	-0.0956371054053307	0.808543503284454	-0.0215619225054979	-0.58021205663681	NPCNearDoor_HumanMale_Mesh_LOD1	Cube.001	-1	166
0.00549739273265004	0.0505751818418503	0.023478090763092	0.476683557033539	0.598257958889008	1.54500079154968	0.26815527677536	2.73146390914917	-0.0956113338470459	0.808510065078735	-0.0215338114649057	-0.580264031887054	NPCNearDoor_HumanMale_Mesh_LOD1	Cube.001	-1	166
0.0103756375610828	0.0505751818418503	0.023478090763092	0.476683557033539	0.598257958889008	1.54510855674744	0.268176257610321	2.73143529891968	-0.0953467413783073	0.808580696582794	-0.021527661010623	-0.580209314823151	NPCNearDoor_HumanMale_Mesh_LOD1	Cube.001	-1	166
0.0111367646604776	0.0518199950456619	0.0228305757045746	0.47543877363205	0.598905444145203	1.54510366916656	0.268199324607849	2.73146152496338	-0.0952930599451065	0.808589398860931	-0.0214260704815388	-0.580209851264954	NPCNearDoor_HumanMale_Mesh_LOD1	Cube.001	-1	23
0.0113457823172212	0.0518199950456619	0.0228305757045746	0.47543877363205	0.598905444145203	1.54519486427307	0.268160045146942	2.73140025138855	-0.0951762795448303	0.808672547340393	-0.021512858569622	-0.580109894275665	NPCNearDoor_HumanMale_Mesh_LOD1	Cube.001	-1	23
0.0108276298269629	0.0518199950456619	0.0228305757045746	0.47543877363205	0.598905444145203	1.54511141777039	0.268042981624603	2.73133516311646	-0.0952541455626488	0.808714807033539	-0.0216939672827721	-0.580031335353851	NPCNearDoor_HumanMale_Mesh_LOD1	Cube.001	-1	166
0.0116455499082804	0.0578070729970932	0.0362355709075928	0.482045829296112	0.610554814338684	1.54507970809937	0.268064200878143	2.73130464553833	-0.0954152718186378	0.808809697628021	-0.0217549446970224	-0.579870283603668	NPCNearDoor_HumanMale_Mesh_LOD1	TheTavern_3	-1	10
0.01127406116575	0.0578070729970932	0.0362355709075928	0.482045829296112	0.610554814338684	1.54512226581573	0.268027603626251	2.73127222061157	-0.0954955369234085	0.80893862247467	-0.0217085443437099	-0.579679012298584	NPCNearDoor_HumanMale_Mesh_LOD1	TheTavern_3	-1	10
0.0111651606857777	0.0578070729970932	0.0362355709075928	0.482045829296112	0.610554814338684	1.54512977600098	0.268112421035767	2.73121190071106	-0.0955786108970642	0.808950304985046	-0.0217712018638849	-0.579646587371826	NPCNearDoor_HumanMale_Mesh_LOD1	TheTavern_3	-1	10
0.0108454870060086	0.0592774003744125	0.0356776118278503	0.48037725687027	0.610498189926147	1.54508495330811	0.268151223659515	2.73116254806519	-0.0955757573246956	0.809008479118347	-0.0217898283153772	-0.579565227031708	NPCNearDoor_HumanMale_Mesh_LOD1	TheTavern_3	-1	10
0.0111575499176979	0.0592774003744125	0.0356776118278503	0.48037725687027	0.610498189926147	1.54507803916931	0.268169462680817	2.73115158081055	-0.0955289676785469	0.809048354625702	-0.0218342952430248	-0.57951557636261	NPCNearDoor_HumanMale_Mesh_LOD1	TheTavern_3	-1	10
0.0112875271588564	0.0592774003744125	0.0356776118278503	0.48037725687027	0.610498189926147	1.54505276679993	0.268024623394012	2.73111057281494	-0.095464214682579	0.809111416339874	-0.0219644755125046	-0.57943320274353	NPCNearDoor_HumanMale_Mesh_LOD1	TheTavern_3	-1	10
0.011166624724865	0.059982106089592	0.0353860855102539	0.479815721511841	0.611227810382843	1.54501450061798	0.268056631088257	2.7310209274292	-0.0953408405184746	0.809136092662811	-0.0221130065619946	-0.579413414001465	NPCNearDoor_HumanMale_Mesh_LOD1	TheTavern_3	-1	10
0.0117661589756608	0.059982106089592	0.0353860855102539	0.479815721511841	0.611227810382843	1.54501581192017	0.268037259578705	2.73098754882813	-0.0952763184905052	0.809179782867432	-0.0222010351717472	-0.579359769821167	NPCNearDoor_HumanMale_Mesh_LOD1	TheTavern_3	-1	10
0.0172342769801617	0.059982106089592	0.0353860855102539	0.479815721511841	0.611227810382843	1.54498207569122	0.268047332763672	2.73094320297241	-0.0953760743141174	0.809191942214966	-0.0222672466188669	-0.579323828220367	NPCNearDoor_HumanMale_Mesh_LOD1	TheTavern_3	-1	10
0.00416981009766459	0.059982106089592	0.0353860855102539	0.479815721511841	0.611227810382843	1.54494595527649	0.268070101737976	2.73090362548828	-0.0954934805631638	0.809174835681915	-0.0223582088947296	-0.579324722290039	NPCNearDoor_HumanMale_Mesh_LOD1	TheTavern_3	-1	10
0.0120217222720385	0.061136320233345	0.0355173349380493	0.479547023773193	0.613885223865509	1.54489278793335	0.268077313899994	2.73091125488281	-0.0956014692783356	0.809140145778656	-0.022472970187664	-0.579351007938385	NPCNearDoor_HumanMale_Mesh_LOD1	TheTavern_3	-1	10
0.010881494730711	0.061136320233345	0.0355173349380493	0.479547023773193	0.613885223865509	1.5449538230896	0.268102943897247	2.73087310791016	-0.0956094115972519	0.809072971343994	-0.0225224196910858	-0.579441666603088	NPCNearDoor_HumanMale_Mesh_LOD1	TheTavern_3	-1	10
0.011362761259079	0.059373140335083	0.0343082845211029	0.480539083480835	0.612674951553345	1.54490327835083	0.26809149980545	2.73098754882813	-0.0957088395953178	0.808932483196259	-0.0225847829133272	-0.579618811607361	NPCNearDoor_HumanMale_Mesh_LOD1	TheTavern_3	-1	10
0.0109397498890758	0.059373140335083	0.0343082845211029	0.480539083480835	0.612674951553345	1.54491019248962	0.268081247806549	2.73098945617676	-0.095686674118042	0.80889219045639	-0.0227282457053661	-0.579673171043396	NPCNearDoor_HumanMale_Mesh_LOD1	TheTavern_3	-1	10
0.0114011103287339	0.059373140335083	0.0343082845211029	0.480539083480835	0.612674951553345	1.54482388496399	0.267962157726288	2.73094940185547	-0.0956532657146454	0.80882465839386	-0.0228319745510817	-0.579768836498261	NPCNearDoor_HumanMale_Mesh_LOD1	TheTavern_3	-1	10
0.0107360016554594	0.059373140335083	0.0343082845211029	0.480539083480835	0.612674951553345	1.54476833343506	0.267970860004425	2.73092937469482	-0.0956174060702324	0.808739185333252	-0.0229302905499935	-0.579890072345734	NPCNearDoor_HumanMale_Mesh_LOD1	TheTavern_3	-1	10
0.0119344852864742	0.0597256720066071	0.0332754254341125	0.479631215333939	0.611937642097473	1.54481029510498	0.267929553985596	2.73089408874512	-0.0957263186573982	0.808665692806244	-0.0229435861110687	-0.579974114894867	NPCNearDoor_HumanMale_Mesh_LOD1	TheTavern_3	-1	10
0.0109836608171463	0.0597256720066071	0.0332754254341125	0.479631215333939	0.611937642097473	1.54488730430603	0.267776489257813	2.73088455200195	-0.0957410484552383	0.80871719121933	-0.0228745024651289	-0.579902529716492	NPCNearDoor_HumanMale_Mesh_LOD1	TheTavern_3	-1	10
0.0115442611277103	0.0600654184818268	0.0332711040973663	0.479840248823166	0.613684058189392	1.54484760761261	0.2678102850914	2.73088097572327	-0.0959064960479736	0.808609187602997	-0.0230608321726322	-0.58001846075058	NPCNearDoor_HumanMale_Mesh_LOD1	TheTavern_3	-1	10
0.0109658036381006	0.0600654184818268	0.0332711040973663	0.479840248823166	0.613684058189392	1.54485404491425	0.267790973186493	2.73087930679321	-0.0959817245602608	0.808631598949432	-0.023152332752943	-0.579971075057983	NPCNearDoor_HumanMale_Mesh_LOD1	TheTavern_3	-1	10
0.0110313780605793	0.0600654184818268	0.0332711040973663	0.479840248823166	0.613684058189392	1.54493093490601	0.267704665660858	2.73088073730469	-0.0961096733808517	0.808644771575928	-0.0231521930545568	-0.579931557178497	NPCNearDoor_HumanMale_Mesh_LOD1	TheTavern_3	-1	10
0.011743325740099	0.0600654184818268	0.0332711040973663	0.479840248823166	0.613684058189392	1.54488325119019	0.267724752426147	2.73075771331787	-0.0961771979928017	0.808627843856812	-0.0233584530651569	-0.579935610294342	NPCNearDoor_HumanMale_Mesh_LOD1	TheTavern_3	-1	10
0.0168806463479996	0.05991131067276	0.0328628122806549	0.479561269283295	0.612707495689392	1.54491412639618	0.267689526081085	2.73073053359985	-0.0962971448898315	0.808562994003296	-0.0234594419598579	-0.580002069473267	NPCNearDoor_HumanMale_Mesh_LOD1	TheTavern_3	-1	10
0.00525617366656661	0.05991131067276	0.0328628122806549	0.479561269283295	0.612707495689392	1.5449538230896	0.267620861530304	2.73069715499878	-0.0962516814470291	0.808524549007416	-0.0235865041613579	-0.580058038234711	NPCNearDoor_HumanMale_Mesh_LOD1	TheTavern_3	-1	10
0.010665743611753	0.05991131067276	0.0328628122806549	0.479561269283295	0.612707495689392	1.54490625858307	0.26762467622757	2.73076581954956	-0.096218653023243	0.808533191680908	-0.0236832704395056	-0.580047607421875	NPCNearDoor_HumanMale_Mesh_LOD1	TheTavern_3	-1	10
0.011920434422791	0.0596375912427902	0.0330661833286285	0.480083107948303	0.613314390182495	1.54500985145569	0.267553508281708	2.73070621490479	-0.0962585359811783	0.808499097824097	-0.0235666073858738	-0.580093204975128	NPCNearDoor_HumanMale_Mesh_LOD1	TheTavern_3	-1	10
0.0105580147355795	0.0596375912427902	0.0330661833286285	0.480083107948303	0.613314390182495	1.54491209983826	0.26762717962265	2.73067331314087	-0.0963012129068375	0.808451652526855	-0.0235778149217367	-0.580151855945587	NPCNearDoor_HumanMale_Mesh_LOD1	TheTavern_3	-1	10
0.01109987962991	0.0596375912427902	0.0330661833286285	0.480083107948303	0.613314390182495	1.54485213756561	0.267655551433563	2.73064422607422	-0.0962834283709526	0.808387637138367	-0.0234550703316927	-0.580248892307281	NPCNearDoor_HumanMale_Mesh_LOD1	TheTavern_3	-1	10
0.0113238263875246	0.0606706589460373	0.0353879034519196	0.481374621391296	0.618187069892883	1.5448933839798	0.267648637294769	2.73062324523926	-0.096342995762825	0.808356821537018	-0.0233655609190464	-0.580285549163818	NPCNearDoor_HumanMale_Mesh_LOD1	Cube.001	-1	122
0.0118513470515609	0.0606706589460373	0.0353879034519196	0.481374621391296	0.618187069892883	1.54490828514099	0.267654836177826	2.73061323165894	-0.096260130405426	0.808416128158569	-0.0233541447669268	-0.580217123031616	NPCNearDoor_HumanMale_Mesh_LOD1	Cube.001	-1	122
0.0106765758246183	0.0606706589460373	0.0353879034519196	0.481374621391296	0.618187069892883	1.5448911190033	0.26762056350708	2.73074626922607	-0.096289835870266	0.808342814445496	-0.0233734920620918	-0.580313622951508	NPCNearDoor_HumanMale_Mesh_LOD1	Cube.001	-1	122
0.012119498103857	0.0547377318143845	0.0321625173091888	0.485032260417938	0.614360690116882	1.5450119972229	0.267496049404144	2.73065853118896	-0.096313364803791	0.808333158493042	-0.0234884563833475	-0.580318450927734	NPCNearDoor_HumanMale_Mesh_LOD1	TheTavern_3	-1	10
0.0103756375610828	0.0547377318143845	0.0321625173091888	0.485032260417938	0.614360690116882	1.54506659507751	0.267477691173553	2.73063850402832	-0.0964205712080002	0.808333933353424	-0.0236150771379471	-0.58029443025589	NPCNearDoor_HumanMale_Mesh_LOD1	TheTavern_3	-1	10
0.0113809118047357	0.0547377318143845	0.0321625173091888	0.485032260417938	0.614360690116882	1.54501760005951	0.267466247081757	2.73068380355835	-0.0965414419770241	0.80832976102829	-0.023638105019927	-0.580279231071472	NPCNearDoor_HumanMale_Mesh_LOD1	TheTavern_3	-1	10
0.0109180873259902	0.0494404137134552	0.0345125496387482	0.490875691175461	0.613767147064209	1.5449845790863	0.267458856105804	2.73070049285889	-0.0966929122805595	0.80826473236084	-0.0236667636781931	-0.580343544483185	NPCNearDoor_HumanMale_Mesh_LOD1	Cube.001	-1	8
0.0117114167660475	0.0494404137134552	0.0345125496387482	0.490875691175461	0.613767147064209	1.54513478279114	0.267408013343811	2.73071146011353	-0.0967584624886513	0.808271765708923	-0.0236270427703857	-0.580324292182922	NPCNearDoor_HumanMale_Mesh_LOD1	Cube.001	-1	8
0.0167140755802393	0.0494404137134552	0.0345125496387482	0.490875691175461	0.613767147064209	1.54504382610321	0.267445623874664	2.73061895370483	-0.096741259098053	0.808273792266846	-0.0236507635563612	-0.58032351732254	NPCNearDoor_HumanMale_Mesh_LOD1	Cube.001	-1	8
0.0140331499278545	0.0481234639883041	0.0358893871307373	0.493334412574768	0.615944623947144	1.54504227638245	0.267425954341888	2.73061847686768	-0.0968171805143356	0.808278262615204	-0.0235867463052273	-0.580307185649872	NPCNearDoor_HumanMale_Mesh_LOD1	Cube.001	-1	77
0.00906971748918295	0.0481234639883041	0.0358893871307373	0.493334412574768	0.615944623947144	1.54503893852234	0.267419755458832	2.73070287704468	-0.0968379974365234	0.808244168758392	-0.0236513633280993	-0.580348491668701	NPCNearDoor_HumanMale_Mesh_LOD1	Cube.001	-1	77
0.0111941425129771	0.0481234639883041	0.0358893871307373	0.493334412574768	0.615944623947144	1.54511845111847	0.267331182956696	2.73066759109497	-0.0968324542045593	0.808247685432434	-0.0236151535063982	-0.580345988273621	NPCNearDoor_HumanMale_Mesh_LOD1	Cube.001	-1	77
0.0117518147453666	0.0473455339670181	0.0352253913879395	0.493763327598572	0.615540623664856	1.54508292675018	0.267357885837555	2.73066806793213	-0.0968618988990784	0.808189749717712	-0.0237599276006222	-0.580415904521942	NPCNearDoor_HumanMale_Mesh_LOD1	Cube.001	-1	77
0.0108958389610052	0.0473455339670181	0.0352253913879395	0.493763327598572	0.615540623664856	1.54500317573547	0.267288446426392	2.73065614700317	-0.0969688221812248	0.808070719242096	-0.0237234812229872	-0.580565214157104	NPCNearDoor_HumanMale_Mesh_LOD1	Cube.001	-1	77
0.0111862383782864	0.0479597300291061	0.0371076166629791	0.494377493858337	0.617422819137573	1.54501557350159	0.267271399497986	2.73068141937256	-0.0970344394445419	0.80809360742569	-0.0237003359943628	-0.580523312091827	NPCNearDoor_HumanMale_Mesh_LOD1	Cube.001	-1	77
0.0111306170001626	0.0483293533325195	0.0341756641864777	0.491982638835907	0.614068388938904	1.54504251480103	0.267236292362213	2.73068284988403	-0.0970105305314064	0.808032691478729	-0.0237066969275475	-0.580611824989319	NPCNearDoor_HumanMale_Mesh_LOD1	Cube.001	-1	9
0.0109807336702943	0.0483293533325195	0.0341756641864777	0.491982638835907	0.614068388938904	1.54501068592072	0.267218053340912	2.73070240020752	-0.0970600545406342	0.808054387569427	-0.0236389804631472	-0.580576241016388	NPCNearDoor_HumanMale_Mesh_LOD1	Cube.001	-1	9
0.0113088972866535	0.0483293533325195	0.0341756641864777	0.491982638835907	0.614068388938904	1.54504406452179	0.267195761203766	2.73067092895508	-0.0970130041241646	0.807942926883698	-0.0237259808927774	-0.580735623836517	NPCNearDoor_HumanMale_Mesh_LOD1	Cube.001	-1	9
0.0113223632797599	0.0474517047405243	0.035498321056366	0.493189424276352	0.613778412342072	1.54510986804962	0.267258644104004	2.73070335388184	-0.0969605594873428	0.807983934879303	-0.0236189272254705	-0.580691635608673	NPCNearDoor_HumanMale_Mesh_LOD1	Cube.001	-1	9
0.0110439658164978	0.0474517047405243	0.035498321056366	0.493189424276352	0.613778412342072	1.54507601261139	0.267282783985138	2.73076152801514	-0.0969335362315178	0.807865262031555	-0.0235802326351404	-0.580862879753113	NPCNearDoor_HumanMale_Mesh_LOD1	Cube.001	-1	9
0.0114942025393248	0.0474517047405243	0.035498321056366	0.493189424276352	0.613778412342072	1.54509818553925	0.267277419567108	2.73076629638672	-0.0969183221459389	0.807796180248261	-0.0234768576920033	-0.58096569776535	NPCNearDoor_HumanMale_Mesh_LOD1	Cube.001	-1	9
0.0175109189003706	0.0354166626930237	0.0365351438522339	0.504756271839142	0.611575245857239	1.5450804233551	0.267274796962738	2.73076343536377	-0.0970445871353149	0.807760238647461	-0.023488188162446	-0.580994009971619	NPCNearDoor_HumanMale_Mesh_LOD1	Cube.001	-1	73
0.00501056341454387	0.0354166626930237	0.0365351438522339	0.504756271839142	0.611575245857239	1.54503417015076	0.267325103282928	2.73075151443481	-0.0970169380307198	0.807727932929993	-0.0235912967473269	-0.581039369106293	NPCNearDoor_HumanMale_Mesh_LOD1	Cube.001	-1	73
0.010346363298595	0.0354166626930237	0.0365351438522339	0.504756271839142	0.611575245857239	1.54503417015076	0.267337024211884	2.7307710647583	-0.0970527231693268	0.807670474052429	-0.0235407520085573	-0.581115424633026	NPCNearDoor_HumanMale_Mesh_LOD1	Cube.001	-1	73
0.0115954913198948	0.0354166626930237	0.0365351438522339	0.504756271839142	0.611575245857239	1.54503238201141	0.2673499584198	2.73078727722168	-0.0970152467489243	0.807676672935486	-0.0236371494829655	-0.581109046936035	NPCNearDoor_HumanMale_Mesh_LOD1	Cube.001	-1	73
