deltaTime	avgXGazingUncertainty	avgYGazingUncertainty	gazeX	gazeY	headX	headY	headZ	headRotationX	headRotationY	headRotationZ	headRotationW	faceRaycastHitObjectName	gazeRaycastHitObjectName	faceRaycastHitTriangleName	gazeRaycastHitTriangleName
0.0128762349486351	0.0699043571949005	0.0130974054336548	0.51434338092804	0.576750814914703	5.00002431869507	0.650757312774658	4.47474002838135	0.241068035364151	-0.132274612784386	-0.0156933385878801	-0.961323738098145	Bartender_HumanMale_Mesh_LOD1	Bartender_HumanMale_Mesh_LOD1	-1	-1
0.00954659283161163	0.0699043571949005	0.0130974054336548	0.51434338092804	0.576750814914703	5.00000810623169	0.65077805519104	4.47468566894531	0.241238534450531	-0.132215887308121	-0.0156627185642719	-0.961289584636688	Bartender_HumanMale_Mesh_LOD1	Bartender_HumanMale_Mesh_LOD1	-1	-1
0.0111399851739407	0.0699043571949005	0.0130974054336548	0.51434338092804	0.576750814914703	5.00007486343384	0.650752902030945	4.47458362579346	0.241484448313713	-0.132229134440422	-0.0156439486891031	-0.961226284503937	Bartender_HumanMale_Mesh_LOD1	Bartender_HumanMale_Mesh_LOD1	-1	-1
0.0111071979627013	0.0686574876308441	0.0137417912483215	0.513096570968628	0.57739520072937	5.000244140625	0.650859832763672	4.47455406188965	0.241665408015251	-0.132117286324501	-0.0156176304444671	-0.961196601390839	Bartender_HumanMale_Mesh_LOD1	Bartender_HumanMale_Mesh_LOD1	-1	-1
0.0109218927100301	0.0686574876308441	0.0137417912483215	0.513096570968628	0.57739520072937	5.00022315979004	0.650877356529236	4.47457599639893	0.241796925663948	-0.132116004824638	-0.0155229019001126	-0.961165308952332	Bartender_HumanMale_Mesh_LOD1	Bartender_HumanMale_Mesh_LOD1	-1	-1
0.0127477217465639	0.0681174993515015	0.0147034525871277	0.512556552886963	0.578356862068176	5.00024223327637	0.650870800018311	4.47454261779785	0.241881638765335	-0.132034465670586	-0.0155428824946284	-0.961154818534851	Bartender_HumanMale_Mesh_LOD1	Bartender_HumanMale_Mesh_LOD1	-1	-1
0.0097602941095829	0.0681174993515015	0.0147034525871277	0.512556552886963	0.578356862068176	5.00016355514526	0.650821208953857	4.47449493408203	0.242052420973778	-0.13204824924469	-0.0155312139540911	-0.96111011505127	Bartender_HumanMale_Mesh_LOD1	Bartender_HumanMale_Mesh_LOD1	-1	-1
0.0112652787938714	0.0681174993515015	0.0147034525871277	0.512556552886963	0.578356862068176	5.00014305114746	0.650874376296997	4.47431373596191	0.242185413837433	-0.131959870457649	-0.0155691225081682	-0.961088180541992	Bartender_HumanMale_Mesh_LOD1	Bartender_HumanMale_Mesh_LOD1	-1	-1
0.0113920355215669	0.0681174993515015	0.0147034525871277	0.512556552886963	0.578356862068176	5.00016164779663	0.65088677406311	4.4742259979248	0.242395207285881	-0.131964653730392	-0.0155278984457254	-0.961035311222076	Bartender_HumanMale_Mesh_LOD1	Bartender_HumanMale_Mesh_LOD1	-1	-1
0.0108914477750659	0.0677840411663055	0.0148910582065582	0.512223124504089	0.578544497489929	5.00013542175293	0.650952100753784	4.47414302825928	0.242525190114975	-0.13188162446022	-0.0154905496165156	-0.96101450920105	Bartender_HumanMale_Mesh_LOD1	Bartender_HumanMale_Mesh_LOD1	-1	-1
0.0109166232869029	0.0677840411663055	0.0148910582065582	0.512223124504089	0.578544497489929	5.00009393692017	0.650914907455444	4.47414779663086	0.242378875613213	-0.131882861256599	-0.0152514353394508	-0.961055040359497	Bartender_HumanMale_Mesh_LOD1	Bartender_HumanMale_Mesh_LOD1	-1	-1
0.0111780418083072	0.0677840411663055	0.0148910582065582	0.512223124504089	0.578544497489929	5.0001106262207	0.650801181793213	4.47405576705933	0.242208853363991	-0.131972879171371	-0.0153509937226772	-0.961083948612213	Bartender_HumanMale_Mesh_LOD1	Bartender_HumanMale_Mesh_LOD1	-1	-1
0.0112945530563593	0.0671476125717163	0.0154965817928314	0.511586666107178	0.579149961471558	5.00014066696167	0.650842905044556	4.47397184371948	0.241928622126579	-0.131934762001038	-0.0153956124559045	-0.961159110069275	Bartender_HumanMale_Mesh_LOD1	Bartender_HumanMale_Mesh_LOD1	-1	-1
0.0116663342341781	0.0671476125717163	0.0154965817928314	0.511586666107178	0.579149961471558	5.00009107589722	0.650849223136902	4.47381830215454	0.241943955421448	-0.131896957755089	-0.0156595949083567	-0.961156129837036	Bartender_HumanMale_Mesh_LOD1	Bartender_HumanMale_Mesh_LOD1	-1	-1
0.0184681825339794	0.0665220618247986	0.0164801478385925	0.51096111536026	0.580133557319641	5.00005722045898	0.650885462760925	4.47371435165405	0.242132872343063	-0.131816253066063	-0.0157329309731722	-0.961118459701538	Bartender_HumanMale_Mesh_LOD1	Bartender_HumanMale_Mesh_LOD1	-1	-1
0.00666484562680125	0.0665220618247986	0.0164801478385925	0.51096111536026	0.580133557319641	4.99998426437378	0.650877475738525	4.47351789474487	0.242481157183647	-0.131722092628479	-0.0157898012548685	-0.961042642593384	Bartender_HumanMale_Mesh_LOD1	Bartender_HumanMale_Mesh_LOD1	-1	-1
0.00781239243224263	0.0665220618247986	0.0164801478385925	0.51096111536026	0.580133557319641	4.99989366531372	0.650839328765869	4.47338008880615	0.242433294653893	-0.131574615836143	-0.0157932173460722	-0.961074829101563	Bartender_HumanMale_Mesh_LOD1	Bartender_HumanMale_Mesh_LOD1	-1	-1
0.010596071369946	0.0665220618247986	0.0164801478385925	0.51096111536026	0.580133557319641	4.99978876113892	0.650730967521667	4.47314357757568	0.241959050297737	-0.131389290094376	-0.0156557727605104	-0.961221933364868	Bartender_HumanMale_Mesh_LOD1	Bartender_HumanMale_Mesh_LOD1	-1	-1
0.0118045080453157	0.0652883648872375	0.0176715552806854	0.509727418422699	0.581324934959412	4.99967956542969	0.650561332702637	4.47286701202393	0.241390496492386	-0.131234362721443	-0.0156910177320242	-0.961385428905487	Bartender_HumanMale_Mesh_LOD1	Bartender_HumanMale_Mesh_LOD1	-1	-1
0.0106560839340091	0.0652883648872375	0.0176715552806854	0.509727418422699	0.581324934959412	4.99951219558716	0.650396704673767	4.47247505187988	0.24022576212883	-0.131004855036736	-0.0155235566198826	-0.961711168289185	Bartender_HumanMale_Mesh_LOD1	Bartender_HumanMale_Mesh_LOD1	-1	-1
0.0124564440920949	0.0652883648872375	0.0176715552806854	0.509727418422699	0.581324934959412	4.99937391281128	0.650105118751526	4.47210311889648	0.239358395338058	-0.13078673183918	-0.0153530286625028	-0.961959779262543	Bartender_HumanMale_Mesh_LOD1	Bartender_HumanMale_Mesh_LOD1	-1	-1
0.00975034106522799	0.0658210813999176	0.0171939134597778	0.510260105133057	0.580847322940826	4.99911451339722	0.649625897407532	4.47164011001587	0.237757101655006	-0.130594849586487	-0.0150917517021298	-0.962387025356293	Bartender_HumanMale_Mesh_LOD1	Bartender_HumanMale_Mesh_LOD1	-1	-1
0.0114142838865519	0.0658210813999176	0.0171939134597778	0.510260105133057	0.580847322940826	4.99888944625854	0.649036169052124	4.47114610671997	0.235201567411423	-0.130475997924805	-0.0143977170810103	-0.963041543960571	Bartender_HumanMale_Mesh_LOD1	Bartender_HumanMale_Mesh_LOD1	-1	-1
0.0114962514489889	0.0658210813999176	0.0171939134597778	0.510260105133057	0.580847322940826	4.99862194061279	0.648437738418579	4.47068738937378	0.232014238834381	-0.130438566207886	-0.013636939227581	-0.963830530643463	Bartender_HumanMale_Mesh_LOD1	Bartender_HumanMale_Mesh_LOD1	-1	-1
0.0120287481695414	0.0648999810218811	0.0155467689037323	0.509339034557343	0.579200148582459	4.99847364425659	0.647766590118408	4.47027111053467	0.228090420365334	-0.130506098270416	-0.0127927158027887	-0.964769005775452	Bartender_HumanMale_Mesh_LOD1	Bartender_HumanMale_Mesh_LOD1	-1	-1
0.0105243502184749	0.0648999810218811	0.0155467689037323	0.509339034557343	0.579200148582459	4.99822616577148	0.647218346595764	4.46982765197754	0.224106967449188	-0.13035736978054	-0.012601594440639	-0.96572470664978	Bartender_HumanMale_Mesh_LOD1	Bartender_HumanMale_Mesh_LOD1	-1	-1
0.0111604770645499	0.0648999810218811	0.0155467689037323	0.509339034557343	0.579200148582459	4.99801874160767	0.646429896354675	4.4692268371582	0.22124619781971	-0.129979282617569	-0.0125321568921208	-0.966435968875885	Bartender_HumanMale_Mesh_LOD1	Bartender_HumanMale_Mesh_LOD1	-1	-1
0.0108583681285381	0.0648999810218811	0.0155467689037323	0.509339034557343	0.579200148582459	4.99788808822632	0.64583420753479	4.46872043609619	0.217448860406876	-0.129433840513229	-0.0123232714831829	-0.967373311519623	Bartender_HumanMale_Mesh_LOD1	Bartender_HumanMale_Mesh_LOD1	-1	-1
0.0182375032454729	0.061758816242218	0.0176474153995514	0.506197869777679	0.581300854682922	4.99758577346802	0.645014047622681	4.468101978302	0.213009282946587	-0.128650099039078	-0.0120558775961399	-0.968468308448792	Bartender_HumanMale_Mesh_LOD1	Bartender_HumanMale_Mesh_LOD1	-1	-1
0.00617304025217891	0.061758816242218	0.0176474153995514	0.506197869777679	0.581300854682922	4.99736166000366	0.644052028656006	4.46758270263672	0.207476422190666	-0.128101035952568	-0.0118121542036533	-0.969744384288788	Bartender_HumanMale_Mesh_LOD1	Bartender_HumanMale_Mesh_LOD1	-1	-1
0.00907030235975981	0.061758816242218	0.0176474153995514	0.506197869777679	0.581300854682922	4.99715328216553	0.643265247344971	4.46700286865234	0.202421724796295	-0.127554729580879	-0.0115798115730286	-0.970886826515198	Bartender_HumanMale_Mesh_LOD1	Bartender_HumanMale_Mesh_LOD1	-1	-1
0.0105626992881298	0.0588335990905762	0.0195671617984772	0.503272652626038	0.583220601081848	4.99683952331543	0.642336487770081	4.4664249420166	0.198490902781487	-0.127000525593758	-0.0113687431439757	-0.971773147583008	Bartender_HumanMale_Mesh_LOD1	Bartender_HumanMale_Mesh_LOD1	-1	-1
0.010903449729085	0.0588335990905762	0.0195671617984772	0.503272652626038	0.583220601081848	4.99650144577026	0.641298651695251	4.4657769203186	0.193580344319344	-0.126598551869392	-0.0105414753779769	-0.972824931144714	Bartender_HumanMale_Mesh_LOD1	TheTavern_2	-1	10
0.011603394523263	0.0588335990905762	0.0195671617984772	0.503272652626038	0.583220601081848	4.99628210067749	0.640283226966858	4.46509838104248	0.1880913823843	-0.125910714268684	-0.00955680198967457	-0.974000453948975	Bartender_HumanMale_Mesh_LOD1	TheTavern_2	-1	10
0.0114300921559334	0.0162332355976105	0.0766475051641464	0.535796999931335	0.530344665050507	4.99597263336182	0.639165759086609	4.46428918838501	0.181418716907501	-0.125397220253944	-0.00877183023840189	-0.975338876247406	Bartender_HumanMale_Mesh_LOD1	Bartender_HumanMale_Mesh_LOD1	-1	-1
0.0114333117380738	0.0162332355976105	0.0766475051641464	0.535796999931335	0.530344665050507	4.99570322036743	0.637914538383484	4.46352672576904	0.17516154050827	-0.125115171074867	-0.00836968421936035	-0.976521730422974	Bartender_HumanMale_Mesh_LOD1	Bartender_HumanMale_Mesh_LOD1	-1	-1
0.00965285860002041	0.0162332355976105	0.0766475051641464	0.535796999931335	0.530344665050507	4.99533700942993	0.636688470840454	4.46280002593994	0.168712705373764	-0.124603316187859	-0.00780653301626444	-0.977726519107819	Bartender_HumanMale_Mesh_LOD1	Bartender_HumanMale_Mesh_LOD1	-1	-1
0.0116399880498648	0.0162332355976105	0.0766475051641464	0.535796999931335	0.530344665050507	4.99498701095581	0.635522961616516	4.46203517913818	0.162881419062614	-0.123806841671467	-0.00726195750758052	-0.978820085525513	Bartender_HumanMale_Mesh_LOD1	Bartender_HumanMale_Mesh_LOD1	-1	-1
0.0121013484895229	0.0120497643947601	0.0906806141138077	0.53161358833313	0.54437780380249	4.99472618103027	0.634389042854309	4.46119785308838	0.158015906810761	-0.123221822082996	-0.00685489550232887	-0.979694008827209	Bartender_HumanMale_Mesh_LOD1	Bartender_HumanMale_Mesh_LOD1	-1	-1
0.0107087772339582	0.0120497643947601	0.0906806141138077	0.53161358833313	0.54437780380249	4.99461364746094	0.633617043495178	4.46044301986694	0.154220148921013	-0.122727021574974	-0.00661058677360415	-0.980362474918365	Bartender_HumanMale_Mesh_LOD1	Bartender_HumanMale_Mesh_LOD1	-1	-1
0.010675111785531	0.0120497643947601	0.0906806141138077	0.53161358833313	0.54437780380249	4.99445486068726	0.633084177970886	4.45982646942139	0.151414692401886	-0.12241055816412	-0.00634224945679307	-0.980841040611267	Bartender_HumanMale_Mesh_LOD1	Bartender_HumanMale_Mesh_LOD1	-1	-1
0.0113191427662969	0.00788325071334839	0.142515003681183	0.550934553146362	0.496422529220581	4.99440670013428	0.633348226547241	4.45930051803589	0.151754632592201	-0.122369602322578	-0.0070223337970674	-0.980788946151733	Bartender_HumanMale_Mesh_LOD1	Bartender_HumanMale_Mesh_LOD1	-1	-1
0.0178481563925743	0.00788325071334839	0.142515003681183	0.550934553146362	0.496422529220581	4.99418449401855	0.633881807327271	4.45864105224609	0.155389979481697	-0.122337214648724	-0.0077484124340117	-0.980218172073364	Bartender_HumanMale_Mesh_LOD1	Bartender_HumanMale_Mesh_LOD1	-1	-1
0.00730594992637634	0.00788325071334839	0.142515003681183	0.550934553146362	0.496422529220581	4.993971824646	0.63487982749939	4.45791244506836	0.1622074842453	-0.122227557003498	-0.00820839498192072	-0.979122996330261	Bartender_HumanMale_Mesh_LOD1	Bartender_HumanMale_Mesh_LOD1	-1	-1
0.00808405689895153	0.00788325071334839	0.142515003681183	0.550934553146362	0.496422529220581	4.99367380142212	0.635760545730591	4.4573450088501	0.167819365859032	-0.121950753033161	-0.00820844247937202	-0.978211283683777	Bartender_HumanMale_Mesh_LOD1	Bartender_HumanMale_Mesh_LOD1	-1	-1
0.0105366446077824	0.00788325071334839	0.142515003681183	0.550934553146362	0.496422529220581	4.99355411529541	0.636427044868469	4.45672273635864	0.172367975115776	-0.121960893273354	-0.00805576983839273	-0.977420032024384	Bartender_HumanMale_Mesh_LOD1	Bartender_HumanMale_Mesh_LOD1	-1	-1
0.0115644605830312	0.00788325071334839	0.142515003681183	0.550934553146362	0.496422529220581	4.99338579177856	0.636952638626099	4.45603084564209	0.175918459892273	-0.122116848826408	-0.00815530866384506	-0.97676694393158	Bartender_HumanMale_Mesh_LOD1	Bartender_HumanMale_Mesh_LOD1	-1	-1
0.0116057367995381	0.000675708055496216	0.155622869729996	0.559493541717529	0.509530425071716	4.99315452575684	0.637343168258667	4.45528793334961	0.179262951016426	-0.122327536344528	-0.00871024746447802	-0.976127505302429	Bartender_HumanMale_Mesh_LOD1	Bartender_HumanMale_Mesh_LOD1	-1	-1
0.0106543274596334	0.000675708055496216	0.155622869729996	0.559493541717529	0.509530425071716	4.99303817749023	0.637803196907043	4.45458173751831	0.18206150829792	-0.122438177466393	-0.00940698198974133	-0.975589096546173	Bartender_HumanMale_Mesh_LOD1	Bartender_HumanMale_Mesh_LOD1	-1	-1
0.0110322562977672	0.000675708055496216	0.155622869729996	0.559493541717529	0.509530425071716	4.99282073974609	0.638127565383911	4.45383405685425	0.185203641653061	-0.122436232864857	-0.0102313086390495	-0.974989414215088	Bartender_HumanMale_Mesh_LOD1	Bartender_HumanMale_Mesh_LOD1	-1	-1
0.0115744136273861	5.85317611694336E-05	0.151398032903671	0.55887633562088	0.505305528640747	4.99260711669922	0.638273477554321	4.45314502716064	0.187840536236763	-0.12253975123167	-0.0108058592304587	-0.974465608596802	Bartender_HumanMale_Mesh_LOD1	Bartender_HumanMale_Mesh_LOD1	-1	-1
0.0103852972388268	0.000537633895874023	0.149041354656219	0.558280169963837	0.502948880195618	4.99245691299438	0.638327836990356	4.45243167877197	0.189065799117088	-0.122562870383263	-0.0107556749135256	-0.974226295948029	Bartender_HumanMale_Mesh_LOD1	Bartender_HumanMale_Mesh_LOD1	-1	-1
0.0112313209101558	0.000537633895874023	0.149041354656219	0.558280169963837	0.502948880195618	4.99224376678467	0.638340592384338	4.45175743103027	0.189954623579979	-0.122510351240635	-0.0108142159879208	-0.974059283733368	Bartender_HumanMale_Mesh_LOD1	Bartender_HumanMale_Mesh_LOD1	-1	-1
0.0120179168879986	0.000753700733184814	0.146563142538071	0.559571504592896	0.500470638275146	4.99204587936401	0.638388752937317	4.45126390457153	0.190091580152512	-0.122084520757198	-0.0107046086341143	-0.974087297916412	Bartender_HumanMale_Mesh_LOD1	Bartender_HumanMale_Mesh_LOD1	-1	-1
0.0101262209936976	0.000753700733184814	0.146563142538071	0.559571504592896	0.500470638275146	4.991774559021	0.638253211975098	4.45076036453247	0.190885424613953	-0.121680274605751	-0.0106886811554432	-0.973982810974121	Bartender_HumanMale_Mesh_LOD1	Bartender_HumanMale_Mesh_LOD1	-1	-1
0.0117608895525336	0.000753700733184814	0.146563142538071	0.559571504592896	0.500470638275146	4.99163436889648	0.638214707374573	4.45052766799927	0.191423356533051	-0.121344096958637	-0.0105819497257471	-0.973920285701752	Bartender_HumanMale_Mesh_LOD1	Bartender_HumanMale_Mesh_LOD1	-1	-1
0.0185000915080309	0.0449597388505936	0.057546854019165	0.516882836818695	0.585693836212158	4.99152851104736	0.638216495513916	4.45021152496338	0.191524535417557	-0.121081650257111	-0.010281759314239	-0.973936319351196	Bartender_HumanMale_Mesh_LOD1	Bartender_HumanMale_Mesh_LOD1	-1	-1
0.00654043070971966	0.0449597388505936	0.057546854019165	0.516882836818695	0.585693836212158	4.99142456054688	0.638159513473511	4.4498929977417	0.191865786910057	-0.121024906635284	-0.0101629551500082	-0.973877429962158	Bartender_HumanMale_Mesh_LOD1	Bartender_HumanMale_Mesh_LOD1	-1	-1
0.00856415275484324	0.0449597388505936	0.057546854019165	0.516882836818695	0.585693836212158	4.99137496948242	0.638187766075134	4.44975423812866	0.191726133227348	-0.12102484703064	-0.0102647850289941	-0.973903894424438	Bartender_HumanMale_Mesh_LOD1	Bartender_HumanMale_Mesh_LOD1	-1	-1
0.0113908648490906	0.0461296290159225	0.0577194094657898	0.518052697181702	0.585866391658783	4.99130535125732	0.638174176216125	4.44958591461182	0.192139282822609	-0.12118548899889	-0.0103606581687927	-0.97380143404007	Bartender_HumanMale_Mesh_LOD1	Bartender_HumanMale_Mesh_LOD1	-1	-1
0.0108484150841832	0.0461296290159225	0.0577194094657898	0.518052697181702	0.585866391658783	4.99129676818848	0.638239026069641	4.44945907592773	0.192378699779511	-0.121199667453766	-0.0105601726099849	-0.973750293254852	Bartender_HumanMale_Mesh_LOD1	Bartender_HumanMale_Mesh_LOD1	-1	-1
0.0112079009413719	0.046472355723381	0.057911217212677	0.51839542388916	0.58605819940567	4.99122333526611	0.638373970985413	4.44943618774414	0.192830160260201	-0.121213406324387	-0.010845610871911	-0.973656177520752	Bartender_HumanMale_Mesh_LOD1	Bartender_HumanMale_Mesh_LOD1	-1	-1
0.0116063226014376	0.046472355723381	0.057911217212677	0.51839542388916	0.58605819940567	4.99113845825195	0.638521671295166	4.44934368133545	0.193401649594307	-0.12126599997282	-0.0110380565747619	-0.973534047603607	Bartender_HumanMale_Mesh_LOD1	Bartender_HumanMale_Mesh_LOD1	-1	-1
0.0102614676579833	0.046472355723381	0.057911217212677	0.51839542388916	0.58605819940567	4.99112939834595	0.638656258583069	4.4493350982666	0.194107905030251	-0.121237732470036	-0.011019729077816	-0.973397254943848	Bartender_HumanMale_Mesh_LOD1	Bartender_HumanMale_Mesh_LOD1	-1	-1
0.0119002349674702	0.046472355723381	0.057911217212677	0.51839542388916	0.58605819940567	4.99106025695801	0.638808846473694	4.44926977157593	0.194712907075882	-0.121329911053181	-0.0110131204128265	-0.973264992237091	Bartender_HumanMale_Mesh_LOD1	Bartender_HumanMale_Mesh_LOD1	-1	-1
0.0115322591736913	0.0461830347776413	0.0576460063457489	0.51810610294342	0.585793018341064	4.99100112915039	0.638964653015137	4.44929790496826	0.195482611656189	-0.12156667560339	-0.0111614428460598	-0.973079442977905	Bartender_HumanMale_Mesh_LOD1	Bartender_HumanMale_Mesh_LOD1	-1	-1
0.010120659135282	0.0461830347776413	0.0576460063457489	0.51810610294342	0.585793018341064	4.99105453491211	0.639098882675171	4.44929647445679	0.196246340870857	-0.121556304395199	-0.0111910356208682	-0.972926616668701	Bartender_HumanMale_Mesh_LOD1	Bartender_HumanMale_Mesh_LOD1	-1	-1
0.0109344804659486	0.0461830347776413	0.0576460063457489	0.51810610294342	0.585793018341064	4.99100685119629	0.63916003704071	4.44933986663818	0.196719586849213	-0.121644005179405	-0.0112352706491947	-0.972819566726685	Bartender_HumanMale_Mesh_LOD1	Bartender_HumanMale_Mesh_LOD1	-1	-1
0.0121218403801322	0.0461830347776413	0.0576460063457489	0.51810610294342	0.585793018341064	4.99102926254272	0.639227867126465	4.44932174682617	0.197160094976425	-0.121786467730999	-0.0113038858398795	-0.972711801528931	Bartender_HumanMale_Mesh_LOD1	Bartender_HumanMale_Mesh_LOD1	-1	-1
0.0112825501710176	0.0365033000707626	0.0568224191665649	0.508426368236542	0.584969401359558	4.99096012115479	0.639284253120422	4.44930648803711	0.198008000850677	-0.121784515678883	-0.0115358950570226	-0.972537040710449	Bartender_HumanMale_Mesh_LOD1	Bartender_HumanMale_Mesh_LOD1	-1	-1
0.0165949296206236	0.0365033000707626	0.0568224191665649	0.508426368236542	0.584969401359558	4.99091625213623	0.639443635940552	4.44931983947754	0.19908444583416	-0.121749266982079	-0.0117501802742481	-0.97231912612915	Bartender_HumanMale_Mesh_LOD1	Bartender_HumanMale_Mesh_LOD1	-1	-1
0.00551056629046798	0.0365033000707626	0.0568224191665649	0.508426368236542	0.584969401359558	4.9908127784729	0.639634132385254	4.44932508468628	0.19999024271965	-0.121578209102154	-0.0117905484512448	-0.972154140472412	Bartender_HumanMale_Mesh_LOD1	Bartender_HumanMale_Mesh_LOD1	-1	-1
0.0108510488644242	0.0365033000707626	0.0568224191665649	0.508426368236542	0.584969401359558	4.99072027206421	0.639736652374268	4.44936084747314	0.200812414288521	-0.121556304395199	-0.0118321571499109	-0.971986830234528	Bartender_HumanMale_Mesh_LOD1	Bartender_HumanMale_Mesh_LOD1	-1	-1
0.0110023962333798	0.0352085083723068	0.058633416891098	0.509596049785614	0.583908796310425	4.99066257476807	0.639825701713562	4.44943618774414	0.201835170388222	-0.121334947645664	-0.0120072318241	-0.97180050611496	Bartender_HumanMale_Mesh_LOD1	Bartender_HumanMale_Mesh_LOD1	-1	-1
0.0108317285776138	0.0352085083723068	0.058633416891098	0.509596049785614	0.583908796310425	4.99064445495605	0.639920830726624	4.44944286346436	0.202287688851357	-0.121270053088665	-0.0121954036876559	-0.971712172031403	Bartender_HumanMale_Mesh_LOD1	Bartender_HumanMale_Mesh_LOD1	-1	-1
0.0113232415169477	0.0338501185178757	0.0578888654708862	0.508237659931183	0.583164274692535	4.99052906036377	0.639854311943054	4.44942283630371	0.202915534377098	-0.121375545859337	-0.0122717693448067	-0.971567153930664	Bartender_HumanMale_Mesh_LOD1	Bartender_HumanMale_Mesh_LOD1	-1	-1
0.0109883453696966	0.0338501185178757	0.0578888654708862	0.508237659931183	0.583164274692535	4.99052429199219	0.639869093894959	4.44935846328735	0.203499436378479	-0.12164493650198	-0.0124693550169468	-0.971408784389496	Bartender_HumanMale_Mesh_LOD1	Bartender_HumanMale_Mesh_LOD1	-1	-1
0.0117597188800573	0.0338501185178757	0.0578888654708862	0.508237659931183	0.583164274692535	4.99048519134521	0.639954209327698	4.44933032989502	0.204021230340004	-0.121783159673214	-0.0126896277070045	-0.971279144287109	Bartender_HumanMale_Mesh_LOD1	Bartender_HumanMale_Mesh_LOD1	-1	-1
0.0102403908967972	0.0338501185178757	0.0578888654708862	0.508237659931183	0.583164274692535	4.99043989181519	0.640023231506348	4.44930839538574	0.204667940735817	-0.122035890817642	-0.0129216350615025	-0.971108317375183	Bartender_HumanMale_Mesh_LOD1	Bartender_HumanMale_Mesh_LOD1	-1	-1
0.0131985433399677	0.0155514180660248	0.0846128314733505	0.527807354927063	0.557034075260162	4.99036550521851	0.640186905860901	4.44917774200439	0.205481797456741	-0.122040964663029	-0.0131863513961434	-0.970932245254517	Bartender_HumanMale_Mesh_LOD1	Bartender_HumanMale_Mesh_LOD1	-1	-1
0.00944384094327688	0.0155514180660248	0.0846128314733505	0.527807354927063	0.557034075260162	4.99029111862183	0.640395760536194	4.44918537139893	0.206274420022964	-0.121872365474701	-0.0132802315056324	-0.97078400850296	Bartender_HumanMale_Mesh_LOD1	Bartender_HumanMale_Mesh_LOD1	-1	-1
0.011169845238328	0.0153704583644867	0.0839496701955795	0.527626395225525	0.556370913982391	4.99026393890381	0.640542030334473	4.4491081237793	0.20719176530838	-0.121787883341312	-0.0133668733760715	-0.970598101615906	Bartender_HumanMale_Mesh_LOD1	Bartender_HumanMale_Mesh_LOD1	-1	-1
0.0112644005566835	0.0153704583644867	0.0839496701955795	0.527626395225525	0.556370913982391	4.99021482467651	0.64065420627594	4.44890880584717	0.208231329917908	-0.1216996088624	-0.0134587427601218	-0.970385372638702	Bartender_HumanMale_Mesh_LOD1	Bartender_HumanMale_Mesh_LOD1	-1	-1
0.011587293818593	0.0163148045539856	0.0828135162591934	0.528570711612701	0.555234789848328	4.99016189575195	0.640690445899963	4.44880390167236	0.208777666091919	-0.121649697422981	-0.0133984917774796	-0.970275104045868	Bartender_HumanMale_Mesh_LOD1	Bartender_HumanMale_Mesh_LOD1	-1	-1
0.0169702246785164	0.0163148045539856	0.0828135162591934	0.528570711612701	0.555234789848328	4.99020481109619	0.640707969665527	4.44868469238281	0.208807066082954	-0.121588155627251	-0.0132392169907689	-0.970278680324554	Bartender_HumanMale_Mesh_LOD1	Bartender_HumanMale_Mesh_LOD1	-1	-1
0.00485453242436051	0.0163148045539856	0.0828135162591934	0.528570711612701	0.555234789848328	4.99014472961426	0.640684843063354	4.4485912322998	0.208867594599724	-0.121561661362648	-0.0132456347346306	-0.970268905162811	Bartender_HumanMale_Mesh_LOD1	Bartender_HumanMale_Mesh_LOD1	-1	-1
0.0115129379555583	0.0163148045539856	0.0828135162591934	0.528570711612701	0.555234789848328	4.99010467529297	0.640653133392334	4.4485502243042	0.208820357918739	-0.121363662183285	-0.0132707646116614	-0.970303475856781	Bartender_HumanMale_Mesh_LOD1	Bartender_HumanMale_Mesh_LOD1	-1	-1
0.0113823749125004	0.0160363614559174	0.0820512026548386	0.528292298316956	0.55447244644165	4.99008989334106	0.640633225440979	4.4484429359436	0.2088892608881	-0.121140629053116	-0.013372553512454	-0.970315158367157	Bartender_HumanMale_Mesh_LOD1	Bartender_HumanMale_Mesh_LOD1	-1	-1
0.0109046213328838	0.0160363614559174	0.0820512026548386	0.528292298316956	0.55447244644165	4.99006509780884	0.640536069869995	4.44834613800049	0.209041222929955	-0.121024020016193	-0.0131961591541767	-0.970299363136292	Bartender_HumanMale_Mesh_LOD1	Bartender_HumanMale_Mesh_LOD1	-1	-1
0.0106546198949218	0.0160363614559174	0.0820512026548386	0.528292298316956	0.55447244644165	4.99004602432251	0.640475630760193	4.44824886322021	0.208941847085953	-0.12079718708992	-0.0128883365541697	-0.970353186130524	Bartender_HumanMale_Mesh_LOD1	Bartender_HumanMale_Mesh_LOD1	-1	-1
0.0115059120580554	0.021475076675415	0.0713834762573242	0.524088382720947	0.566246092319489	4.99016141891479	0.640422940254211	4.44818782806396	0.208574742078781	-0.120620273053646	-0.0125186024233699	-0.970458984375	Bartender_HumanMale_Mesh_LOD1	Bartender_HumanMale_Mesh_LOD1	-1	-1
0.0107658617198467	0.021475076675415	0.0713834762573242	0.524088382720947	0.566246092319489	4.99011707305908	0.64033567905426	4.44814014434814	0.207868337631226	-0.120732471346855	-0.012459509074688	-0.970597386360168	Bartender_HumanMale_Mesh_LOD1	Bartender_HumanMale_Mesh_LOD1	-1	-1
0.0122450841590762	0.021475076675415	0.0713834762573242	0.524088382720947	0.566246092319489	4.99015617370605	0.640272259712219	4.44805335998535	0.207456067204475	-0.120677255094051	-0.0127069363370538	-0.970689177513123	Bartender_HumanMale_Mesh_LOD1	Bartender_HumanMale_Mesh_LOD1	-1	-1
0.010716388002038	0.0231538116931915	0.0718090832233429	0.525767087936401	0.56667172908783	4.99021053314209	0.640296816825867	4.44803714752197	0.207177743315697	-0.120687037706375	-0.0129143176600337	-0.970744729042053	Bartender_HumanMale_Mesh_LOD1	Bartender_HumanMale_Mesh_LOD1	-1	-1
0.0107450764626265	0.0231538116931915	0.0718090832233429	0.525767087936401	0.56667172908783	4.99017477035522	0.64032256603241	4.44801902770996	0.207351967692375	-0.120688170194626	-0.0130724953487515	-0.970705211162567	Bartender_HumanMale_Mesh_LOD1	Bartender_HumanMale_Mesh_LOD1	-1	-1
0.0112684983760118	0.0231538116931915	0.0718090832233429	0.525767087936401	0.56667172908783	4.99023056030273	0.640317440032959	4.44796466827393	0.207323923707008	-0.120524868369102	-0.0128935454413295	-0.970733880996704	Bartender_HumanMale_Mesh_LOD1	Bartender_HumanMale_Mesh_LOD1	-1	-1
0.0116713112220168	0.0231538116931915	0.0718090832233429	0.525767087936401	0.56667172908783	4.99015235900879	0.640148043632507	4.44793701171875	0.207353159785271	-0.12062282115221	-0.0126062454655766	-0.970719277858734	Bartender_HumanMale_Mesh_LOD1	Bartender_HumanMale_Mesh_LOD1	-1	-1
0.0114207239821553	0.0257535874843597	0.0732881426811218	0.528366923332214	0.568150758743286	4.99022436141968	0.640018224716187	4.44775772094727	0.206714749336243	-0.120803065598011	-0.0123605048283935	-0.970836162567139	Bartender_HumanMale_Mesh_LOD1	Bartender_HumanMale_Mesh_LOD1	-1	-1
0.0186116266995668	0.0108341872692108	0.00797194242477417	0.54433286190033	0.649255156517029	4.99032115936279	0.639863848686218	4.44769382476807	0.206134855747223	-0.120894476771355	-0.0121429320424795	-0.970950841903687	Bartender_HumanMale_Mesh_LOD1	Bartender_HumanMale_Mesh_LOD1	-1	-1
0.00660512642934918	0.0108341872692108	0.00797194242477417	0.54433286190033	0.649255156517029	4.99040794372559	0.639752745628357	4.44760847091675	0.205706924200058	-0.120935149490833	-0.0120856864377856	-0.971037209033966	Bartender_HumanMale_Mesh_LOD1	Bartender_HumanMale_Mesh_LOD1	-1	-1
0.00855537038296461	0.0108341872692108	0.00797194242477417	0.54433286190033	0.649255156517029	4.99043273925781	0.639700770378113	4.44742774963379	0.205239579081535	-0.121046766638756	-0.0122083518654108	-0.971120715141296	Bartender_HumanMale_Mesh_LOD1	Bartender_HumanMale_Mesh_LOD1	-1	-1
0.0111885806545615	0.0108341872692108	0.00797194242477417	0.54433286190033	0.649255156517029	4.99032068252563	0.639737963676453	4.447340965271	0.205272004008293	-0.120973721146584	-0.0124806612730026	-0.971119463443756	Bartender_HumanMale_Mesh_LOD1	Bartender_HumanMale_Mesh_LOD1	-1	-1
0.0114874690771103	0.0108341872692108	0.00797194242477417	0.54433286190033	0.649255156517029	4.99039936065674	0.639827966690063	4.44722366333008	0.205363720655441	-0.120699316263199	-0.012565465644002	-0.97113311290741	Bartender_HumanMale_Mesh_LOD1	Bartender_HumanMale_Mesh_LOD1	-1	-1
0.0107787419110537	0.0100962817668915	0.0067080557346344	0.54359495639801	0.650519013404846	4.99029302597046	0.639925241470337	4.44722318649292	0.20560847222805	-0.120358392596245	-0.0126641718670726	-0.97112238407135	Bartender_HumanMale_Mesh_LOD1	Bartender_HumanMale_Mesh_LOD1	-1	-1
0.0112752318382263	0.0100962817668915	0.0067080557346344	0.54359495639801	0.650519013404846	4.99025440216064	0.639960646629334	4.44711780548096	0.205956667661667	-0.120156660676003	-0.0127114513888955	-0.971072971820831	Bartender_HumanMale_Mesh_LOD1	Bartender_HumanMale_Mesh_LOD1	-1	-1
0.0109898084774613	0.0100962817668915	0.0067080557346344	0.54359495639801	0.650519013404846	4.99023246765137	0.639951109886169	4.44700193405151	0.206305637955666	-0.12010283768177	-0.0126535901799798	-0.971006274223328	Bartender_HumanMale_Mesh_LOD1	Bartender_HumanMale_Mesh_LOD1	-1	-1
0.0112939672544599	0.0108218193054199	0.00721395015716553	0.544320464134216	0.650013148784637	4.99018144607544	0.639983892440796	4.44690418243408	0.206514745950699	-0.120063409209251	-0.0127417193725705	-0.970965564250946	Bartender_HumanMale_Mesh_LOD1	Bartender_HumanMale_Mesh_LOD1	-1	-1
0.0114953732118011	0.0108218193054199	0.00721395015716553	0.544320464134216	0.650013148784637	4.99016380310059	0.64000678062439	4.44681835174561	0.206924229860306	-0.120030142366886	-0.0126715181395411	-0.970883429050446	Bartender_HumanMale_Mesh_LOD1	Bartender_HumanMale_Mesh_LOD1	-1	-1
0.0108645157888532	0.0108218193054199	0.00721395015716553	0.544320464134216	0.650013148784637	4.99012231826782	0.639952659606934	4.44669818878174	0.2071892619133	-0.119962528347969	-0.0126090766862035	-0.970836043357849	Bartender_HumanMale_Mesh_LOD1	Bartender_HumanMale_Mesh_LOD1	-1	-1
0.0112032173201442	0.0114981234073639	0.00738981366157532	0.544996738433838	0.649837255477905	4.99008941650391	0.639985680580139	4.44659233093262	0.207446530461311	-0.120185479521751	-0.0124568417668343	-0.970755517482758	Bartender_HumanMale_Mesh_LOD1	Bartender_HumanMale_Mesh_LOD1	-1	-1
0.0110026895999908	0.0114981234073639	0.00738981366157532	0.544996738433838	0.649837255477905	4.99010848999023	0.639987111091614	4.44649219512939	0.207767158746719	-0.120340652763844	-0.0123510975390673	-0.970669031143188	Bartender_HumanMale_Mesh_LOD1	Bartender_HumanMale_Mesh_LOD1	-1	-1
0.0114069655537605	0.0114981234073639	0.00738981366157532	0.544996738433838	0.649837255477905	4.99013137817383	0.640034317970276	4.44644689559937	0.208044782280922	-0.120492935180664	-0.0124992886558175	-0.970588803291321	Bartender_HumanMale_Mesh_LOD1	Bartender_HumanMale_Mesh_LOD1	-1	-1
0.0180194098502398	0.0126907825469971	0.0082150399684906	0.546189427375793	0.649012088775635	4.99020767211914	0.640008926391602	4.44634437561035	0.208625674247742	-0.120640531182289	-0.0124898673966527	-0.970445871353149	Bartender_HumanMale_Mesh_LOD1	Bartender_HumanMale_Mesh_LOD1	-1	-1
0.00616220850497484	0.0126907825469971	0.0082150399684906	0.546189427375793	0.649012088775635	4.99022626876831	0.640055418014526	4.44627952575684	0.208956032991409	-0.120707705616951	-0.0124723138287663	-0.970366656780243	Bartender_HumanMale_Mesh_LOD1	Bartender_HumanMale_Mesh_LOD1	-1	-1
0.00917744636535645	0.0126907825469971	0.0082150399684906	0.546189427375793	0.649012088775635	4.99023246765137	0.64015007019043	4.44619989395142	0.209398478269577	-0.120818056166172	-0.0124214990064502	-0.970258176326752	Bartender_HumanMale_Mesh_LOD1	Bartender_HumanMale_Mesh_LOD1	-1	-1
0.0112594235688448	0.0126907825469971	0.0082150399684906	0.546189427375793	0.649012088775635	4.99031448364258	0.640136361122131	4.44610738754272	0.209947675466537	-0.120903454720974	-0.0122648384422064	-0.970130920410156	Bartender_HumanMale_Mesh_LOD1	Bartender_HumanMale_Mesh_LOD1	-1	-1
0.0111083686351776	0.0130480229854584	0.00897684693336487	0.546546697616577	0.648250222206116	4.99038505554199	0.640106558799744	4.44608974456787	0.210152551531792	-0.120868898928165	-0.0121506797149777	-0.970092236995697	Bartender_HumanMale_Mesh_LOD1	Bartender_HumanMale_Mesh_LOD1	-1	-1
0.0116789219900966	0.0130480229854584	0.00897684693336487	0.546546697616577	0.648250222206116	4.99042558670044	0.640109181404114	4.44606733322144	0.210306867957115	-0.120918706059456	-0.0122706601396203	-0.970051109790802	Bartender_HumanMale_Mesh_LOD1	Bartender_HumanMale_Mesh_LOD1	-1	-1
0.0105261066928506	0.0132536590099335	0.00895684957504272	0.546752333641052	0.64827024936676	4.99045610427856	0.640065908432007	4.4460391998291	0.210573866963387	-0.121086858212948	-0.0121963368728757	-0.969973146915436	Bartender_HumanMale_Mesh_LOD1	Bartender_HumanMale_Mesh_LOD1	-1	-1
0.0137462625280023	0.0132536590099335	0.00895684957504272	0.546752333641052	0.64827024936676	4.99046945571899	0.640101552009583	4.44602870941162	0.210790172219276	-0.120934456586838	-0.0119740404188633	-0.969947993755341	Bartender_HumanMale_Mesh_LOD1	Bartender_HumanMale_Mesh_LOD1	-1	-1
0.00868066400289536	0.0132536590099335	0.00895684957504272	0.546752333641052	0.64827024936676	4.99051094055176	0.640110373497009	4.44602346420288	0.210849598050117	-0.121049866080284	-0.0117641780525446	-0.969923198223114	Bartender_HumanMale_Mesh_LOD1	Bartender_HumanMale_Mesh_LOD1	-1	-1
0.0100483521819115	0.0132536590099335	0.00895684957504272	0.546752333641052	0.64827024936676	4.99059343338013	0.640121459960938	4.44603586196899	0.211015924811363	-0.121043495833874	-0.0116142937913537	-0.969889640808105	Bartender_HumanMale_Mesh_LOD1	Bartender_HumanMale_Mesh_LOD1	-1	-1
0.0118621783331037	0.0189008712768555	0.0107131600379944	0.552399516105652	0.646513938903809	4.99062061309814	0.640220046043396	4.44605875015259	0.211430341005325	-0.121230587363243	-0.0117610236629844	-0.96977424621582	Bartender_HumanMale_Mesh_LOD1	Bartender_HumanMale_Mesh_LOD1	-1	-1
0.0105205439031124	0.0189008712768555	0.0107131600379944	0.552399516105652	0.646513938903809	4.99063110351563	0.640340924263	4.44606018066406	0.212284967303276	-0.121388331055641	-0.0120648676529527	-0.969564020633698	Bartender_HumanMale_Mesh_LOD1	Bartender_HumanMale_Mesh_LOD1	-1	-1
0.0111449621617794	0.0189008712768555	0.0107131600379944	0.552399516105652	0.646513938903809	4.99060297012329	0.640505313873291	4.44600105285645	0.213109046220779	-0.121536016464233	-0.0121993450447917	-0.96936309337616	Bartender_HumanMale_Mesh_LOD1	Bartender_HumanMale_Mesh_LOD1	-1	-1
0.0114880548790097	0.00704202055931091	0.136585667729378	0.571500182151794	0.496750295162201	4.99061584472656	0.64056658744812	4.44601202011108	0.213609799742699	-0.121665261685848	-0.0121902665123343	-0.969236731529236	Bartender_HumanMale_Mesh_LOD1	Bartender_HumanMale_Mesh_LOD1	-1	-1
0.0181160159409046	0.00833061337471008	0.135782048106194	0.572788834571838	0.495946645736694	4.99072599411011	0.640595197677612	4.44603633880615	0.213830396533012	-0.121820710599422	-0.0119789205491543	-0.969171226024628	Bartender_HumanMale_Mesh_LOD1	Bartender_HumanMale_Mesh_LOD1	-1	-1
0.00495143001899123	0.00833061337471008	0.135782048106194	0.572788834571838	0.495946645736694	4.99071645736694	0.640638589859009	4.44600868225098	0.213705509901047	-0.122075378894806	-0.0119016254320741	-0.969167649745941	Bartender_HumanMale_Mesh_LOD1	Bartender_HumanMale_Mesh_LOD1	-1	-1
0.0101098278537393	0.00833061337471008	0.135782048106194	0.572788834571838	0.495946645736694	4.99078845977783	0.640623569488525	4.4460654258728	0.213723406195641	-0.122179239988327	-0.0119772180914879	-0.969149649143219	Bartender_HumanMale_Mesh_LOD1	Bartender_HumanMale_Mesh_LOD1	-1	-1
0.0118112415075302	0.00833061337471008	0.135782048106194	0.572788834571838	0.495946645736694	4.9907603263855	0.640629649162292	4.44609308242798	0.214015692472458	-0.122201971709728	-0.012029342353344	-0.969081699848175	Bartender_HumanMale_Mesh_LOD1	Bartender_HumanMale_Mesh_LOD1	-1	-1
0.0108326068148017	0.00946390628814697	0.135417774319649	0.573922097682953	0.495582401752472	4.99077653884888	0.640729665756226	4.44605207443237	0.214478969573975	-0.122160203754902	-0.0119675705209374	-0.968985259532928	Bartender_HumanMale_Mesh_LOD1	Bartender_HumanMale_Mesh_LOD1	-1	-1
0.0111306170001626	0.00946390628814697	0.135417774319649	0.573922097682953	0.495582401752472	4.99076080322266	0.640823245048523	4.44606685638428	0.214945092797279	-0.122289068996906	-0.0120005067437887	-0.96886533498764	Bartender_HumanMale_Mesh_LOD1	Bartender_HumanMale_Mesh_LOD1	-1	-1
0.0110799735412002	0.00946390628814697	0.135417774319649	0.573922097682953	0.495582401752472	4.99081039428711	0.640922069549561	4.44607639312744	0.215235337615013	-0.122287303209305	-0.0119895795360208	-0.968801259994507	Bartender_HumanMale_Mesh_LOD1	Bartender_HumanMale_Mesh_LOD1	-1	-1
0.0114687336608768	0.0106390118598938	0.134489223361015	0.5750972032547	0.494653820991516	4.99082851409912	0.640971183776855	4.44604158401489	0.215543061494827	-0.122347287833691	-0.0119716366752982	-0.968725442886353	Bartender_HumanMale_Mesh_LOD1	Bartender_HumanMale_Mesh_LOD1	-1	-1
0.0107319038361311	0.0106390118598938	0.134489223361015	0.5750972032547	0.494653820991516	4.99086284637451	0.640976786613464	4.44604969024658	0.215709641575813	-0.122444063425064	-0.0119702331721783	-0.968676149845123	Bartender_HumanMale_Mesh_LOD1	Bartender_HumanMale_Mesh_LOD1	-1	-1
0.0122125903144479	0.0106390118598938	0.134489223361015	0.5750972032547	0.494653820991516	4.99082851409912	0.640939116477966	4.44604015350342	0.215762823820114	-0.122404113411903	-0.0118613177910447	-0.968670785427094	Bartender_HumanMale_Mesh_LOD1	Bartender_HumanMale_Mesh_LOD1	-1	-1
0.0100606475025415	0.0106390118598938	0.134489223361015	0.5750972032547	0.494653820991516	4.99081516265869	0.640948176383972	4.44621086120605	0.215787261724472	-0.122546397149563	-0.0118003115057945	-0.968648016452789	Bartender_HumanMale_Mesh_LOD1	Bartender_HumanMale_Mesh_LOD1	-1	-1
0.0113686164841056	0.0106523036956787	0.135016068816185	0.575110495090485	0.495180666446686	4.99087190628052	0.640949249267578	4.44621086120605	0.215845733880997	-0.122531212866306	-0.0117808999493718	-0.96863716840744	Bartender_HumanMale_Mesh_LOD1	Bartender_HumanMale_Mesh_LOD1	-1	-1
0.0112240016460419	0.0106523036956787	0.135016068816185	0.575110495090485	0.495180666446686	4.99084329605103	0.641000151634216	4.44613838195801	0.216035008430481	-0.122621648013592	-0.0116650834679604	-0.968584954738617	Bartender_HumanMale_Mesh_LOD1	Bartender_HumanMale_Mesh_LOD1	-1	-1
0.0114233586937189	0.0106523036956787	0.135016068816185	0.575110495090485	0.495180666446686	4.99086666107178	0.641006112098694	4.44612073898315	0.216249197721481	-0.122731395065784	-0.011607076972723	-0.968523919582367	Bartender_HumanMale_Mesh_LOD1	Bartender_HumanMale_Mesh_LOD1	-1	-1
0.0175334587693214	0.0256835520267487	0.00774669647216797	0.560255527496338	0.637166023254395	4.99082040786743	0.641074419021606	4.44611644744873	0.216515153646469	-0.122838698327541	-0.0116941351443529	-0.968449890613556	Bartender_HumanMale_Mesh_LOD1	Bartender_HumanMale_Mesh_LOD1	-1	-1
0.00642216298729181	0.0256835520267487	0.00774669647216797	0.560255527496338	0.637166023254395	4.99087476730347	0.641133069992065	4.44610977172852	0.21685416996479	-0.122727259993553	-0.0117356004193425	-0.968387603759766	Bartender_HumanMale_Mesh_LOD1	Bartender_HumanMale_Mesh_LOD1	-1	-1
0.0090114613994956	0.0256835520267487	0.00774669647216797	0.560255527496338	0.637166023254395	4.99084997177124	0.641188144683838	4.44610118865967	0.21711590886116	-0.122813388705254	-0.0115626538172364	-0.96832013130188	Bartender_HumanMale_Mesh_LOD1	Bartender_HumanMale_Mesh_LOD1	-1	-1
0.0117629393935204	0.0269041061401367	0.00860565900802612	0.561476051807404	0.636307060718536	4.99087858200073	0.641198873519897	4.44609642028809	0.217285826802254	-0.122898615896702	-0.0114084035158157	-0.968273043632507	Bartender_HumanMale_Mesh_LOD1	Bartender_HumanMale_Mesh_LOD1	-1	-1
0.0108826654031873	0.0269041061401367	0.00860565900802612	0.561476051807404	0.636307060718536	4.99089384078979	0.641213774681091	4.44608449935913	0.217358827590942	-0.122900404036045	-0.0112708443775773	-0.968258023262024	Bartender_HumanMale_Mesh_LOD1	Bartender_HumanMale_Mesh_LOD1	-1	-1
0.0109207220375538	0.0269041061401367	0.00860565900802612	0.561476051807404	0.636307060718536	4.99093818664551	0.641221642494202	4.44604921340942	0.217558711767197	-0.122954539954662	-0.0111888330429792	-0.968207240104675	Bartender_HumanMale_Mesh_LOD1	Bartender_HumanMale_Mesh_LOD1	-1	-1
0.0117974821478128	0.0273826420307159	0.00830480456352234	0.561954617500305	0.636607885360718	4.99094533920288	0.641260385513306	4.44604682922363	0.217702060937881	-0.123036421835423	-0.0112179713323712	-0.968164265155792	Bartender_HumanMale_Mesh_LOD1	Bartender_HumanMale_Mesh_LOD1	-1	-1
0.011220196262002	0.0273826420307159	0.00830480456352234	0.561954617500305	0.636607885360718	4.99094295501709	0.641335725784302	4.44611024856567	0.217886433005333	-0.123070247471333	-0.0111127160489559	-0.9681196808815	Bartender_HumanMale_Mesh_LOD1	Bartender_HumanMale_Mesh_LOD1	-1	-1
0.0106209544464946	0.0273826420307159	0.00830480456352234	0.561954617500305	0.636607885360718	4.99104785919189	0.641324877738953	4.44604110717773	0.218184232711792	-0.123112604022026	-0.0109726553782821	-0.968048870563507	Bartender_HumanMale_Mesh_LOD1	Bartender_HumanMale_Mesh_LOD1	-1	-1
0.0111458403989673	0.0273826420307159	0.00830480456352234	0.561954617500305	0.636607885360718	4.99106025695801	0.641318559646606	4.44601964950562	0.218303099274635	-0.123221136629581	-0.0108360070735216	-0.968009769916534	Bartender_HumanMale_Mesh_LOD1	Bartender_HumanMale_Mesh_LOD1	-1	-1
0.0119400480762124	0.0288143157958984	0.00918596982955933	0.563386261463165	0.635726749897003	4.99103450775146	0.641334772109985	4.44600582122803	0.218298211693764	-0.123397007584572	-0.0107623031362891	-0.967989325523376	Bartender_HumanMale_Mesh_LOD1	Bartender_HumanMale_Mesh_LOD1	-1	-1
0.0103759299963713	0.0288143157958984	0.00918596982955933	0.563386261463165	0.635726749897003	4.99102306365967	0.641348361968994	4.4460334777832	0.218292593955994	-0.123578280210495	-0.010850259102881	-0.967966437339783	Bartender_HumanMale_Mesh_LOD1	Bartender_HumanMale_Mesh_LOD1	-1	-1
0.0118782790377736	0.0275857150554657	0.00965425372123718	0.56215763092041	0.635258436203003	4.99105501174927	0.641374230384827	4.44603443145752	0.218297570943832	-0.123756773769856	-0.0108592370525002	-0.967942416667938	Bartender_HumanMale_Mesh_LOD1	Bartender_HumanMale_Mesh_LOD1	-1	-1
0.0134350787848234	0.0275857150554657	0.00965425372123718	0.56215763092041	0.635258436203003	4.99100637435913	0.641400933265686	4.445969581604	0.218611627817154	-0.123916819691658	-0.0107214106246829	-0.967852592468262	Bartender_HumanMale_Mesh_LOD1	Bartender_HumanMale_Mesh_LOD1	-1	-1
0.0148932244628668	0.0275857150554657	0.00965425372123718	0.56215763092041	0.635258436203003	4.99103403091431	0.641396641731262	4.44597148895264	0.218795046210289	-0.124092988669872	-0.0106347696855664	-0.967789530754089	Bartender_HumanMale_Mesh_LOD1	Bartender_HumanMale_Mesh_LOD1	-1	-1
0.00559546099975705	0.0275857150554657	0.00965425372123718	0.56215763092041	0.635258436203003	4.99102449417114	0.641453504562378	4.44595766067505	0.218889340758324	-0.124158926308155	-0.0104231908917427	-0.967762053012848	Bartender_HumanMale_Mesh_LOD1	Bartender_HumanMale_Mesh_LOD1	-1	-1
0.0118940873071551	0.0289651453495026	0.0101392269134521	0.563537120819092	0.63477349281311	4.99106788635254	0.64153254032135	4.44604110717773	0.219030976295471	-0.124326638877392	-0.0105062946677208	-0.967707574367523	Bartender_HumanMale_Mesh_LOD1	Bartender_HumanMale_Mesh_LOD1	-1	-1
0.0102837160229683	0.0289651453495026	0.0101392269134521	0.563537120819092	0.63477349281311	4.99112844467163	0.641505718231201	4.44597816467285	0.219316706061363	-0.124448329210281	-0.0105201490223408	-0.967627048492432	Bartender_HumanMale_Mesh_LOD1	Bartender_HumanMale_Mesh_LOD1	-1	-1
0.0116443792358041	0.0289651453495026	0.0101392269134521	0.563537120819092	0.63477349281311	4.99115133285522	0.641494870185852	4.44598150253296	0.219548374414444	-0.124283224344254	-0.0105423890054226	-0.967595517635345	Bartender_HumanMale_Mesh_LOD1	Bartender_HumanMale_Mesh_LOD1	-1	-1
0.0111273974180222	0.0289651453495026	0.0101392269134521	0.563537120819092	0.63477349281311	4.99104118347168	0.641451120376587	4.44599056243896	0.219480916857719	-0.124272249639034	-0.0105787394568324	-0.967611849308014	Bartender_HumanMale_Mesh_LOD1	Bartender_HumanMale_Mesh_LOD1	-1	-1
0.0111795049160719	0.0289076566696167	0.0103364586830139	0.563479602336884	0.634576261043549	4.99103403091431	0.641426682472229	4.44602727890015	0.219445750117302	-0.124220907688141	-0.010484260506928	-0.967627465724945	Bartender_HumanMale_Mesh_LOD1	Bartender_HumanMale_Mesh_LOD1	-1	-1
0.011204095557332	0.0289076566696167	0.0103364586830139	0.563479602336884	0.634576261043549	4.99099731445313	0.641468286514282	4.44602966308594	0.219495207071304	-0.124035656452179	-0.0104223797097802	-0.96764063835144	Bartender_HumanMale_Mesh_LOD1	Bartender_HumanMale_Mesh_LOD1	-1	-1
0.0113987689837813	0.0298548936843872	0.0109887421131134	0.564426839351654	0.633924007415771	4.99099206924438	0.641594529151917	4.44597911834717	0.219695389270782	-0.124042674899101	-0.0104097882285714	-0.96759444475174	Bartender_HumanMale_Mesh_LOD1	Bartender_HumanMale_Mesh_LOD1	-1	-1
0.010523178614676	0.0298548936843872	0.0109887421131134	0.564426839351654	0.633924007415771	4.99100923538208	0.641649723052979	4.4459753036499	0.219993636012077	-0.124080665409565	-0.010348622687161	-0.967522501945496	Bartender_HumanMale_Mesh_LOD1	Bartender_HumanMale_Mesh_LOD1	-1	-1
0.0114254085347056	0.0298548936843872	0.0109887421131134	0.564426839351654	0.633924007415771	4.9911208152771	0.641691446304321	4.44601535797119	0.220370963215828	-0.124123200774193	-0.0103157162666321	-0.967431485652924	Bartender_HumanMale_Mesh_LOD1	Bartender_HumanMale_Mesh_LOD1	-1	-1
0.0113730076700449	0.0303232073783875	0.0104632675647736	0.564895153045654	0.634449481964111	4.99110460281372	0.6417555809021	4.44602203369141	0.220730543136597	-0.124154642224312	-0.0102351317182183	-0.96734631061554	Bartender_HumanMale_Mesh_LOD1	Bartender_HumanMale_Mesh_LOD1	-1	-1
0.0107629345729947	0.0303232073783875	0.0104632675647736	0.564895153045654	0.634449481964111	4.99115657806396	0.64173686504364	4.44602966308594	0.221103549003601	-0.12433535605669	-0.010031521320343	-0.967240035533905	Bartender_HumanMale_Mesh_LOD1	Bartender_HumanMale_Mesh_LOD1	-1	-1
0.0114810289815068	0.0303232073783875	0.0104632675647736	0.564895153045654	0.634449481964111	4.99114418029785	0.641778707504272	4.4460597038269	0.221140831708908	-0.124489791691303	-0.0100900745019317	-0.967211067676544	Bartender_HumanMale_Mesh_LOD1	Bartender_HumanMale_Mesh_LOD1	-1	-1
0.0173554737120867	0.0315466225147247	0.00859054923057556	0.56451952457428	0.630128979682922	4.99110412597656	0.641799330711365	4.44613695144653	0.221228390932083	-0.124671190977097	-0.00992507115006447	-0.967169404029846	Bartender_HumanMale_Mesh_LOD1	Bartender_HumanMale_Mesh_LOD1	-1	-1
0.00627579214051366	0.0315466225147247	0.00859054923057556	0.56451952457428	0.630128979682922	4.99111938476563	0.641822934150696	4.44615364074707	0.221512466669083	-0.124979563057423	-0.00994655676186085	-0.967064321041107	Bartender_HumanMale_Mesh_LOD1	Bartender_HumanMale_Mesh_LOD1	-1	-1
0.00928049068897963	0.0315466225147247	0.00859054923057556	0.56451952457428	0.630128979682922	4.99107217788696	0.64189076423645	4.44618463516235	0.221669271588326	-0.125267893075943	-0.00972621422261	-0.96699333190918	Bartender_HumanMale_Mesh_LOD1	Bartender_HumanMale_Mesh_LOD1	-1	-1
0.0117532787844539	0.0312649309635162	0.00876909494400024	0.564237833023071	0.629950404167175	4.99106550216675	0.641895294189453	4.44610786437988	0.221734210848808	-0.125394120812416	-0.00938010308891535	-0.96696549654007	Bartender_HumanMale_Mesh_LOD1	Bartender_HumanMale_Mesh_LOD1	-1	-1
0.0107796201482415	0.0312649309635162	0.00876909494400024	0.564237833023071	0.629950404167175	4.99116086959839	0.641793489456177	4.44605159759521	0.221638455986977	-0.125706046819687	-0.00899048522114754	-0.966950654983521	Bartender_HumanMale_Mesh_LOD1	Bartender_HumanMale_Mesh_LOD1	-1	-1
0.0114011103287339	0.030452162027359	0.010275810956955	0.563425064086914	0.628443717956543	4.99116468429565	0.641730546951294	4.44609546661377	0.221560433506966	-0.126214921474457	-0.00872138794511557	-0.966904699802399	Bartender_HumanMale_Mesh_LOD1	Bartender_HumanMale_Mesh_LOD1	-1	-1
0.0111446687951684	0.030452162027359	0.010275810956955	0.563425064086914	0.628443717956543	4.99109315872192	0.641687273979187	4.44606304168701	0.221491992473602	-0.126590549945831	-0.00849682372063398	-0.966873288154602	Bartender_HumanMale_Mesh_LOD1	Bartender_HumanMale_Mesh_LOD1	-1	-1
0.0107333669438958	0.030452162027359	0.010275810956955	0.563425064086914	0.628443717956543	4.99108457565308	0.641679406166077	4.44611597061157	0.221508204936981	-0.127090126276016	-0.00827389303594828	-0.966805994510651	Bartender_HumanMale_Mesh_LOD1	Bartender_HumanMale_Mesh_LOD1	-1	-1
0.0114172110334039	0.030452162027359	0.010275810956955	0.563425064086914	0.628443717956543	4.991135597229	0.641600489616394	4.44615650177002	0.221626207232475	-0.12765508890152	-0.00793817732483149	-0.966707289218903	Bartender_HumanMale_Mesh_LOD1	Bartender_HumanMale_Mesh_LOD1	-1	-1
0.0111903371289372	0.0297077000141144	0.0103673934936523	0.562680602073669	0.628352105617523	4.99117422103882	0.641620516777039	4.4463095664978	0.221706539392471	-0.128230944275856	-0.00744254980236292	-0.966616630554199	Bartender_HumanMale_Mesh_LOD1	Bartender_HumanMale_Mesh_LOD1	-1	-1
0.0108817871659994	0.0297077000141144	0.0103673934936523	0.562680602073669	0.628352105617523	4.99124002456665	0.641571998596191	4.44631767272949	0.221628949046135	-0.128782242536545	-0.00704493606463075	-0.966564059257507	Bartender_HumanMale_Mesh_LOD1	Bartender_HumanMale_Mesh_LOD1	-1	-1
0.0112266363576055	0.0297077000141144	0.0103673934936523	0.562680602073669	0.628352105617523	4.99126482009888	0.641581416130066	4.44636821746826	0.221651822328568	-0.129509717226028	-0.0066804145462811	-0.966464221477509	Bartender_HumanMale_Mesh_LOD1	Bartender_HumanMale_Mesh_LOD1	-1	-1
0.0120006455108523	0.0524643361568451	0.0136665999889374	0.529947280883789	0.597135066986084	4.99119520187378	0.641590714454651	4.44648027420044	0.221810042858124	-0.130320399999619	-0.00650401553139091	-0.966320157051086	Bartender_HumanMale_Mesh_LOD1	Bartender_HumanMale_Mesh_LOD1	-1	-1
0.0106531558558345	0.0524643361568451	0.0136665999889374	0.529947280883789	0.597135066986084	4.99111652374268	0.641638517379761	4.44655609130859	0.221900925040245	-0.130896985530853	-0.00643488904461265	-0.966221809387207	Bartender_HumanMale_Mesh_LOD1	Bartender_HumanMale_Mesh_LOD1	-1	-1
0.0181628540158272	0.0527797937393188	0.0145669281482697	0.53026270866394	0.598035335540771	4.9909839630127	0.641625285148621	4.44661998748779	0.222136586904526	-0.131724834442139	-0.00625097332522273	-0.966056346893311	Bartender_HumanMale_Mesh_LOD1	Bartender_HumanMale_Mesh_LOD1	-1	-1
0.0123428599908948	0.0527797937393188	0.0145669281482697	0.53026270866394	0.598035335540771	4.99081516265869	0.641563296318054	4.44652700424194	0.222042188048363	-0.132258459925652	-0.00605815835297108	-0.966006338596344	Bartender_HumanMale_Mesh_LOD1	Bartender_HumanMale_Mesh_LOD1	-1	-1
0.013019971549511	0.0527797937393188	0.0145669281482697	0.53026270866394	0.598035335540771	4.99050569534302	0.641544461250305	4.446608543396	0.221573859453201	-0.133658424019814	-0.00578793231397867	-0.965922832489014	Bartender_HumanMale_Mesh_LOD1	Bartender_HumanMale_Mesh_LOD1	-1	-1
0.0112752318382263	0.053735762834549	0.0135461986064911	0.531218647956848	0.597014665603638	4.99036931991577	0.641594886779785	4.44651412963867	0.22148397564888	-0.134192287921906	-0.00571120949462056	-0.965869903564453	Bartender_HumanMale_Mesh_LOD1	Bartender_HumanMale_Mesh_LOD1	-1	-1
0.0115700224414468	0.053735762834549	0.0135461986064911	0.531218647956848	0.597014665603638	4.99022674560547	0.641660690307617	4.44654655456543	0.221622511744499	-0.13484650850296	-0.0057849227450788	-0.965746581554413	Bartender_HumanMale_Mesh_LOD1	Bartender_HumanMale_Mesh_LOD1	-1	-1
0.0106393974274397	0.053735762834549	0.0135461986064911	0.531218647956848	0.597014665603638	4.99005126953125	0.64179790019989	4.44657135009766	0.222076132893562	-0.135440915822983	-0.00581586128100753	-0.965559005737305	Bartender_HumanMale_Mesh_LOD1	Bartender_HumanMale_Mesh_LOD1	-1	-1
0.0116771655157208	0.0530050098896027	0.016968309879303	0.530487895011902	0.600436747074127	4.98985147476196	0.641885757446289	4.44671154022217	0.222724124789238	-0.13600717484951	-0.00568134104833007	-0.965330898761749	Bartender_HumanMale_Mesh_LOD1	Bartender_HumanMale_Mesh_LOD1	-1	-1
0.0106920907273889	0.0530050098896027	0.016968309879303	0.530487895011902	0.600436747074127	4.98975229263306	0.641977906227112	4.44670295715332	0.223345533013344	-0.136430457234383	-0.00549190305173397	-0.965128660202026	Bartender_HumanMale_Mesh_LOD1	Bartender_HumanMale_Mesh_LOD1	-1	-1
0.0110056167468429	0.0530050098896027	0.016968309879303	0.530487895011902	0.600436747074127	4.98961877822876	0.642022490501404	4.44673776626587	0.223807156085968	-0.137071594595909	-0.00532598793506622	-0.964931786060333	Bartender_HumanMale_Mesh_LOD1	Bartender_HumanMale_Mesh_LOD1	-1	-1
0.0115629965439439	0.0516331493854523	0.0165900588035584	0.529116034507751	0.600058495998383	4.98950004577637	0.642098665237427	4.44678401947021	0.224089950323105	-0.13793095946312	-0.00519391754642129	-0.964744448661804	Bartender_HumanMale_Mesh_LOD1	Bartender_HumanMale_Mesh_LOD1	-1	-1
0.0113229490816593	0.0516331493854523	0.0165900588035584	0.529116034507751	0.600058495998383	4.98946332931519	0.642031073570251	4.44677448272705	0.224178463220596	-0.138671010732651	-0.00500338617712259	-0.964618802070618	Bartender_HumanMale_Mesh_LOD1	Bartender_HumanMale_Mesh_LOD1	-1	-1
0.0105117615312338	0.0516331493854523	0.0165900588035584	0.529116034507751	0.600058495998383	4.98935222625732	0.642026424407959	4.44682645797729	0.22403858602047	-0.139624953269959	-0.00487894099205732	-0.964514255523682	Bartender_HumanMale_Mesh_LOD1	Bartender_HumanMale_Mesh_LOD1	-1	-1
0.0116265211254358	0.0516331493854523	0.0165900588035584	0.529116034507751	0.600058495998383	4.98910474777222	0.641936182975769	4.44692230224609	0.224212422966957	-0.140535026788712	-0.00481196120381355	-0.964342057704926	Bartender_HumanMale_Mesh_LOD1	Bartender_HumanMale_Mesh_LOD1	-1	-1
0.0185952335596085	0.0513661503791809	0.0131258368492126	0.528849065303802	0.596594274044037	4.98898601531982	0.641940951347351	4.44695568084717	0.224257364869118	-0.141453728079796	-0.00455638859421015	-0.964198529720306	Bartender_HumanMale_Mesh_LOD1	Bartender_HumanMale_Mesh_LOD1	-1	-1
0.00515547068789601	0.0513661503791809	0.0131258368492126	0.528849065303802	0.596594274044037	4.988853931427	0.642098784446716	4.44699954986572	0.224284380674362	-0.142476856708527	-0.00433884793892503	-0.964042603969574	Bartender_HumanMale_Mesh_LOD1	Bartender_HumanMale_Mesh_LOD1	-1	-1
0.0102731771767139	0.0496307015419006	0.0131252408027649	0.527113616466522	0.596593677997589	4.98867511749268	0.642191052436829	4.44704675674438	0.224702566862106	-0.143665313720703	-0.00434333784505725	-0.963768780231476	Bartender_HumanMale_Mesh_LOD1	Bartender_HumanMale_Mesh_LOD1	-1	-1
0.0106789171695709	0.0496307015419006	0.0131252408027649	0.527113616466522	0.596593677997589	4.98852300643921	0.642285466194153	4.44707202911377	0.225286841392517	-0.144922658801079	-0.00439887819811702	-0.96344381570816	Bartender_HumanMale_Mesh_LOD1	Bartender_HumanMale_Mesh_LOD1	-1	-1
0.0109851248562336	0.0496307015419006	0.0131252408027649	0.527113616466522	0.596593677997589	4.9883861541748	0.642379999160767	4.44708824157715	0.22589522600174	-0.146099105477333	-0.00450518308207393	-0.963123142719269	Bartender_HumanMale_Mesh_LOD1	Bartender_HumanMale_Mesh_LOD1	-1	-1
0.0109807336702943	0.0496307015419006	0.0131252408027649	0.527113616466522	0.596593677997589	4.988205909729	0.642458200454712	4.44717264175415	0.226418003439903	-0.147344440221787	-0.00420491257682443	-0.962811946868896	Bartender_HumanMale_Mesh_LOD1	Bartender_HumanMale_Mesh_LOD1	-1	-1
0.0120796849951148	0.046606183052063	0.0124984383583069	0.524089097976685	0.595966875553131	4.98813533782959	0.642411947250366	4.44712924957275	0.226938277482986	-0.148681327700615	-0.00354712200351059	-0.962486565113068	Bartender_HumanMale_Mesh_LOD1	Bartender_HumanMale_Mesh_LOD1	-1	-1
0.0102611752226949	0.046606183052063	0.0124984383583069	0.524089097976685	0.595966875553131	4.98790216445923	0.642340660095215	4.44715356826782	0.2272087931633	-0.150245174765587	-0.00288448249921203	-0.96218204498291	Bartender_HumanMale_Mesh_LOD1	Bartender_HumanMale_Mesh_LOD1	-1	-1
0.0115346005186439	0.046606183052063	0.0124984383583069	0.524089097976685	0.595966875553131	4.98767852783203	0.642392873764038	4.44717168807983	0.227581351995468	-0.151550486683846	-0.0023920307867229	-0.961890578269959	Bartender_HumanMale_Mesh_LOD1	Bartender_HumanMale_Mesh_LOD1	-1	-1
0.0111906295642257	0.046606183052063	0.0124984383583069	0.524089097976685	0.595966875553131	4.98746728897095	0.642403841018677	4.44719123840332	0.227933466434479	-0.152779147028923	-0.00199780217371881	-0.961613714694977	Bartender_HumanMale_Mesh_LOD1	Bartender_HumanMale_Mesh_LOD1	-1	-1
0.0111174443736672	0.046606183052063	0.0124984383583069	0.524089097976685	0.595966875553131	4.98719501495361	0.642452239990234	4.44721651077271	0.228042244911194	-0.154052630066872	-0.00179983838461339	-0.961385130882263	Bartender_HumanMale_Mesh_LOD1	Bartender_HumanMale_Mesh_LOD1	-1	-1
0.0109918583184481	0.046606183052063	0.0124984383583069	0.524089097976685	0.595966875553131	4.98688077926636	0.642459392547607	4.4473123550415	0.228144079446793	-0.155381426215172	-0.00152274325955659	-0.961147546768188	Bartender_HumanMale_Mesh_LOD1	Bartender_HumanMale_Mesh_LOD1	-1	-1
0.0117872366681695	0.0247708261013031	0.0104564130306244	0.502253770828247	0.593924880027771	4.98661613464355	0.642475366592407	4.44738531112671	0.228356927633286	-0.156377345323563	-0.00130374100990593	-0.960935771465302	Bartender_HumanMale_Mesh_LOD1	Bartender_HumanMale_Mesh_LOD1	-1	-1
0.0105591863393784	0.0247708261013031	0.0104564130306244	0.502253770828247	0.593924880027771	4.98630809783936	0.642509937286377	4.44740390777588	0.228690668940544	-0.157569497823715	-0.00088819517986849	-0.960662126541138	Bartender_HumanMale_Mesh_LOD1	Bartender_HumanMale_Mesh_LOD1	-1	-1
0.0173376146703959	0.0247708261013031	0.0104564130306244	0.502253770828247	0.593924880027771	4.98594760894775	0.642627000808716	4.44738245010376	0.229679584503174	-0.158741340041161	-0.000426826125476509	-0.960233449935913	Bartender_HumanMale_Mesh_LOD1	Bartender_HumanMale_Mesh_LOD1	-1	-1
0.0118088992312551	0.0252515375614166	0.0119158923625946	0.502734422683716	0.595384359359741	4.98566341400146	0.642701268196106	4.44739151000977	0.230408355593681	-0.159645676612854	-5.53219251742121E-06	-0.959908962249756	Bartender_HumanMale_Mesh_LOD1	Bartender_HumanMale_Mesh_LOD1	-1	-1
0.0159792955964804	0.010700523853302	0.0954962074756622	0.53301066160202	0.517499804496765	4.98498010635376	0.642728686332703	4.4475212097168	0.2308569252491	-0.161922961473465	0.000847690447699279	-0.959419250488281	Bartender_HumanMale_Mesh_LOD1	Bartender_HumanMale_Mesh_LOD1	-1	-1
0.0106370551511645	0.010700523853302	0.0954962074756622	0.53301066160202	0.517499804496765	4.98463344573975	0.642653942108154	4.44753646850586	0.230727836489677	-0.163236141204834	0.00124681240413338	-0.959227323532104	Bartender_HumanMale_Mesh_LOD1	Bartender_HumanMale_Mesh_LOD1	-1	-1
0.0111393993720412	0.010700523853302	0.0954962074756622	0.53301066160202	0.517499804496765	4.9841570854187	0.642575979232788	4.44755363464355	0.230359867215157	-0.164478182792664	0.00158486294094473	-0.959103107452393	Bartender_HumanMale_Mesh_LOD1	Bartender_HumanMale_Mesh_LOD1	-1	-1
0.0114517547190189	0.011797159910202	0.0926141440868378	0.531913995742798	0.514617800712585	4.98369836807251	0.642563343048096	4.44763088226318	0.230454295873642	-0.165726765990257	0.00187269598245621	-0.95886492729187	Bartender_HumanMale_Mesh_LOD1	Bartender_HumanMale_Mesh_LOD1	-1	-1
0.0110788019374013	0.011797159910202	0.0926141440868378	0.531913995742798	0.514617800712585	4.9832592010498	0.642553925514221	4.4476490020752	0.230494096875191	-0.166841715574265	0.00186737824697047	-0.958662033081055	Bartender_HumanMale_Mesh_LOD1	Bartender_HumanMale_Mesh_LOD1	-1	-1
0.0115255257114768	0.00591889023780823	0.0849327743053436	0.514197945594788	0.52229917049408	4.98282432556152	0.642454624176025	4.44767618179321	0.230459854006767	-0.167980372905731	0.00174813985358924	-0.958471596240997	Bartender_HumanMale_Mesh_LOD1	Bartender_HumanMale_Mesh_LOD1	-1	-1
0.010783133096993	0.00591889023780823	0.0849327743053436	0.514197945594788	0.52229917049408	4.98234224319458	0.642423987388611	4.44765424728394	0.230164110660553	-0.169141784310341	0.00165880494751036	-0.958338558673859	Bartender_HumanMale_Mesh_LOD1	Bartender_HumanMale_Mesh_LOD1	-1	-1
0.0117641100659966	0.00591889023780823	0.0849327743053436	0.514197945594788	0.52229917049408	4.98187637329102	0.642260789871216	4.44764518737793	0.229657784104347	-0.170585408806801	0.00143500755075365	-0.958204507827759	Bartender_HumanMale_Mesh_LOD1	Bartender_HumanMale_Mesh_LOD1	-1	-1
0.0109833683818579	0.00591889023780823	0.0849327743053436	0.514197945594788	0.52229917049408	4.98138666152954	0.642144918441772	4.44768667221069	0.229181796312332	-0.172000348567963	0.00121479295194149	-0.958065867424011	Bartender_HumanMale_Mesh_LOD1	Bartender_HumanMale_Mesh_LOD1	-1	-1
0.0105984136462212	0.00591889023780823	0.0849327743053436	0.514197945594788	0.52229917049408	4.98082399368286	0.642040967941284	4.44772291183472	0.228722929954529	-0.173507183790207	0.00135795050300658	-0.957903563976288	Bartender_HumanMale_Mesh_LOD1	Bartender_HumanMale_Mesh_LOD1	-1	-1
0.011651111766696	0.00591889023780823	0.0849327743053436	0.514197945594788	0.52229917049408	4.98026466369629	0.642005324363709	4.44778966903687	0.228682592511177	-0.174820050597191	0.00145686022005975	-0.957674324512482	Bartender_HumanMale_Mesh_LOD1	Bartender_HumanMale_Mesh_LOD1	-1	-1
0.0174702275544405	0.00591889023780823	0.0849327743053436	0.514197945594788	0.52229917049408	4.97977018356323	0.641939401626587	4.44780349731445	0.228809759020805	-0.175970464944839	0.00144572160206735	-0.957433223724365	Bartender_HumanMale_Mesh_LOD1	Bartender_HumanMale_Mesh_LOD1	-1	-1
0.0055415965616703	0.0261697024106979	0.123572990298271	0.493947148323059	0.483658909797668	4.97915172576904	0.641933798789978	4.44781303405762	0.228714630007744	-0.177192762494087	0.00127598003018647	-0.957230806350708	Bartender_HumanMale_Mesh_LOD1	Bartender_HumanMale_Mesh_LOD1	-1	-1
0.0104262810200453	0.0261697024106979	0.123572990298271	0.493947148323059	0.483658909797668	4.97855615615845	0.641833901405334	4.44787120819092	0.228690266609192	-0.17821604013443	0.00113064248580486	-0.957046806812286	Bartender_HumanMale_Mesh_LOD1	Bartender_HumanMale_Mesh_LOD1	-1	-1
0.0107474187389016	0.0261697024106979	0.123572990298271	0.493947148323059	0.483658909797668	4.97811031341553	0.641822934150696	4.44791603088379	0.22814916074276	-0.179074838757515	0.000849208096042275	-0.957015931606293	Bartender_HumanMale_Mesh_LOD1	Bartender_HumanMale_Mesh_LOD1	-1	-1
0.0118153402581811	0.0261697024106979	0.123572990298271	0.493947148323059	0.483658909797668	4.97750234603882	0.641753911972046	4.44798183441162	0.227630600333214	-0.180088698863983	0.000371365313185379	-0.956949472427368	Bartender_HumanMale_Mesh_LOD1	Bartender_HumanMale_Mesh_LOD1	-1	-1
0.0109438486397266	0.0261697024106979	0.123572990298271	0.493947148323059	0.483658909797668	4.97695684432983	0.64164412021637	4.44799137115479	0.227464392781258	-0.181173741817474	-0.000165900433785282	-0.956784248352051	Bartender_HumanMale_Mesh_LOD1	Bartender_HumanMale_Mesh_LOD1	-1	-1
0.0110000548884273	0.0261697024106979	0.123572990298271	0.493947148323059	0.483658909797668	4.97632122039795	0.641574382781982	4.44805479049683	0.227238014340401	-0.182450890541077	-0.000990332686342299	-0.956594824790955	Bartender_HumanMale_Mesh_LOD1	Bartender_HumanMale_Mesh_LOD1	-1	-1
0.0114090144634247	0.000962525606155396	0.0854096114635468	0.520467519760132	0.47588899731636	4.97568941116333	0.641615867614746	4.44823455810547	0.227263987064362	-0.183714434504509	-0.00157013069838285	-0.956345975399017	Bartender_HumanMale_Mesh_LOD1	Bartender_HumanMale_Mesh_LOD1	-1	-1
0.0112058520317078	0.000962525606155396	0.0854096114635468	0.520467519760132	0.47588899731636	4.9750714302063	0.641759037971497	4.44833374023438	0.227713659405708	-0.18490207195282	-0.00225666793994606	-0.956008732318878	Bartender_HumanMale_Mesh_LOD1	Bartender_HumanMale_Mesh_LOD1	-1	-1
0.0106956036761403	0.000962525606155396	0.0854096114635468	0.520467519760132	0.47588899731636	4.97440433502197	0.641880750656128	4.44838714599609	0.228211238980293	-0.186072930693626	-0.0028769108466804	-0.955661177635193	Bartender_HumanMale_Mesh_LOD1	Bartender_HumanMale_Mesh_LOD1	-1	-1
0.011229271069169	0.000962525606155396	0.0854096114635468	0.520467519760132	0.47588899731636	4.97377681732178	0.642118453979492	4.44849681854248	0.229082196950912	-0.187399789690971	-0.00363069539889693	-0.95519083738327	Bartender_HumanMale_Mesh_LOD1	Bartender_HumanMale_Mesh_LOD1	-1	-1
0.0120934443548322	0.0213091373443604	0.11921015381813	0.534281194210052	0.462285488843918	4.97316265106201	0.642413377761841	4.4486083984375	0.23006509244442	-0.188676789402962	-0.00452659418806434	-0.954699218273163	Bartender_HumanMale_Mesh_LOD1	Bartender_HumanMale_Mesh_LOD1	-1	-1
0.0124593712389469	0.0213091373443604	0.11921015381813	0.534281194210052	0.462285488843918	4.97260284423828	0.642595052719116	4.44869041442871	0.231211394071579	-0.189871102571487	-0.00539436098188162	-0.954180896282196	Bartender_HumanMale_Mesh_LOD1	Bartender_HumanMale_Mesh_LOD1	-1	-1
0.00955947395414114	0.0213091373443604	0.11921015381813	0.534281194210052	0.462285488843918	4.97203588485718	0.642835736274719	4.448814868927	0.232020124793053	-0.191154673695564	-0.00605284981429577	-0.953724265098572	Bartender_HumanMale_Mesh_LOD1	Bartender_HumanMale_Mesh_LOD1	-1	-1
0.0169579293578863	0.0242426991462708	0.11723604798317	0.537214756011963	0.464259594678879	4.97153472900391	0.642981290817261	4.44889259338379	0.2331672757864	-0.192475944757462	-0.0063980114646256	-0.953176379203796	Bartender_HumanMale_Mesh_LOD1	Bartender_HumanMale_Mesh_LOD1	-1	-1
0.0048472136259079	0.0242426991462708	0.11723604798317	0.537214756011963	0.464259594678879	4.9710636138916	0.643054008483887	4.44895267486572	0.234087735414505	-0.193560630083084	-0.00680634286254644	-0.952728152275085	Bartender_HumanMale_Mesh_LOD1	Bartender_HumanMale_Mesh_LOD1	-1	-1
0.011001517996192	0.0242426991462708	0.11723604798317	0.537214756011963	0.464259594678879	4.97055149078369	0.643168449401855	4.44908237457275	0.235064595937729	-0.194729372859001	-0.00734658446162939	-0.95224529504776	Bartender_HumanMale_Mesh_LOD1	Bartender_HumanMale_Mesh_LOD1	-1	-1
0.0120829055085778	0.0227057635784149	0.12726753950119	0.538751721382141	0.474291086196899	4.97005891799927	0.643252491950989	4.44917488098145	0.235753014683723	-0.195843279361725	-0.00791239552199841	-0.951842129230499	Bartender_HumanMale_Mesh_LOD1	Bartender_HumanMale_Mesh_LOD1	-1	-1
0.0102108232676983	0.0227057635784149	0.12726753950119	0.538751721382141	0.474291086196899	4.96958208084106	0.643272161483765	4.44924354553223	0.236214309930801	-0.1968042999506	-0.00843060202896595	-0.951524972915649	Bartender_HumanMale_Mesh_LOD1	Bartender_HumanMale_Mesh_LOD1	-1	-1
0.0112787447869778	0.0227057635784149	0.12726753950119	0.538751721382141	0.474291086196899	4.96909999847412	0.643270969390869	4.44937038421631	0.236276865005493	-0.197798773646355	-0.00884599797427654	-0.951299488544464	Bartender_HumanMale_Mesh_LOD1	Bartender_HumanMale_Mesh_LOD1	-1	-1
0.0113823749125004	0.0227057635784149	0.12726753950119	0.538751721382141	0.474291086196899	4.96871519088745	0.643218874931335	4.44943571090698	0.236422047019005	-0.198494717478752	-0.00920753926038742	-0.951115012168884	Bartender_HumanMale_Mesh_LOD1	Bartender_HumanMale_Mesh_LOD1	-1	-1
0.0113311456516385	0.0231613516807556	0.124954998493195	0.538296103477478	0.471978545188904	4.96821260452271	0.643094897270203	4.44950580596924	0.236341789364815	-0.199243247509003	-0.00962147954851389	-0.950974345207214	Bartender_HumanMale_Mesh_LOD1	Bartender_HumanMale_Mesh_LOD1	-1	-1
0.0107910372316837	0.0231613516807556	0.124954998493195	0.538296103477478	0.471978545188904	4.96778631210327	0.643027186393738	4.44962453842163	0.235857412219048	-0.199960067868233	-0.0100528635084629	-0.950939655303955	Bartender_HumanMale_Mesh_LOD1	Bartender_HumanMale_Mesh_LOD1	-1	-1
0.0117726000025868	0.0227899253368378	0.124713480472565	0.538667559623718	0.471737027168274	4.9674654006958	0.642924308776855	4.44977617263794	0.235523641109467	-0.200695440173149	-0.0102914683520794	-0.950864911079407	Bartender_HumanMale_Mesh_LOD1	Bartender_HumanMale_Mesh_LOD1	-1	-1
0.0104617029428482	0.0227899253368378	0.124713480472565	0.538667559623718	0.471737027168274	4.96723937988281	0.642956495285034	4.44992065429688	0.235471233725548	-0.201209872961044	-0.0106645990163088	-0.950765073299408	Bartender_HumanMale_Mesh_LOD1	Bartender_HumanMale_Mesh_LOD1	-1	-1
0.0111156878992915	0.0227899253368378	0.124713480472565	0.538667559623718	0.471737027168274	4.96686315536499	0.643041491508484	4.45003795623779	0.235839769244194	-0.201834976673126	-0.0111446464434266	-0.950535714626312	Bartender_HumanMale_Mesh_LOD1	Bartender_HumanMale_Mesh_LOD1	-1	-1
0.0119239473715425	0.0227899253368378	0.124713480472565	0.538667559623718	0.471737027168274	4.96662282943726	0.64304518699646	4.45013427734375	0.236496224999428	-0.20224292576313	-0.011579223908484	-0.950280666351318	Bartender_HumanMale_Mesh_LOD1	Bartender_HumanMale_Mesh_LOD1	-1	-1
0.0108487075194716	0.0246651470661163	0.126192986965179	0.536792278289795	0.473216533660889	4.96627140045166	0.642943739891052	4.45026302337646	0.236701756715775	-0.202583566308022	-0.0118597447872162	-0.950153470039368	Bartender_HumanMale_Mesh_LOD1	Bartender_HumanMale_Mesh_LOD1	-1	-1
0.0170038901269436	0.0246651470661163	0.126192986965179	0.536792278289795	0.473216533660889	4.96593570709229	0.642939567565918	4.45034456253052	0.23644956946373	-0.203022018074989	-0.0118783693760633	-0.95012241601944	Bartender_HumanMale_Mesh_LOD1	Bartender_HumanMale_Mesh_LOD1	-1	-1
0.0053583406843245	0.0246651470661163	0.126192986965179	0.536792278289795	0.473216533660889	4.96579885482788	0.642787337303162	4.45038318634033	0.236335307359695	-0.203373044729233	-0.0119573390111327	-0.950074791908264	Bartender_HumanMale_Mesh_LOD1	Bartender_HumanMale_Mesh_LOD1	-1	-1
0.0107096554711461	0.0246651470661163	0.126192986965179	0.536792278289795	0.473216533660889	4.96545362472534	0.642745614051819	4.4504861831665	0.236232727766037	-0.203679576516151	-0.0122653394937515	-0.95003068447113	Bartender_HumanMale_Mesh_LOD1	Bartender_HumanMale_Mesh_LOD1	-1	-1
0.011385009624064	0.00186008214950562	0.0621180981397629	0.512526333332062	0.533499479293823	4.96514463424683	0.642756938934326	4.45075702667236	0.236486464738846	-0.203933462500572	-0.0125504042953253	-0.949909389019012	Bartender_HumanMale_Mesh_LOD1	Bartender_HumanMale_Mesh_LOD1	-1	-1
0.0123589606955647	0.00186008214950562	0.0621180981397629	0.512526333332062	0.533499479293823	4.96481943130493	0.642817497253418	4.45095920562744	0.236751407384872	-0.203845947980881	-0.0128459688276052	-0.949858248233795	Bartender_HumanMale_Mesh_LOD1	Bartender_HumanMale_Mesh_LOD1	-1	-1
0.0107444915920496	0.00155287981033325	0.0623271018266678	0.512219130992889	0.533708512783051	4.96440410614014	0.642686724662781	4.45106077194214	0.236652493476868	-0.203790903091431	-0.0130384154617786	-0.949892044067383	Bartender_HumanMale_Mesh_LOD1	Bartender_HumanMale_Mesh_LOD1	-1	-1
0.0118557382375002	0.00155287981033325	0.0623271018266678	0.512219130992889	0.533708512783051	4.9641056060791	0.642644286155701	4.45121765136719	0.236523285508156	-0.203680366277695	-0.0133115565404296	-0.949944138526917	Bartender_HumanMale_Mesh_LOD1	Bartender_HumanMale_Mesh_LOD1	-1	-1
0.0117752337828279	0.00155287981033325	0.0623271018266678	0.512219130992889	0.533708512783051	4.96373987197876	0.642637014389038	4.45131254196167	0.236229911446571	-0.203646749258041	-0.0137775996699929	-0.950017750263214	Bartender_HumanMale_Mesh_LOD1	Bartender_HumanMale_Mesh_LOD1	-1	-1
0.0105187874287367	0.00155287981033325	0.0623271018266678	0.512219130992889	0.533708512783051	4.9634895324707	0.64257550239563	4.45144605636597	0.235944122076035	-0.203290194272995	-0.0141880037263036	-0.950159072875977	Bartender_HumanMale_Mesh_LOD1	Bartender_HumanMale_Mesh_LOD1	-1	-1
0.0113569069653749	0.00560125708580017	0.0540613681077957	0.506285667419434	0.540409326553345	4.9631552696228	0.642576694488525	4.45160579681396	0.235571071505547	-0.202892735600472	-0.0145781952887774	-0.950330674648285	Bartender_HumanMale_Mesh_LOD1	Bartender_HumanMale_Mesh_LOD1	-1	-1
0.0118088992312551	0.00560125708580017	0.0540613681077957	0.506285667419434	0.540409326553345	4.96289587020874	0.642611384391785	4.45176124572754	0.235590443015099	-0.202251091599464	-0.015104440972209	-0.950454413890839	Bartender_HumanMale_Mesh_LOD1	Bartender_HumanMale_Mesh_LOD1	-1	-1
0.0109426770359278	0.00640428066253662	0.0553125888109207	0.507088661193848	0.54166054725647	4.96266078948975	0.642713904380798	4.45188140869141	0.23587192595005	-0.201641038060188	-0.0156402587890625	-0.950505495071411	Bartender_HumanMale_Mesh_LOD1	Bartender_HumanMale_Mesh_LOD1	-1	-1
0.0110167413949966	0.00640428066253662	0.0553125888109207	0.507088661193848	0.54166054725647	4.96233892440796	0.642847657203674	4.45195531845093	0.236463204026222	-0.201032817363739	-0.0162249710410833	-0.950477659702301	Bartender_HumanMale_Mesh_LOD1	Bartender_HumanMale_Mesh_LOD1	-1	-1
0.0115902218967676	0.00654458999633789	0.0562262386083603	0.507228970527649	0.542574167251587	4.96207857131958	0.642891764640808	4.45204257965088	0.236703783273697	-0.200482353568077	-0.016755124554038	-0.950524866580963	Bartender_HumanMale_Mesh_LOD1	Bartender_HumanMale_Mesh_LOD1	-1	-1
0.0162887219339609	0.00654458999633789	0.0562262386083603	0.507228970527649	0.542574167251587	4.96191215515137	0.642888188362122	4.45214462280273	0.236774027347565	-0.199758887290955	-0.0171648096293211	-0.950652301311493	Bartender_HumanMale_Mesh_LOD1	Bartender_HumanMale_Mesh_LOD1	-1	-1
0.00494879530742764	0.00654458999633789	0.0562262386083603	0.507228970527649	0.542574167251587	4.96168422698975	0.64289128780365	4.45222902297974	0.236478343605995	-0.199219658970833	-0.0174591559916735	-0.950833678245544	Bartender_HumanMale_Mesh_LOD1	Bartender_HumanMale_Mesh_LOD1	-1	-1
0.0119227757677436	0.00654458999633789	0.0562262386083603	0.507228970527649	0.542574167251587	4.96153450012207	0.642857551574707	4.45224857330322	0.236413687467575	-0.198582336306572	-0.017723698168993	-0.950978219509125	Bartender_HumanMale_Mesh_LOD1	Bartender_HumanMale_Mesh_LOD1	-1	-1
0.0110184978693724	0.00725904107093811	0.0558902770280838	0.507943391799927	0.542238235473633	4.96140813827515	0.64285683631897	4.4522819519043	0.236300408840179	-0.198076710104942	-0.0181134548038244	-0.951104462146759	Bartender_HumanMale_Mesh_LOD1	Bartender_HumanMale_Mesh_LOD1	-1	-1
0.011299236677587	0.00725904107093811	0.0558902770280838	0.507943391799927	0.542238235473633	4.96134328842163	0.642809391021729	4.45234966278076	0.236283108592033	-0.197622776031494	-0.0184773467481136	-0.951196193695068	Bartender_HumanMale_Mesh_LOD1	Bartender_HumanMale_Mesh_LOD1	-1	-1
0.0120296264067292	0.0090736448764801	0.0556757301092148	0.509757995605469	0.542023658752441	4.96120119094849	0.642867922782898	4.45239734649658	0.236409708857536	-0.197112888097763	-0.0187794826924801	-0.951264619827271	Bartender_HumanMale_Mesh_LOD1	Bartender_HumanMale_Mesh_LOD1	-1	-1
0.0111297396942973	0.0090736448764801	0.0556757301092148	0.509757995605469	0.542023658752441	4.96113109588623	0.642909526824951	4.45241498947144	0.236567765474319	-0.196546614170074	-0.0192016158252954	-0.951334059238434	Bartender_HumanMale_Mesh_LOD1	Bartender_HumanMale_Mesh_LOD1	-1	-1
0.0115141086280346	0.0104751586914063	0.1296776086092	0.527458906173706	0.472180664539337	4.96100616455078	0.642985582351685	4.45251131057739	0.236834108829498	-0.196148231625557	-0.019387686625123	-0.951346218585968	Bartender_HumanMale_Mesh_LOD1	Bartender_HumanMale_Mesh_LOD1	-1	-1
0.0118460776284337	0.010596364736557	0.129327937960625	0.529651641845703	0.471633613109589	4.96107625961304	0.642923712730408	4.45256757736206	0.236907973885536	-0.195766970515251	-0.0196627918630838	-0.951400697231293	Bartender_HumanMale_Mesh_LOD1	Bartender_HumanMale_Mesh_LOD1	-1	-1
0.0104101803153753	0.010596364736557	0.129327937960625	0.529651641845703	0.471633613109589	4.96112728118896	0.642952680587769	4.45260810852051	0.236825376749039	-0.195469528436661	-0.0198331847786903	-0.951478898525238	Bartender_HumanMale_Mesh_LOD1	Bartender_HumanMale_Mesh_LOD1	-1	-1
0.0115302093327045	0.010596364736557	0.129327937960625	0.529651641845703	0.471633613109589	4.96115446090698	0.642916440963745	4.45261478424072	0.236759901046753	-0.195291459560394	-0.0199543703347445	-0.951529204845428	Bartender_HumanMale_Mesh_LOD1	Bartender_HumanMale_Mesh_LOD1	-1	-1
0.0113393422216177	0.00921931862831116	0.128765031695366	0.531028628349304	0.47107070684433	4.96121692657471	0.642903923988342	4.45263385772705	0.236651942133904	-0.19514724612236	-0.02001310326159	-0.95158439874649	Bartender_HumanMale_Mesh_LOD1	Bartender_HumanMale_Mesh_LOD1	-1	-1
0.0107049709185958	0.00921931862831116	0.128765031695366	0.531028628349304	0.47107070684433	4.96124172210693	0.642918705940247	4.45264911651611	0.23665863275528	-0.195277899503708	-0.0199620425701141	-0.951557040214539	Bartender_HumanMale_Mesh_LOD1	Bartender_HumanMale_Mesh_LOD1	-1	-1
0.0118964295834303	0.00917589664459229	0.129048511385918	0.531072080135345	0.471354186534882	4.96135425567627	0.642942786216736	4.45266246795654	0.236886993050575	-0.195304155349731	-0.0199595000594854	-0.951494872570038	Bartender_HumanMale_Mesh_LOD1	Bartender_HumanMale_Mesh_LOD1	-1	-1
0.0190870389342308	0.00917589664459229	0.129048511385918	0.531072080135345	0.471354186534882	4.96140766143799	0.643017053604126	4.45266437530518	0.237049221992493	-0.195352464914322	-0.0199017804116011	-0.951445758342743	Bartender_HumanMale_Mesh_LOD1	Bartender_HumanMale_Mesh_LOD1	-1	-1
