deltaTime	avgXGazingUncertainty	avgYGazingUncertainty	gazeX	gazeY	headX	headY	headZ	headRotationX	headRotationY	headRotationZ	headRotationW	faceRaycastHitObjectName	gazeRaycastHitObjectName	faceRaycastHitTriangleName	gazeRaycastHitTriangleName
0.0122313257306814	0.0384263098239899	0.0142597556114197	0.484532207250595	0.591967165470123	1.56988537311554	0.295408010482788	1.87643480300903	-0.0155159998685122	0.853847146034241	0.014085441827774	-0.52010190486908	NPCFarDoor_HumanMale_Mesh_LOD1	TheTavern_3	-1	10
0.0105152744799852	0.0384263098239899	0.0142597556114197	0.484532207250595	0.591967165470123	1.56986665725708	0.295461237430573	1.87643647193909	-0.0155340563505888	0.853843212127686	0.0139510706067085	-0.520111441612244	NPCFarDoor_HumanMale_Mesh_LOD1	TheTavern_3	-1	10
0.0101906247437	0.038339301943779	0.0143636465072632	0.484619200229645	0.592071056365967	1.56995916366577	0.295431017875671	1.87634408473969	-0.0154366558417678	0.853845655918121	0.0138856386765838	-0.520112037658691	NPCFarDoor_HumanMale_Mesh_LOD1	TheTavern_3	-1	10
0.0111581347882748	0.038339301943779	0.0143636465072632	0.484619200229645	0.592071056365967	1.56995630264282	0.295456647872925	1.8763120174408	-0.0152224376797676	0.853902220726013	0.013742265291512	-0.520029366016388	NPCFarDoor_HumanMale_Mesh_LOD1	TheTavern_3	-1	10
0.0116560887545347	0.038339301943779	0.0143636465072632	0.484619200229645	0.592071056365967	1.57000517845154	0.295419096946716	1.87628412246704	-0.0149884894490242	0.853831112384796	0.0135670714080334	-0.520157396793365	NPCFarDoor_HumanMale_Mesh_LOD1	TheTavern_3	-1	10
0.0106189055368304	0.038339301943779	0.0143636465072632	0.484619200229645	0.592071056365967	1.57005429267883	0.2954061627388	1.87622666358948	-0.0148411141708493	0.853886723518372	0.0134929213672876	-0.520072340965271	NPCFarDoor_HumanMale_Mesh_LOD1	TheTavern_3	-1	10
0.0120524605736136	0.0372692495584488	0.0143819749355316	0.485689282417297	0.592089414596558	1.5700409412384	0.295457243919373	1.87616205215454	-0.0146840186789632	0.853906750679016	0.0133634582161903	-0.520047307014465	NPCFarDoor_HumanMale_Mesh_LOD1	TheTavern_3	-1	10
0.0111897513270378	0.0372692495584488	0.0143819749355316	0.485689282417297	0.592089414596558	1.57001137733459	0.295410990715027	1.87607991695404	-0.014693240635097	0.853924214839935	0.0133832162246108	-0.520017683506012	NPCFarDoor_HumanMale_Mesh_LOD1	TheTavern_3	-1	10
0.0109470682218671	0.0372692495584488	0.0143819749355316	0.485689282417297	0.592089414596558	1.57004642486572	0.295390248298645	1.87601149082184	-0.0144806522876024	0.853946685791016	0.0134396692737937	-0.519985437393188	NPCFarDoor_HumanMale_Mesh_LOD1	TheTavern_3	-1	10
0.01124566514045	0.037333682179451	0.0141821205615997	0.485624849796295	0.591889500617981	1.57026755809784	0.295322895050049	1.87595176696777	-0.0142824230715632	0.853986203670502	0.0133525859564543	-0.519928157329559	NPCFarDoor_HumanMale_Mesh_LOD1	TheTavern_3	-1	10
0.0109245274215937	0.037333682179451	0.0141821205615997	0.485624849796295	0.591889500617981	1.57023882865906	0.295355439186096	1.87591671943665	-0.0141199175268412	0.853968679904938	0.0131908422335982	-0.519965469837189	NPCFarDoor_HumanMale_Mesh_LOD1	TheTavern_3	-1	10
0.0110354768112302	0.0365407019853592	0.0142075419425964	0.486417829990387	0.5919149518013	1.5702189207077	0.295385122299194	1.87590265274048	-0.014116857200861	0.8539919257164	0.0131298499181867	-0.519928932189941	NPCFarDoor_HumanMale_Mesh_LOD1	TheTavern_3	-1	10
0.0108662722632289	0.0365407019853592	0.0142075419425964	0.486417829990387	0.5919149518013	1.57034361362457	0.295377612113953	1.87582659721375	-0.0139150256291032	0.853991985321045	0.0131070530042052	-0.519934952259064	NPCFarDoor_HumanMale_Mesh_LOD1	TheTavern_3	-1	10
0.0116645777598023	0.0365407019853592	0.0142075419425964	0.486417829990387	0.5919149518013	1.5703125	0.295422673225403	1.87580347061157	-0.0137874055653811	0.853987991809845	0.0130584016442299	-0.519946038722992	NPCFarDoor_HumanMale_Mesh_LOD1	TheTavern_3	-1	10
0.0195846986025572	0.0371135175228119	0.0155655145645142	0.485844999551773	0.593272924423218	1.57032346725464	0.295479416847229	1.87577545642853	-0.013666626997292	0.854062080383301	0.0129094989970326	-0.519831359386444	NPCFarDoor_HumanMale_Mesh_LOD1	TheTavern_3	-1	10
0.00638527749106288	0.0371135175228119	0.0155655145645142	0.485844999551773	0.593272924423218	1.57033979892731	0.295414209365845	1.87567698955536	-0.0133616253733635	0.854095220565796	0.0127712292596698	-0.519788265228271	NPCFarDoor_HumanMale_Mesh_LOD1	TheTavern_3	-1	10
0.00729921646416187	0.0371135175228119	0.0155655145645142	0.485844999551773	0.593272924423218	1.57029008865356	0.295466661453247	1.87563610076904	-0.0131108239293098	0.854124844074249	0.0126971257850528	-0.519747614860535	NPCFarDoor_HumanMale_Mesh_LOD1	TheTavern_3	-1	10
0.0104353567585349	0.0374046713113785	0.0156000256538391	0.485553860664368	0.593307435512543	1.57039356231689	0.295430719852448	1.875483751297	-0.0129240229725838	0.854174494743347	0.0126179084181786	-0.519672632217407	NPCFarDoor_HumanMale_Mesh_LOD1	TheTavern_3	-1	10
0.0104974173009396	0.0374046713113785	0.0156000256538391	0.485553860664368	0.593307435512543	1.57056665420532	0.29538094997406	1.87541460990906	-0.0127552086487412	0.854247689247131	0.0127240959554911	-0.519553899765015	NPCFarDoor_HumanMale_Mesh_LOD1	TheTavern_3	-1	10
0.0114365322515368	0.0374046713113785	0.0156000256538391	0.485553860664368	0.593307435512543	1.57054305076599	0.29541277885437	1.87538456916809	-0.0125588104128838	0.85424542427063	0.0126252761110663	-0.519564986228943	NPCFarDoor_HumanMale_Mesh_LOD1	TheTavern_3	-1	10
0.0109675601124763	0.0374046713113785	0.0156000256538391	0.485553860664368	0.593307435512543	1.5705578327179	0.295424520969391	1.87533903121948	-0.012398848310113	0.85431295633316	0.0125543810427189	-0.51945948600769	NPCFarDoor_HumanMale_Mesh_LOD1	TheTavern_3	-1	10
0.0114804431796074	0.0350088328123093	0.0147339999675751	0.487760782241821	0.594185590744019	1.57061266899109	0.295364618301392	1.87525343894959	-0.0122790858149529	0.854355871677399	0.0126490304246545	-0.519389450550079	NPCFarDoor_HumanMale_Mesh_LOD1	TheTavern_3	-1	10
0.0108823729678988	0.0350088328123093	0.0147339999675751	0.487760782241821	0.594185590744019	1.5705554485321	0.295431733131409	1.87517285346985	-0.0121862385421991	0.854478359222412	0.0126328356564045	-0.519190490245819	NPCFarDoor_HumanMale_Mesh_LOD1	TheTavern_3	-1	10
0.0113978907465935	0.0350088328123093	0.0147339999675751	0.487760782241821	0.594185590744019	1.57056450843811	0.295476853847504	1.87511968612671	-0.0118982223793864	0.854527235031128	0.0125027419999242	-0.51911985874176	NPCFarDoor_HumanMale_Mesh_LOD1	TheTavern_3	-1	10
0.0110012255609035	0.0350088328123093	0.0147339999675751	0.487760782241821	0.594185590744019	1.57070779800415	0.295560956001282	1.8750147819519	-0.0117511106655002	0.854562997817993	0.0125838462263346	-0.519062280654907	NPCFarDoor_HumanMale_Mesh_LOD1	TheTavern_3	-1	10
0.0111083686351776	0.00306475162506104	0.0209989547729492	0.519558012485504	0.593810260295868	1.57067763805389	0.29561311006546	1.87500512599945	-0.0114726731553674	0.854693949222565	0.0125666847452521	-0.518853366374969	NPCFarDoor_HumanMale_Mesh_LOD1	TheTavern_3	-1	10
0.0117430323734879	0.00306475162506104	0.0209989547729492	0.519558012485504	0.593810260295868	1.57077431678772	0.295611023902893	1.87491917610168	-0.0112852863967419	0.854753911495209	0.0125864436849952	-0.518758118152618	NPCFarDoor_HumanMale_Mesh_LOD1	TheTavern_3	-1	10
0.0108126997947693	0.00306475162506104	0.0209989547729492	0.519558012485504	0.593810260295868	1.57088327407837	0.295567035675049	1.87484788894653	-0.0110318996012211	0.854859530925751	0.0126758543774486	-0.518587291240692	NPCFarDoor_HumanMale_Mesh_LOD1	TheTavern_3	-1	10
0.0193926617503166	0.00369000434875488	0.0683059692382813	0.510777175426483	0.548413217067719	1.57086515426636	0.295622110366821	1.87482357025146	-0.0109175629913807	0.854916989803314	0.0126464618369937	-0.518495798110962	NPCFarDoor_HumanMale_Mesh_LOD1	TheTavern_3	-1	10
0.00536536611616611	0.00369000434875488	0.0683059692382813	0.510777175426483	0.548413217067719	1.57097244262695	0.295596837997437	1.87474024295807	-0.0107213333249092	0.854946315288544	0.0125080924481153	-0.518454790115356	NPCFarDoor_HumanMale_Mesh_LOD1	TheTavern_3	-1	10
0.00843417551368475	0.00369000434875488	0.0683059692382813	0.510777175426483	0.548413217067719	1.57114195823669	0.295512676239014	1.8746885061264	-0.0105862431228161	0.855009496212006	0.0126209510490298	-0.518350780010223	NPCFarDoor_HumanMale_Mesh_LOD1	TheTavern_3	-1	10
0.0113449040800333	0.00369000434875488	0.0683059692382813	0.510777175426483	0.548413217067719	1.57113993167877	0.29554408788681	1.87466108798981	-0.0104321902617812	0.854986011981964	0.0124072171747684	-0.518397808074951	NPCFarDoor_HumanMale_Mesh_LOD1	TheTavern_3	-1	10
0.011625642888248	0.000556528568267822	0.0659290254116058	0.50653064250946	0.546036243438721	1.57121515274048	0.295514106750488	1.87460827827454	-0.010272498242557	0.855013430118561	0.0123267937451601	-0.518357634544373	NPCFarDoor_HumanMale_Mesh_LOD1	TheTavern_3	-1	10
0.0107825482264161	0.000556528568267822	0.0659290254116058	0.50653064250946	0.546036243438721	1.57143723964691	0.295477271080017	1.87454962730408	-0.00999803654849529	0.854991376399994	0.0122374230995774	-0.518401503562927	NPCFarDoor_HumanMale_Mesh_LOD1	TheTavern_3	-1	10
0.0113165080547333	0.00109490752220154	0.0661113262176514	0.505992293357849	0.546218574047089	1.57145476341248	0.295508503913879	1.87455272674561	-0.00972570851445198	0.854939877986908	0.0121441464871168	-0.51849377155304	NPCFarDoor_HumanMale_Mesh_LOD1	TheTavern_3	-1	10
0.011093731969595	0.00109490752220154	0.0661113262176514	0.505992293357849	0.546218574047089	1.57149815559387	0.295543074607849	1.87453889846802	-0.00935540068894625	0.854933619499207	0.0121091529726982	-0.518511652946472	NPCFarDoor_HumanMale_Mesh_LOD1	TheTavern_3	-1	10
0.0108911553397775	0.00109490752220154	0.0661113262176514	0.505992293357849	0.546218574047089	1.57157802581787	0.295593202114105	1.8744523525238	-0.00899908225983381	0.854887723922729	0.012224349193275	-0.518591046333313	NPCFarDoor_HumanMale_Mesh_LOD1	TheTavern_3	-1	10
0.0113200210034847	0.00109490752220154	0.0661113262176514	0.505992293357849	0.546218574047089	1.57159006595612	0.295637607574463	1.87449860572815	-0.00866595935076475	0.854916155338287	0.012192502617836	-0.518550515174866	NPCFarDoor_HumanMale_Mesh_LOD1	TheTavern_3	-1	10
0.0117418617010117	0.000572651624679565	0.0676635801792145	0.506514549255371	0.547770857810974	1.57171487808228	0.295632898807526	1.87445211410522	-0.00860746577382088	0.854957938194275	0.0122162420302629	-0.518481969833374	NPCFarDoor_HumanMale_Mesh_LOD1	TheTavern_3	-1	10
0.0106508145108819	0.000572651624679565	0.0676635801792145	0.506514549255371	0.547770857810974	1.57190251350403	0.295531392097473	1.87441205978394	-0.00841303169727325	0.854991257190704	0.0122800441458821	-0.518428683280945	NPCFarDoor_HumanMale_Mesh_LOD1	TheTavern_3	-1	10
0.0110167413949966	0.000572651624679565	0.0676635801792145	0.506514549255371	0.547770857810974	1.57191514968872	0.295611262321472	1.87435555458069	-0.00813615601509809	0.855011224746704	0.0121987229213119	-0.518402218818665	NPCFarDoor_HumanMale_Mesh_LOD1	TheTavern_3	-1	10
0.0118337823078036	0.000572651624679565	0.0676635801792145	0.506514549255371	0.547770857810974	1.57200622558594	0.295661807060242	1.87431383132935	-0.00803818833082914	0.855004251003265	0.0122855454683304	-0.518413186073303	NPCFarDoor_HumanMale_Mesh_LOD1	TheTavern_3	-1	10
0.0174992084503174	0.00033077597618103	0.0672418177127838	0.50675642490387	0.547349095344543	1.57216429710388	0.295665740966797	1.87427759170532	-0.00780175812542439	0.855080962181091	0.0124645177274942	-0.518285989761353	NPCFarDoor_HumanMale_Mesh_LOD1	TheTavern_3	-1	10
0.00528954621404409	0.00033077597618103	0.0672418177127838	0.50675642490387	0.547349095344543	1.57216954231262	0.295766532421112	1.87418723106384	-0.00773706845939159	0.85506272315979	0.0124717354774475	-0.518316924571991	NPCFarDoor_HumanMale_Mesh_LOD1	TheTavern_3	-1	10
0.0100170290097594	0.0108243227005005	0.00536847114562988	0.517509281635284	0.619863629341125	1.57228660583496	0.295766413211823	1.8741569519043	-0.00745672080665827	0.855065882205963	0.012480778619647	-0.518315613269806	NPCFarDoor_HumanMale_Mesh_LOD1	TheTavern_3	-1	10
0.0111958989873528	0.0108243227005005	0.00536847114562988	0.517509281635284	0.619863629341125	1.57260656356812	0.295735538005829	1.87412762641907	-0.0070931613445282	0.855101764202118	0.0125214550644159	-0.518260538578033	NPCFarDoor_HumanMale_Mesh_LOD1	TheTavern_3	-1	10
0.0112968944013119	0.0108243227005005	0.00536847114562988	0.517509281635284	0.619863629341125	1.57265400886536	0.29579770565033	1.87418699264526	-0.00674613518640399	0.855128347873688	0.0122984647750854	-0.518226563930511	NPCFarDoor_HumanMale_Mesh_LOD1	TheTavern_3	-1	10
0.0112529834732413	0.0113351941108704	0.00484815239906311	0.516998410224915	0.620383977890015	1.57281172275543	0.295789539813995	1.87414968013763	-0.00652393652126193	0.855163991451263	0.0124215232208371	-0.518167614936829	NPCFarDoor_HumanMale_Mesh_LOD1	TheTavern_3	-1	10
0.0110949026420712	0.0110611319541931	0.00497403740882874	0.517272472381592	0.620258092880249	1.57306265830994	0.295788764953613	1.87409961223602	-0.00621478818356991	0.855197727680206	0.0126583473756909	-0.518110036849976	NPCFarDoor_HumanMale_Mesh_LOD1	TheTavern_3	-1	10
0.0117163928225636	0.0110611319541931	0.00497403740882874	0.517272472381592	0.620258092880249	1.57307648658752	0.295898079872131	1.87398183345795	-0.00613318011164665	0.855332612991333	0.0128315920010209	-0.517884135246277	NPCFarDoor_HumanMale_Mesh_LOD1	TheTavern_3	-1	10
0.0110550904646516	0.0100387334823608	0.00454720854759216	0.518294870853424	0.620684862136841	1.57317495346069	0.295923233032227	1.87395691871643	-0.00595047790557146	0.855351746082306	0.0129878325387836	-0.517850697040558	NPCFarDoor_HumanMale_Mesh_LOD1	TheTavern_3	-1	10
0.0113829607143998	0.0100387334823608	0.00454720854759216	0.518294870853424	0.620684862136841	1.57333981990814	0.295852184295654	1.87390542030334	-0.00584805477410555	0.855392158031464	0.0129790967330337	-0.517785370349884	NPCFarDoor_HumanMale_Mesh_LOD1	TheTavern_3	-1	10
0.0113692013546824	0.0100387334823608	0.00454720854759216	0.518294870853424	0.620684862136841	1.57339000701904	0.295884847640991	1.87389588356018	-0.005724280141294	0.855457246303558	0.0128963533788919	-0.517681181430817	NPCFarDoor_HumanMale_Mesh_LOD1	TheTavern_3	-1	10
0.0113267544656992	0.0427979975938797	0.0202254354953766	0.455115139484406	0.62768542766571	1.57349300384521	0.295907258987427	1.87387275695801	-0.0057264999486506	0.855490326881409	0.0127351218834519	-0.517630577087402	NPCFarDoor_HumanMale_Mesh_LOD1	TheTavern_3	-1	10
0.0103738810867071	0.0427979975938797	0.0202254354953766	0.455115139484406	0.62768542766571	1.5737167596817	0.295835733413696	1.87382566928864	-0.00552233308553696	0.855511903762817	0.0127238081768155	-0.517597317695618	NPCFarDoor_HumanMale_Mesh_LOD1	TheTavern_3	-1	10
0.0114014036953449	0.0427979975938797	0.0202254354953766	0.455115139484406	0.62768542766571	1.57376933097839	0.295868337154388	1.87389945983887	-0.00531167676672339	0.855579197406769	0.0124573055654764	-0.517494857311249	NPCFarDoor_HumanMale_Mesh_LOD1	TheTavern_3	-1	10
0.0171066429466009	0.0427979975938797	0.0202254354953766	0.455115139484406	0.62768542766571	1.57389140129089	0.29587197303772	1.87390613555908	-0.00518325809389353	0.855635821819305	0.0123887062072754	-0.517404139041901	NPCFarDoor_HumanMale_Mesh_LOD1	TheTavern_3	-1	10
0.00510541163384914	0.033897802233696	0.0123349726200104	0.461767256259918	0.619828939437866	1.57411539554596	0.295810282230377	1.87385272979736	-0.00506635662168264	0.855650544166565	0.0124161671847105	-0.517380356788635	NPCFarDoor_HumanMale_Mesh_LOD1	TheTavern_3	-1	10
0.0116394022479653	0.033897802233696	0.0123349726200104	0.461767256259918	0.619828939437866	1.57414472103119	0.295837938785553	1.87383556365967	-0.0049719219096005	0.855701208114624	0.0123690664768219	-0.517298579216003	NPCFarDoor_HumanMale_Mesh_LOD1	TheTavern_3	-1	10
0.0110474787652493	0.0341775864362717	0.0116664171218872	0.462047040462494	0.620497524738312	1.57416343688965	0.295899868011475	1.87387537956238	-0.00486886780709028	0.855734705924988	0.0122447349131107	-0.517247140407562	NPCFarDoor_HumanMale_Mesh_LOD1	TheTavern_3	-1	10
0.0110802659764886	0.0341775864362717	0.0116664171218872	0.462047040462494	0.620497524738312	1.57429218292236	0.29577761888504	1.87381935119629	-0.00474061444401741	0.855781674385071	0.0120568750426173	-0.517174959182739	NPCFarDoor_HumanMale_Mesh_LOD1	TheTavern_3	-1	10
0.0111071979627013	0.0341775864362717	0.0116664171218872	0.462047040462494	0.620497524738312	1.57430219650269	0.295794486999512	1.87378239631653	-0.00472344318404794	0.855870306491852	0.011764477007091	-0.517035186290741	NPCFarDoor_HumanMale_Mesh_LOD1	TheTavern_3	-1	10
0.011701756156981	0.0341775864362717	0.0116664171218872	0.462047040462494	0.620497524738312	1.57432889938354	0.295804083347321	1.87374806404114	-0.00461212173104286	0.855900526046753	0.0115071721374989	-0.516991972923279	NPCFarDoor_HumanMale_Mesh_LOD1	TheTavern_3	-1	10
0.0111429123207927	0.017068937420845	0.0302305221557617	0.478401005268097	0.58038717508316	1.57444643974304	0.295718014240265	1.87370467185974	-0.00458859885111451	0.855991303920746	0.0113799218088388	-0.516844689846039	NPCFarDoor_HumanMale_Mesh_LOD1	Cube.001	-1	33
0.0109177939593792	0.017068937420845	0.0302305221557617	0.478401005268097	0.58038717508316	1.57443952560425	0.295730769634247	1.87380290031433	-0.00443668244406581	0.85604065656662	0.0112820863723755	-0.516766428947449	NPCFarDoor_HumanMale_Mesh_LOD1	Cube.001	-1	33
0.0134953837841749	0.017068937420845	0.0302305221557617	0.478401005268097	0.58038717508316	1.57445859909058	0.295749068260193	1.87376689910889	-0.00435087131336331	0.856099486351013	0.0112765859812498	-0.516669809818268	NPCFarDoor_HumanMale_Mesh_LOD1	Cube.001	-1	33
0.00909547880291939	0.017068937420845	0.0302305221557617	0.478401005268097	0.58038717508316	1.57466852664948	0.2957763671875	1.87372410297394	-0.0044462806545198	0.856163144111633	0.0114385494962335	-0.516559898853302	NPCFarDoor_HumanMale_Mesh_LOD1	Cube.001	-1	33
0.0112117072567344	0.0185497999191284	0.0285513997077942	0.477238982915878	0.583129107952118	1.57463550567627	0.295843601226807	1.87368381023407	-0.00438248831778765	0.856199741363525	0.011417199857533	-0.516500234603882	NPCFarDoor_HumanMale_Mesh_LOD1	Cube.001	-1	32
0.0110723618417978	0.0185497999191284	0.0285513997077942	0.477238982915878	0.583129107952118	1.57462930679321	0.29588258266449	1.87361145019531	-0.00418419297784567	0.856271088123322	0.0113851400092244	-0.516384363174438	NPCFarDoor_HumanMale_Mesh_LOD1	Cube.001	-1	32
0.0110319638624787	0.0192342698574066	0.0279645919799805	0.477923452854156	0.582542300224304	1.57472848892212	0.29584938287735	1.87354636192322	-0.00390899879857898	0.856279373168945	0.011278348043561	-0.516375005245209	NPCFarDoor_HumanMale_Mesh_LOD1	Cube.001	-1	33
0.0178668927401304	0.0192342698574066	0.0279645919799805	0.477923452854156	0.582542300224304	1.57464027404785	0.29589581489563	1.87351298332214	-0.00370133365504444	0.856275320053101	0.0110467001795769	-0.516388356685638	NPCFarDoor_HumanMale_Mesh_LOD1	Cube.001	-1	33
0.00515312887728214	0.0192342698574066	0.0279645919799805	0.477923452854156	0.582542300224304	1.57468581199646	0.295836627483368	1.87347829341888	-0.00351136433891952	0.856277644634247	0.0107545154169202	-0.51639199256897	NPCFarDoor_HumanMale_Mesh_LOD1	Cube.001	-1	33
0.0101069007068872	0.0194608569145203	0.0274886786937714	0.47815003991127	0.582066416740417	1.57480263710022	0.295795381069183	1.87344872951508	-0.00349346711300313	0.856313705444336	0.0107129057869315	-0.516333103179932	NPCFarDoor_HumanMale_Mesh_LOD1	Cube.001	-1	33
0.0114520480856299	0.0210884064435959	0.025141566991806	0.476419389247894	0.584682583808899	1.57472562789917	0.295839786529541	1.8733377456665	-0.00334835983812809	0.856238782405853	0.010453786700964	-0.51646363735199	NPCFarDoor_HumanMale_Mesh_LOD1	Cube.001	-1	32
0.010976635850966	0.0210884064435959	0.025141566991806	0.476419389247894	0.584682583808899	1.57482051849365	0.295758724212646	1.87331414222717	-0.00311972550116479	0.856210827827454	0.0104191061109304	-0.516512095928192	NPCFarDoor_HumanMale_Mesh_LOD1	Cube.001	-1	32
0.0111929718405008	0.0212972313165665	0.0254966020584106	0.476628184318542	0.585037648677826	1.57491767406464	0.29575389623642	1.87325572967529	-0.00289534940384328	0.856217205524445	0.0103002293035388	-0.516505181789398	NPCFarDoor_HumanMale_Mesh_LOD1	Cube.001	-1	32
0.0113329021260142	0.0212972313165665	0.0254966020584106	0.476628184318542	0.585037648677826	1.57485175132751	0.295789480209351	1.87318181991577	-0.00257806503213942	0.856256663799286	0.010307464748621	-0.516441404819489	NPCFarDoor_HumanMale_Mesh_LOD1	Cube.001	-1	32
0.0117506440728903	0.0212972313165665	0.0254966020584106	0.476628184318542	0.585037648677826	1.57481682300568	0.295823752880096	1.8731142282486	-0.0022581226658076	0.856248378753662	0.0102196000516415	-0.51645839214325	NPCFarDoor_HumanMale_Mesh_LOD1	Cube.001	-1	32
0.0108135780319572	0.0214297622442245	0.025980532169342	0.476760745048523	0.585521578788757	1.57484030723572	0.295786499977112	1.87305343151093	-0.0021816031076014	0.856326818466187	0.0101241581141949	-0.516330540180206	NPCFarDoor_HumanMale_Mesh_LOD1	Cube.001	-1	32
0.0108381686732173	0.0214297622442245	0.025980532169342	0.476760745048523	0.585521578788757	1.57475078105927	0.295820713043213	1.87312495708466	-0.00204902957193553	0.856364667415619	0.0100038833916187	-0.516270637512207	NPCFarDoor_HumanMale_Mesh_LOD1	Cube.001	-1	32
0.011796897277236	0.0214297622442245	0.025980532169342	0.476760745048523	0.585521578788757	1.57477426528931	0.295802116394043	1.87303495407104	-0.00179776863660663	0.856405317783356	0.00978127121925354	-0.516208350658417	NPCFarDoor_HumanMale_Mesh_LOD1	Cube.001	-1	32
0.0105258133262396	0.0214297622442245	0.025980532169342	0.476760745048523	0.585521578788757	1.57471656799316	0.295700907707214	1.87294578552246	-0.00146750744897872	0.856411457061768	0.00967158284038305	-0.516201376914978	NPCFarDoor_HumanMale_Mesh_LOD1	Cube.001	-1	32
0.0117535712197423	0.0142834186553955	0.0303034782409668	0.469614386558533	0.589844524860382	1.57461285591125	0.295773088932037	1.87288856506348	-0.00104313448537141	0.856403172016144	0.00945426616817713	-0.516220092773438	NPCFarDoor_HumanMale_Mesh_LOD1	Cube.001	-1	1
0.0107840113341808	0.0142834186553955	0.0303034782409668	0.469614386558533	0.589844524860382	1.57450103759766	0.295862019062042	1.87286472320557	-0.000715942296665162	0.856417179107666	0.00928152445703745	-0.516200482845306	NPCFarDoor_HumanMale_Mesh_LOD1	Cube.001	-1	1
0.0175785422325134	0.0125914812088013	0.0323927104473114	0.467922449111938	0.591933727264404	1.57450699806213	0.295850396156311	1.8727970123291	-0.000394950591726229	0.856479585170746	0.0093566756695509	-0.51609605550766	NPCFarDoor_HumanMale_Mesh_LOD1	Cube.001	-1	1
0.00433667283505201	0.0125914812088013	0.0323927104473114	0.467922449111938	0.591933727264404	1.57433938980103	0.29597008228302	1.87284684181213	-0.000194903637748212	0.856528580188751	0.00941551104187965	-0.516013741493225	NPCFarDoor_HumanMale_Mesh_LOD1	Cube.001	-1	1
0.0120217222720385	0.0125914812088013	0.0323927104473114	0.467922449111938	0.591933727264404	1.57426452636719	0.296012818813324	1.87285280227661	4.05676873924676E-05	0.856678664684296	0.00941844191402197	-0.515764534473419	NPCFarDoor_HumanMale_Mesh_LOD1	Cube.001	-1	1
0.010573823004961	0.0125914812088013	0.0323927104473114	0.467922449111938	0.591933727264404	1.57433128356934	0.296046197414398	1.87281608581543	0.000564197776839137	0.856724441051483	0.00953541416674852	-0.51568591594696	NPCFarDoor_HumanMale_Mesh_LOD1	Cube.001	-1	1
0.0112752318382263	0.011847198009491	0.0352609753608704	0.467178165912628	0.594802021980286	1.57418060302734	0.296129941940308	1.87283396720886	0.00119098648428917	0.856738388538361	0.00939794909209013	-0.515664160251617	NPCFarDoor_HumanMale_Mesh_LOD1	Cube.001	-1	1
0.0110706053674221	0.011847198009491	0.0352609753608704	0.467178165912628	0.594802021980286	1.5739905834198	0.296203911304474	1.87283849716187	0.0017813901649788	0.856799125671387	0.00942426081746817	-0.51556122303009	NPCFarDoor_HumanMale_Mesh_LOD1	Cube.001	-1	1
0.0117740631103516	0.0124419033527374	0.0353154838085175	0.467772871255875	0.59485650062561	1.57398366928101	0.296228110790253	1.87283515930176	0.00217104959301651	0.856845855712891	0.00961971096694469	-0.515478372573853	NPCFarDoor_HumanMale_Mesh_LOD1	Cube.001	-1	1
0.0105053214356303	0.0124419033527374	0.0353154838085175	0.467772871255875	0.59485650062561	1.57375466823578	0.296340942382813	1.87286901473999	0.00234992452897131	0.856866121292114	0.00971556268632412	-0.515442132949829	NPCFarDoor_HumanMale_Mesh_LOD1	Cube.001	-1	1
0.0114093078300357	0.0124419033527374	0.0353154838085175	0.467772871255875	0.59485650062561	1.57365417480469	0.296312689781189	1.87288010120392	0.00279845111072063	0.856847167015076	0.00993368867784739	-0.515467286109924	NPCFarDoor_HumanMale_Mesh_LOD1	Cube.001	-1	1
0.0109216002747417	0.0124419033527374	0.0353154838085175	0.467772871255875	0.59485650062561	1.5736495256424	0.296289324760437	1.87289583683014	0.00324603798799217	0.856733500957489	0.0100941397249699	-0.51565033197403	NPCFarDoor_HumanMale_Mesh_LOD1	Cube.001	-1	1
0.0114453146234155	0.0134568214416504	0.0349928438663483	0.468787789344788	0.594533920288086	1.57341361045837	0.296292424201965	1.87280201911926	0.003942028619349	0.856623649597168	0.0100736608728766	-0.515828311443329	NPCFarDoor_HumanMale_Mesh_LOD1	Cube.001	-1	30
0.0116613581776619	0.0134568214416504	0.0349928438663483	0.468787789344788	0.594533920288086	1.57325673103333	0.29625016450882	1.8728404045105	0.00460618687793612	0.856484770774841	0.0101943407207727	-0.516051173210144	NPCFarDoor_HumanMale_Mesh_LOD1	Cube.001	-1	30
0.0106268096715212	0.0134568214416504	0.0349928438663483	0.468787789344788	0.594533920288086	1.57317352294922	0.296261966228485	1.87288224697113	0.0054706814698875	0.856388986110687	0.0102375280112028	-0.51620078086853	NPCFarDoor_HumanMale_Mesh_LOD1	Cube.001	-1	30
0.0113103603944182	0.0135577768087387	0.0348587036132813	0.468888759613037	0.594399750232697	1.57293438911438	0.296364545822144	1.87281024456024	0.00665740668773651	0.856167733669281	0.0101041356101632	-0.516556262969971	NPCFarDoor_HumanMale_Mesh_LOD1	Cube.001	-1	31
0.0169157758355141	0.0135577768087387	0.0348587036132813	0.468888759613037	0.594399750232697	1.57273590564728	0.296426057815552	1.87285971641541	0.0082757081836462	0.85590672492981	0.0101522738113999	-0.516964316368103	NPCFarDoor_HumanMale_Mesh_LOD1	Cube.001	-1	31
0.00519821094349027	0.0135577768087387	0.0348587036132813	0.468888759613037	0.594399750232697	1.57260966300964	0.29648494720459	1.87286710739136	0.0100473379716277	0.855546474456787	0.00982931442558765	-0.517535269260406	NPCFarDoor_HumanMale_Mesh_LOD1	Cube.001	-1	31
0.0112281003966928	0.0187976658344269	0.0275909900665283	0.502376675605774	0.603470146656036	1.57229495048523	0.296662509441376	1.87287199497223	0.0116319861263037	0.855217397212982	0.00965114962309599	-0.518049120903015	NPCFarDoor_HumanMale_Mesh_LOD1	TheTavern_3	-1	10
0.0119257029145956	0.0187976658344269	0.0275909900665283	0.502376675605774	0.603470146656036	1.57218980789185	0.296686112880707	1.87291741371155	0.0136236445978284	0.854910850524902	0.00934227928519249	-0.518511891365051	NPCFarDoor_HumanMale_Mesh_LOD1	TheTavern_3	-1	10
0.0104289157316089	0.0187976658344269	0.0275909900665283	0.502376675605774	0.603470146656036	1.57209694385529	0.296722412109375	1.87286198139191	0.0160411410033703	0.854518890380859	0.00915865786373615	-0.519091844558716	NPCFarDoor_HumanMale_Mesh_LOD1	TheTavern_3	-1	10
0.0119725419208407	0.0233505517244339	0.029927134513855	0.49782383441925	0.605806291103363	1.57180345058441	0.296868622303009	1.87303745746613	0.0185735486447811	0.854202687740326	0.00890428107231855	-0.519532144069672	NPCFarDoor_HumanMale_Mesh_LOD1	TheTavern_3	-1	10
0.010501223616302	0.0233505517244339	0.029927134513855	0.49782383441925	0.605806291103363	1.57161068916321	0.296948313713074	1.87297821044922	0.0215079970657825	0.853946566581726	0.00881654862314463	-0.519841253757477	NPCFarDoor_HumanMale_Mesh_LOD1	TheTavern_3	-1	10
0.0116616506129503	0.0233505517244339	0.029927134513855	0.49782383441925	0.605806291103363	1.57160544395447	0.297004222869873	1.87285876274109	0.0246031936258078	0.853708624839783	0.00858204532414675	-0.520098686218262	NPCFarDoor_HumanMale_Mesh_LOD1	TheTavern_3	-1	10
0.0111636975780129	0.039762020111084	0.00441527366638184	0.430780857801437	0.641240000724792	1.57141888141632	0.297076284885406	1.87275683879852	0.0274111554026604	0.853578925132751	0.00838354602456093	-0.520174443721771	NPCFarDoor_HumanMale_Mesh_LOD1	TheTavern_3	-1	10
0.0114520480856299	0.039762020111084	0.00441527366638184	0.430780857801437	0.641240000724792	1.57130789756775	0.297131896018982	1.87263441085815	0.0296220481395721	0.853440821170807	0.00829325243830681	-0.520281136035919	NPCFarDoor_HumanMale_Mesh_LOD1	TheTavern_3	-1	10
0.0115629965439439	0.039762020111084	0.00441527366638184	0.430780857801437	0.641240000724792	1.57133281230927	0.297161340713501	1.87251937389374	0.0307687148451805	0.853513479232788	0.00844578724354506	-0.520093083381653	NPCFarDoor_HumanMale_Mesh_LOD1	TheTavern_3	-1	10
0.0110951960086823	0.0056128203868866	0.032247006893158	0.473022162914276	0.604633390903473	1.57111144065857	0.297290623188019	1.87249314785004	0.0313302986323833	0.853679776191711	0.00874365121126175	-0.519781589508057	NPCFarDoor_HumanMale_Mesh_LOD1	TheTavern_3	-1	10
0.0108809089288116	0.0056128203868866	0.032247006893158	0.473022162914276	0.604633390903473	1.57108044624329	0.297294974327087	1.87242126464844	0.0310654938220978	0.854017376899719	0.00910264905542135	-0.519236445426941	NPCFarDoor_HumanMale_Mesh_LOD1	TheTavern_3	-1	10
0.0110372332856059	0.0056128203868866	0.032247006893158	0.473022162914276	0.604633390903473	1.57124161720276	0.297351837158203	1.87233996391296	0.0305387731641531	0.854418635368347	0.00946113001555204	-0.518600821495056	NPCFarDoor_HumanMale_Mesh_LOD1	TheTavern_3	-1	10
0.0172553546726704	0.00527231395244598	0.0342189371585846	0.473362684249878	0.606605291366577	1.57116222381592	0.297412395477295	1.87217175960541	0.0301384907215834	0.854759395122528	0.00971631053835154	-0.518057525157928	NPCFarDoor_HumanMale_Mesh_LOD1	TheTavern_3	-1	10
0.0120199657976627	0.00351683795452118	0.034374475479126	0.475118160247803	0.606760859489441	1.57111382484436	0.297431707382202	1.87212920188904	0.0291212666779757	0.855226337909698	0.0101088471710682	-0.517337083816528	NPCFarDoor_HumanMale_Mesh_LOD1	TheTavern_3	-1	10
0.00475031649693847	0.00351683795452118	0.034374475479126	0.475118160247803	0.606760859489441	1.57104289531708	0.297286033630371	1.87203860282898	0.0282544866204262	0.855592310428619	0.0103904139250517	-0.516774296760559	NPCFarDoor_HumanMale_Mesh_LOD1	TheTavern_3	-1	10
0.00627725617960095	0.00351683795452118	0.034374475479126	0.475118160247803	0.606760859489441	1.57092452049255	0.297332346439362	1.87196898460388	0.0275198556482792	0.855915546417236	0.0106285624206066	-0.516273438930511	NPCFarDoor_HumanMale_Mesh_LOD1	TheTavern_3	-1	10
0.0114403376355767	0.0030512809753418	0.0340996384620667	0.475583702325821	0.606486022472382	1.5708224773407	0.297355651855469	1.87199831008911	0.026619341224432	0.856087625026703	0.0109422989189625	-0.516028702259064	NPCFarDoor_HumanMale_Mesh_LOD1	TheTavern_3	-1	10
0.0114052090793848	0.0030512809753418	0.0340996384620667	0.475583702325821	0.606486022472382	1.57087218761444	0.297330617904663	1.87197065353394	0.0258398205041885	0.856062114238739	0.0111245336011052	-0.516106784343719	NPCFarDoor_HumanMale_Mesh_LOD1	TheTavern_3	-1	10
0.0108943749219179	0.0030512809753418	0.0340996384620667	0.475583702325821	0.606486022472382	1.57073581218719	0.297340095043182	1.87216603755951	0.0250905472785234	0.856050550937653	0.0112233543768525	-0.516160905361176	NPCFarDoor_HumanMale_Mesh_LOD1	TheTavern_3	-1	10
0.0110296215862036	0.00119400024414063	0.0360827445983887	0.479828983545303	0.608469128608704	1.57056224346161	0.297383904457092	1.87224507331848	0.0243576504290104	0.855755209922791	0.0112656205892563	-0.516684412956238	NPCFarDoor_HumanMale_Mesh_LOD1	TheTavern_3	-1	10
0.0113387564197183	0.00119400024414063	0.0360827445983887	0.479828983545303	0.608469128608704	1.57046341896057	0.297200441360474	1.87228679656982	0.0236159339547157	0.855466723442078	0.0112267415970564	-0.51719719171524	NPCFarDoor_HumanMale_Mesh_LOD1	TheTavern_3	-1	10
0.0113191427662969	0.000660121440887451	0.0366536974906921	0.47929510474205	0.609040081501007	1.57033729553223	0.297159433364868	1.87240982055664	0.0229835510253906	0.8550745844841	0.011056306771934	-0.517877399921417	NPCFarDoor_HumanMale_Mesh_LOD1	TheTavern_3	-1	10
0.0108715416863561	0.000660121440887451	0.0366536974906921	0.47929510474205	0.609040081501007	1.57030951976776	0.297049999237061	1.87244534492493	0.0226292796432972	0.854667842388153	0.0107783228158951	-0.518569886684418	NPCFarDoor_HumanMale_Mesh_LOD1	TheTavern_3	-1	10
0.0111224204301834	0.000660121440887451	0.0366536974906921	0.47929510474205	0.609040081501007	1.57044756412506	0.296907186508179	1.87248075008392	0.022380081936717	0.85429722070694	0.0106334360316396	-0.519193887710571	NPCFarDoor_HumanMale_Mesh_LOD1	TheTavern_3	-1	10
0.011749473400414	0.000660121440887451	0.0366536974906921	0.47929510474205	0.609040081501007	1.57033729553223	0.296875059604645	1.87256050109863	0.0223853290081024	0.85400927066803	0.0101934634149075	-0.519676089286804	NPCFarDoor_HumanMale_Mesh_LOD1	TheTavern_3	-1	10
0.0106575470417738	0.000355198979377747	0.0369153618812561	0.478279769420624	0.609301745891571	1.57032299041748	0.296798825263977	1.87262082099915	0.0224039871245623	0.853810727596283	0.00993593037128448	-0.520006358623505	NPCFarDoor_HumanMale_Mesh_LOD1	TheTavern_3	-1	10
0.017090542241931	0.000355198979377747	0.0369153618812561	0.478279769420624	0.609301745891571	1.57050490379334	0.296740412712097	1.87261545658112	0.0223957281559706	0.853553593158722	0.00987220462411642	-0.520429849624634	NPCFarDoor_HumanMale_Mesh_LOD1	TheTavern_3	-1	10
0.00483696768060327	0.000355198979377747	0.0369153618812561	0.478279769420624	0.609301745891571	1.57043552398682	0.29675829410553	1.87269842624664	0.0222725793719292	0.853457629680634	0.00980325508862734	-0.5205939412117	NPCFarDoor_HumanMale_Mesh_LOD1	TheTavern_3	-1	10
0.0114081362262368	0.000355198979377747	0.0369153618812561	0.478279769420624	0.609301745891571	1.57045841217041	0.296745896339417	1.87271547317505	0.0222045797854662	0.853400588035584	0.00991521775722504	-0.52068817615509	NPCFarDoor_HumanMale_Mesh_LOD1	TheTavern_3	-1	10
0.0112781589850783	0.0071200430393219	0.0330697596073151	0.485755026340485	0.605456113815308	1.57060062885284	0.296744704246521	1.87267780303955	0.0221659913659096	0.853413283824921	0.0103074731305242	-0.520661473274231	NPCFarDoor_HumanMale_Mesh_LOD1	TheTavern_3	-1	10
0.0115817319601774	0.0071200430393219	0.0330697596073151	0.485755026340485	0.605456113815308	1.57052910327911	0.296776533126831	1.87277495861053	0.0218200385570526	0.853488326072693	0.0106457946822047	-0.520546078681946	NPCFarDoor_HumanMale_Mesh_LOD1	TheTavern_3	-1	10
0.0108548551797867	0.0127451568841934	0.0286635756492615	0.491380155086517	0.601049959659576	1.57048761844635	0.296818733215332	1.87271869182587	0.0213547069579363	0.853597402572632	0.0108750611543655	-0.52038186788559	NPCFarDoor_HumanMale_Mesh_LOD1	TheTavern_3	-1	10
0.0107790352776647	0.0127451568841934	0.0286635756492615	0.491380155086517	0.601049959659576	1.57050728797913	0.296713471412659	1.87265801429749	0.0212453808635473	0.853699028491974	0.0110703269019723	-0.520215451717377	NPCFarDoor_HumanMale_Mesh_LOD1	TheTavern_3	-1	10
0.0114599512889981	0.0127451568841934	0.0286635756492615	0.491380155086517	0.601049959659576	1.57044649124146	0.296747267246246	1.87260401248932	0.0212049745023251	0.853726267814636	0.0110625252127647	-0.520172595977783	NPCFarDoor_HumanMale_Mesh_LOD1	TheTavern_3	-1	10
0.011397304944694	0.0171859115362167	0.123064428567886	0.486650884151459	0.502874374389648	1.57043719291687	0.296746969223022	1.8726145029068	0.0211210772395134	0.853812873363495	0.0108485789969563	-0.520038247108459	NPCFarDoor_HumanMale_Mesh_LOD1	NPCFarDoor_HumanMale_Mesh_LOD1	-1	-1
0.0107866460457444	0.0171859115362167	0.123064428567886	0.486650884151459	0.502874374389648	1.57051777839661	0.296653032302856	1.87258267402649	0.0210804101079702	0.853929042816162	0.0107697611674666	-0.519850730895996	NPCFarDoor_HumanMale_Mesh_LOD1	NPCFarDoor_HumanMale_Mesh_LOD1	-1	-1
0.0116783371195197	0.0171859115362167	0.123064428567886	0.486650884151459	0.502874374389648	1.57048010826111	0.296655476093292	1.87251567840576	0.0207737646996975	0.853924810886383	0.0104309832677245	-0.519877076148987	NPCFarDoor_HumanMale_Mesh_LOD1	NPCFarDoor_HumanMale_Mesh_LOD1	-1	-1
0.0106549123302102	0.0169222801923752	0.123678207397461	0.486387252807617	0.503488183021545	1.57048416137695	0.296647667884827	1.87253081798553	0.0204561371356249	0.85400515794754	0.0101985139772296	-0.51976215839386	NPCFarDoor_HumanMale_Mesh_LOD1	NPCFarDoor_HumanMale_Mesh_LOD1	-1	-1
0.0109813194721937	0.0169222801923752	0.123678207397461	0.486387252807617	0.503488183021545	1.57066667079926	0.296602308750153	1.87248945236206	0.0203588791191578	0.854006409645081	0.0102620460093021	-0.519762635231018	NPCFarDoor_HumanMale_Mesh_LOD1	NPCFarDoor_HumanMale_Mesh_LOD1	-1	-1
0.0118715465068817	0.0169222801923752	0.123678207397461	0.486387252807617	0.503488183021545	1.57064819335938	0.296687483787537	1.87245392799377	0.0203719325363636	0.854087889194489	0.0101890731602907	-0.519629657268524	NPCFarDoor_HumanMale_Mesh_LOD1	NPCFarDoor_HumanMale_Mesh_LOD1	-1	-1
0.0178900193423033	0.0173812657594681	0.124135792255402	0.486846268177032	0.503945767879486	1.57074213027954	0.296665251255035	1.87242960929871	0.0205240566283464	0.854065656661987	0.0101790903136134	-0.519660472869873	NPCFarDoor_HumanMale_Mesh_LOD1	NPCFarDoor_HumanMale_Mesh_LOD1	-1	-1
0.00534780183807015	0.0173812657594681	0.124135792255402	0.486846268177032	0.503945767879486	1.57085061073303	0.296633780002594	1.87236988544464	0.0207403991371393	0.854035675525665	0.0101357223466039	-0.519702076911926	NPCFarDoor_HumanMale_Mesh_LOD1	NPCFarDoor_HumanMale_Mesh_LOD1	-1	-1
0.0101988213136792	0.0173812657594681	0.124135792255402	0.486846268177032	0.503945767879486	1.57082962989807	0.29671037197113	1.8724045753479	0.0209758672863245	0.854026675224304	0.0102543365210295	-0.51970499753952	NPCFarDoor_HumanMale_Mesh_LOD1	NPCFarDoor_HumanMale_Mesh_LOD1	-1	-1
0.0108548551797867	0.0173812657594681	0.124135792255402	0.486846268177032	0.503945767879486	1.57094573974609	0.296722233295441	1.87235152721405	0.0210809521377087	0.854045927524567	0.0106202103197575	-0.519661903381348	NPCFarDoor_HumanMale_Mesh_LOD1	NPCFarDoor_HumanMale_Mesh_LOD1	-1	-1
0.0113794477656484	0.0181095749139786	0.12410432100296	0.487574577331543	0.503914296627045	1.57120609283447	0.296865105628967	1.87229990959167	0.0213677641004324	0.85405045747757	0.0110059781000018	-0.519634604454041	NPCFarDoor_HumanMale_Mesh_LOD1	NPCFarDoor_HumanMale_Mesh_LOD1	-1	-1
0.0110884625464678	0.0181095749139786	0.12410432100296	0.487574577331543	0.503914296627045	1.57119965553284	0.296945691108704	1.87242197990417	0.0214224550873041	0.854097902774811	0.0112196216359735	-0.51954972743988	NPCFarDoor_HumanMale_Mesh_LOD1	NPCFarDoor_HumanMale_Mesh_LOD1	-1	-1
0.0112222451716661	0.00648944079875946	0.0599539875984192	0.497647523880005	0.568396389484406	1.57120156288147	0.297029435634613	1.8724125623703	0.0215473994612694	0.854196608066559	0.0113187422975898	-0.519380152225494	NPCFarDoor_HumanMale_Mesh_LOD1	TheTavern_3	-1	10
0.0108867641538382	0.00648944079875946	0.0599539875984192	0.497647523880005	0.568396389484406	1.57126307487488	0.296968221664429	1.87232613563538	0.0217077843844891	0.854195773601532	0.0114551680162549	-0.519371867179871	NPCFarDoor_HumanMale_Mesh_LOD1	TheTavern_3	-1	10
0.0117163928225636	0.00648944079875946	0.0599539875984192	0.497647523880005	0.568396389484406	1.57122552394867	0.297022223472595	1.87230467796326	0.0221150666475296	0.854280352592468	0.011403207667172	-0.519216656684875	NPCFarDoor_HumanMale_Mesh_LOD1	TheTavern_3	-1	10
0.0105319609865546	0.00648944079875946	0.0599539875984192	0.497647523880005	0.568396389484406	1.57121455669403	0.297029972076416	1.87224507331848	0.0227279551327229	0.854276716709137	0.0112942205742002	-0.519198536872864	NPCFarDoor_HumanMale_Mesh_LOD1	TheTavern_3	-1	10
0.0115855373442173	0.017026960849762	0.122588977217674	0.489197850227356	0.504362761974335	1.57137835025787	0.297044634819031	1.87218880653381	0.0229416601359844	0.854303300380707	0.0110920630395412	-0.519149780273438	NPCFarDoor_HumanMale_Mesh_LOD1	NPCFarDoor_HumanMale_Mesh_LOD1	-1	-1
0.0113932061940432	0.017026960849762	0.122588977217674	0.489197850227356	0.504362761974335	1.57133424282074	0.297065496444702	1.87205100059509	0.023318950086832	0.854339241981506	0.0106838978827	-0.519082427024841	NPCFarDoor_HumanMale_Mesh_LOD1	NPCFarDoor_HumanMale_Mesh_LOD1	-1	-1
0.011676287278533	0.00924164056777954	0.118187412619591	0.481412529945374	0.499961197376251	1.5713357925415	0.297067284584045	1.87198758125305	0.0234545394778252	0.854345798492432	0.0104816416278481	-0.519069612026215	NPCFarDoor_HumanMale_Mesh_LOD1	NPCFarDoor_HumanMale_Mesh_LOD1	-1	-1
0.0112664494663477	0.00924164056777954	0.118187412619591	0.481412529945374	0.499961197376251	1.57132303714752	0.296978950500488	1.87186121940613	0.0235378928482533	0.854342401027679	0.0105343367904425	-0.519070386886597	NPCFarDoor_HumanMale_Mesh_LOD1	NPCFarDoor_HumanMale_Mesh_LOD1	-1	-1
0.0174222178757191	0.00924164056777954	0.118187412619591	0.481412529945374	0.499961197376251	1.57117700576782	0.29710066318512	1.8719310760498	0.0236683078110218	0.85441666841507	0.0105720805004239	-0.518941402435303	NPCFarDoor_HumanMale_Mesh_LOD1	NPCFarDoor_HumanMale_Mesh_LOD1	-1	-1
0.00515722716227174	0.00924164056777954	0.118187412619591	0.481412529945374	0.499961197376251	1.57112741470337	0.297172009944916	1.87183928489685	0.024079754948616	0.854394674301147	0.0106147602200508	-0.518957912921906	NPCFarDoor_HumanMale_Mesh_LOD1	NPCFarDoor_HumanMale_Mesh_LOD1	-1	-1
0.0121716065332294	0.00837256014347076	0.11622978746891	0.478188037872314	0.498623609542847	1.57109320163727	0.29706883430481	1.87173569202423	0.0245835985988379	0.85446834564209	0.0107768392190337	-0.51880955696106	NPCFarDoor_HumanMale_Mesh_LOD1	NPCFarDoor_HumanMale_Mesh_LOD1	-1	-1
0.0115553857758641	0.00837256014347076	0.11622978746891	0.478188037872314	0.498623609542847	1.57098913192749	0.297136068344116	1.87176036834717	0.0248759295791388	0.854555726051331	0.0107497908174992	-0.518652200698853	NPCFarDoor_HumanMale_Mesh_LOD1	NPCFarDoor_HumanMale_Mesh_LOD1	-1	-1
0.0109268696978688	0.00837256014347076	0.11622978746891	0.478188037872314	0.498623609542847	1.57089877128601	0.297182202339172	1.87171363830566	0.0251365881413221	0.854697525501251	0.0107072610408068	-0.518406927585602	NPCFarDoor_HumanMale_Mesh_LOD1	NPCFarDoor_HumanMale_Mesh_LOD1	-1	-1
0.0118074361234903	0.0080769807100296	0.116933614015579	0.47788280248642	0.498650401830673	1.57093596458435	0.297216296195984	1.87158155441284	0.0252676270902157	0.854722261428833	0.0107326144352555	-0.518359243869781	NPCFarDoor_HumanMale_Mesh_LOD1	NPCFarDoor_HumanMale_Mesh_LOD1	-1	-1
0.0114257009699941	0.0080769807100296	0.116933614015579	0.47788280248642	0.498650401830673	1.57088470458984	0.2972252368927	1.87154400348663	0.0254119038581848	0.854777812957764	0.0106450840830803	-0.518262267112732	NPCFarDoor_HumanMale_Mesh_LOD1	NPCFarDoor_HumanMale_Mesh_LOD1	-1	-1
0.0109745860099792	0.0080769807100296	0.116933614015579	0.47788280248642	0.498650401830673	1.57092499732971	0.297174751758575	1.87148821353912	0.0254647340625525	0.854831278324127	0.0106061026453972	-0.518172323703766	NPCFarDoor_HumanMale_Mesh_LOD1	NPCFarDoor_HumanMale_Mesh_LOD1	-1	-1
0.0121666295453906	0.00907929241657257	0.115571230649948	0.478885114192963	0.497288018465042	1.57086765766144	0.297123372554779	1.87145912647247	0.0254568625241518	0.854861617088318	0.0105710439383984	-0.518123328685761	NPCFarDoor_HumanMale_Mesh_LOD1	NPCFarDoor_HumanMale_Mesh_LOD1	-1	-1
0.0104526281356812	0.00907929241657257	0.115571230649948	0.478885114192963	0.497288018465042	1.57084453105927	0.297105610370636	1.87139797210693	0.0257064197212458	0.854876577854156	0.0105810314416885	-0.518086135387421	NPCFarDoor_HumanMale_Mesh_LOD1	NPCFarDoor_HumanMale_Mesh_LOD1	-1	-1
0.0117889931425452	0.00907929241657257	0.115571230649948	0.478885114192963	0.497288018465042	1.57078087329865	0.297137260437012	1.87136554718018	0.0258668158203363	0.85496062040329	0.0107328072190285	-0.517936289310455	NPCFarDoor_HumanMale_Mesh_LOD1	NPCFarDoor_HumanMale_Mesh_LOD1	-1	-1
0.0115960761904716	0.0209321528673172	0.132299989461899	0.509370505809784	0.47959765791893	1.57076144218445	0.297144770622253	1.87128710746765	0.0260940417647362	0.854982972145081	0.0109155233949423	-0.517884194850922	NPCFarDoor_HumanMale_Mesh_LOD1	NPCFarDoor_HumanMale_Mesh_LOD1	-1	-1
0.0109283328056335	0.0209321528673172	0.132299989461899	0.509370505809784	0.47959765791893	1.57067680358887	0.297180891036987	1.87127459049225	0.0263256393373013	0.855059504508972	0.0111268842592835	-0.517741560935974	NPCFarDoor_HumanMale_Mesh_LOD1	NPCFarDoor_HumanMale_Mesh_LOD1	-1	-1
0.0112933814525604	0.0209321528673172	0.132299989461899	0.509370505809784	0.47959765791893	1.57065653800964	0.297208666801453	1.87121081352234	0.0265055038034916	0.855068564414978	0.0111272055655718	-0.517717599868774	NPCFarDoor_HumanMale_Mesh_LOD1	NPCFarDoor_HumanMale_Mesh_LOD1	-1	-1
0.017362792044878	0.0155691206455231	0.0138100683689117	0.50541365146637	0.597693800926209	1.57071423530579	0.297229528427124	1.87119686603546	0.0266690757125616	0.855075657367706	0.011209623888135	-0.517695665359497	NPCFarDoor_HumanMale_Mesh_LOD1	TheTavern_3	-1	10
0.0052658342756331	0.0155691206455231	0.0138100683689117	0.50541365146637	0.597693800926209	1.57062602043152	0.297274529933929	1.87119221687317	0.0268772803246975	0.855150401592255	0.0112712727859616	-0.517560064792633	NPCFarDoor_HumanMale_Mesh_LOD1	TheTavern_3	-1	10
0.0109213069081306	0.0155691206455231	0.0138100683689117	0.50541365146637	0.597693800926209	1.5705623626709	0.297313332557678	1.87113189697266	0.0269979313015938	0.855173230171204	0.0112173864617944	-0.517517268657684	NPCFarDoor_HumanMale_Mesh_LOD1	TheTavern_3	-1	10
0.0112319057807326	0.0154846161603928	0.0140254497528076	0.505498111248016	0.597909152507782	1.57053375244141	0.297282755374908	1.87109470367432	0.0270806886255741	0.855200409889221	0.0111971208825707	-0.517468333244324	NPCFarDoor_HumanMale_Mesh_LOD1	TheTavern_3	-1	10
0.0109230633825064	0.0154846161603928	0.0140254497528076	0.505498111248016	0.597909152507782	1.57048141956329	0.297305822372437	1.87105464935303	0.0272029917687178	0.855187654495239	0.0110729485750198	-0.517485797405243	NPCFarDoor_HumanMale_Mesh_LOD1	TheTavern_3	-1	10
0.0113162156194448	0.0154846161603928	0.0140254497528076	0.505498111248016	0.597909152507782	1.57061290740967	0.29729151725769	1.87100040912628	0.0272137243300676	0.855262815952301	0.0111499689519405	-0.51735931634903	NPCFarDoor_HumanMale_Mesh_LOD1	TheTavern_3	-1	10
0.0115594835951924	0.0154846161603928	0.0140254497528076	0.505498111248016	0.597909152507782	1.57054877281189	0.297322750091553	1.8709933757782	0.0272071994841099	0.855303525924683	0.0111005855724216	-0.517293393611908	NPCFarDoor_HumanMale_Mesh_LOD1	TheTavern_3	-1	10
0.0109552657231689	0.0133382976055145	0.0164086222648621	0.507644414901733	0.600292325019836	1.57058429718018	0.297288596630096	1.87094354629517	0.0271422769874334	0.855307877063751	0.0110740838572383	-0.517290234565735	NPCFarDoor_HumanMale_Mesh_LOD1	TheTavern_3	-1	10
0.0110304998233914	0.0133382976055145	0.0164086222648621	0.507644414901733	0.600292325019836	1.57074618339539	0.2972491979599	1.87091183662415	0.0270565859973431	0.855357468128204	0.0111824376508594	-0.517210364341736	NPCFarDoor_HumanMale_Mesh_LOD1	TheTavern_3	-1	10
0.0118935015052557	0.0133382976055145	0.0164086222648621	0.507644414901733	0.600292325019836	1.57070469856262	0.29731297492981	1.87086772918701	0.0270738080143929	0.855366408824921	0.0111521081998944	-0.517195284366608	NPCFarDoor_HumanMale_Mesh_LOD1	TheTavern_3	-1	10
0.0107146315276623	0.0133382976055145	0.0164086222648621	0.507644414901733	0.600292325019836	1.57069170475006	0.297357797622681	1.87087655067444	0.0270052850246429	0.855363786220551	0.0112209916114807	-0.517201721668243	NPCFarDoor_HumanMale_Mesh_LOD1	TheTavern_3	-1	10
0.0113932061940432	0.0132703334093094	0.11762435734272	0.482110261917114	0.500473022460938	1.57074403762817	0.297343611717224	1.87080121040344	0.0269185248762369	0.855333387851715	0.0114831021055579	-0.517250716686249	NPCFarDoor_HumanMale_Mesh_LOD1	NPCFarDoor_HumanMale_Mesh_LOD1	-1	-1
0.0111572565510869	0.0132703334093094	0.11762435734272	0.482110261917114	0.500473022460938	1.57072615623474	0.297391772270203	1.87091326713562	0.0267919097095728	0.855369031429291	0.0115476073697209	-0.517196893692017	NPCFarDoor_HumanMale_Mesh_LOD1	NPCFarDoor_HumanMale_Mesh_LOD1	-1	-1
0.0114766377955675	0.0122315585613251	0.117623507976532	0.48305356502533	0.498691380023956	1.570760846138	0.297407627105713	1.87089657783508	0.0266853347420692	0.855429232120514	0.0117293745279312	-0.517098903656006	NPCFarDoor_HumanMale_Mesh_LOD1	NPCFarDoor_HumanMale_Mesh_LOD1	-1	-1
0.0161441080272198	0.0122315585613251	0.117623507976532	0.48305356502533	0.498691380023956	1.57098364830017	0.297350704669952	1.87084627151489	0.0267590880393982	0.855454921722412	0.0118706468492746	-0.517049312591553	NPCFarDoor_HumanMale_Mesh_LOD1	NPCFarDoor_HumanMale_Mesh_LOD1	-1	-1
0.0122002949938178	0.0122315585613251	0.117623507976532	0.48305356502533	0.498691380023956	1.57097196578979	0.29745227098465	1.87080430984497	0.026765638962388	0.85548460483551	0.0119442623108625	-0.51699823141098	NPCFarDoor_HumanMale_Mesh_LOD1	NPCFarDoor_HumanMale_Mesh_LOD1	-1	-1
0.00486507127061486	0.0122796446084976	0.117734119296074	0.482883632183075	0.498955130577087	1.57090258598328	0.297562956809998	1.87084019184113	0.0268157925456762	0.85556435585022	0.0122600719332695	-0.516856074333191	NPCFarDoor_HumanMale_Mesh_LOD1	NPCFarDoor_HumanMale_Mesh_LOD1	-1	-1
0.00628574565052986	0.0122796446084976	0.117734119296074	0.482883632183075	0.498955130577087	1.57090592384338	0.297644138336182	1.87079083919525	0.0267782006412745	0.855553388595581	0.0125210471451283	-0.516870021820068	NPCFarDoor_HumanMale_Mesh_LOD1	NPCFarDoor_HumanMale_Mesh_LOD1	-1	-1
0.0113314380869269	0.0122796446084976	0.117734119296074	0.482883632183075	0.498955130577087	1.57111501693726	0.297770261764526	1.87075805664063	0.0268854405730963	0.855611741542816	0.0130708254873753	-0.516754269599915	NPCFarDoor_HumanMale_Mesh_LOD1	NPCFarDoor_HumanMale_Mesh_LOD1	-1	-1
0.0112122921273112	0.0135454684495926	0.115757390856743	0.481610357761383	0.500174701213837	1.57103300094604	0.297929525375366	1.87087368965149	0.0270624347031116	0.855666100978851	0.0135328350588679	-0.516642987728119	NPCFarDoor_HumanMale_Mesh_LOD1	NPCFarDoor_HumanMale_Mesh_LOD1	-1	-1
0.011096659116447	0.0135454684495926	0.115757390856743	0.481610357761383	0.500174701213837	1.57101893424988	0.298097014427185	1.87083315849304	0.0272370558232069	0.855544865131378	0.0138547867536545	-0.516826152801514	NPCFarDoor_HumanMale_Mesh_LOD1	NPCFarDoor_HumanMale_Mesh_LOD1	-1	-1
0.0113132884725928	0.0135454684495926	0.115757390856743	0.481610357761383	0.500174701213837	1.57107210159302	0.298059463500977	1.87079095840454	0.0274013876914978	0.855505347251892	0.0143389124423265	-0.5168696641922	NPCFarDoor_HumanMale_Mesh_LOD1	NPCFarDoor_HumanMale_Mesh_LOD1	-1	-1
0.0107562011107802	0.0135454684495926	0.115757390856743	0.481610357761383	0.500174701213837	1.57102024555206	0.298168897628784	1.87080299854279	0.0274670552462339	0.85541707277298	0.0145457880571485	-0.517006397247314	NPCFarDoor_HumanMale_Mesh_LOD1	NPCFarDoor_HumanMale_Mesh_LOD1	-1	-1
0.0115471882745624	0.0122283846139908	0.117433652281761	0.484253585338593	0.496717035770416	1.57106101512909	0.298272609710693	1.87078666687012	0.027318961918354	0.855402290821075	0.0150963384658098	-0.517022907733917	NPCFarDoor_HumanMale_Mesh_LOD1	NPCFarDoor_HumanMale_Mesh_LOD1	-1	-1
0.0108372904360294	0.0122283846139908	0.117433652281761	0.484253585338593	0.496717035770416	1.57117104530334	0.298461616039276	1.87074971199036	0.0275667533278465	0.855433464050293	0.015662357211113	-0.516941428184509	NPCFarDoor_HumanMale_Mesh_LOD1	NPCFarDoor_HumanMale_Mesh_LOD1	-1	-1
0.0117840161547065	0.0122283846139908	0.117433652281761	0.484253585338593	0.496717035770416	1.57115769386292	0.298622310161591	1.87071526050568	0.027830459177494	0.855531215667725	0.0165319666266441	-0.516738474369049	NPCFarDoor_HumanMale_Mesh_LOD1	NPCFarDoor_HumanMale_Mesh_LOD1	-1	-1
0.0111112967133522	0.0138770639896393	0.114876732230186	0.483287334442139	0.495079874992371	1.5711944103241	0.29878842830658	1.87065362930298	0.0280913598835468	0.855585992336273	0.0173271968960762	-0.516607403755188	NPCFarDoor_HumanMale_Mesh_LOD1	NPCFarDoor_HumanMale_Mesh_LOD1	-1	-1
0.0107248779386282	0.0138770639896393	0.114876732230186	0.483287334442139	0.495079874992371	1.57118999958038	0.298913896083832	1.87060749530792	0.0283807218074799	0.855754375457764	0.0183631051331759	-0.516276836395264	NPCFarDoor_HumanMale_Mesh_LOD1	NPCFarDoor_HumanMale_Mesh_LOD1	-1	-1
0.0177544802427292	0.0136101543903351	0.113457009196281	0.483020424842834	0.493660151958466	1.5712194442749	0.299074351787567	1.87052941322327	0.0284444540739059	0.855960547924042	0.0193385072052479	-0.515895903110504	NPCFarDoor_HumanMale_Mesh_LOD1	NPCFarDoor_HumanMale_Mesh_LOD1	-1	-1
0.00573158590123057	0.0136101543903351	0.113457009196281	0.483020424842834	0.493660151958466	1.57125425338745	0.299213051795959	1.87043833732605	0.0285935737192631	0.85611754655838	0.0201689843088388	-0.515595138072968	NPCFarDoor_HumanMale_Mesh_LOD1	NPCFarDoor_HumanMale_Mesh_LOD1	-1	-1
0.00999390240758657	0.0136101543903351	0.113457009196281	0.483020424842834	0.493660151958466	1.57146120071411	0.299359440803528	1.87032079696655	0.0286530237644911	0.856253862380981	0.021219028159976	-0.515323221683502	NPCFarDoor_HumanMale_Mesh_LOD1	NPCFarDoor_HumanMale_Mesh_LOD1	-1	-1
0.0114930318668485	0.0136101543903351	0.113457009196281	0.483020424842834	0.493660151958466	1.57137143611908	0.299552321434021	1.87035369873047	0.0287512149661779	0.856485903263092	0.0220237039029598	-0.514898240566254	NPCFarDoor_HumanMale_Mesh_LOD1	NPCFarDoor_HumanMale_Mesh_LOD1	-1	-1
0.0111139314249158	0.0149663239717484	0.111315950751305	0.484376609325409	0.491519093513489	1.57137501239777	0.299669504165649	1.87031412124634	0.0287334639579058	0.856640875339508	0.0225301943719387	-0.514619529247284	NPCFarDoor_HumanMale_Mesh_LOD1	NPCFarDoor_HumanMale_Mesh_LOD1	-1	-1
0.0110884625464678	0.0149663239717484	0.111315950751305	0.484376609325409	0.491519093513489	1.57151687145233	0.29968273639679	1.87025046348572	0.0287412311881781	0.856702387332916	0.0228280387818813	-0.514503479003906	NPCFarDoor_HumanMale_Mesh_LOD1	NPCFarDoor_HumanMale_Mesh_LOD1	-1	-1
0.0111288614571095	0.015007272362709	0.110903725028038	0.48441755771637	0.491106867790222	1.57148826122284	0.299719750881195	1.87022233009338	0.0284997969865799	0.856712639331818	0.0228272490203381	-0.514499843120575	NPCFarDoor_HumanMale_Mesh_LOD1	NPCFarDoor_HumanMale_Mesh_LOD1	-1	-1
0.0115542141720653	0.015007272362709	0.110903725028038	0.48441755771637	0.491106867790222	1.57146644592285	0.299726188182831	1.87020015716553	0.0280341356992722	0.856731295585632	0.0227380190044641	-0.514498353004456	NPCFarDoor_HumanMale_Mesh_LOD1	NPCFarDoor_HumanMale_Mesh_LOD1	-1	-1
0.0106265163049102	0.015007272362709	0.110903725028038	0.48441755771637	0.491106867790222	1.57133793830872	0.299489378929138	1.87009501457214	0.0276783313602209	0.856630384922028	0.0228535141795874	-0.514680624008179	NPCFarDoor_HumanMale_Mesh_LOD1	NPCFarDoor_HumanMale_Mesh_LOD1	-1	-1
0.0112336622551084	0.015007272362709	0.110903725028038	0.48441755771637	0.491106867790222	1.57111644744873	0.299621641635895	1.87011289596558	0.0275624692440033	0.856512486934662	0.0225299447774887	-0.514897167682648	NPCFarDoor_HumanMale_Mesh_LOD1	NPCFarDoor_HumanMale_Mesh_LOD1	-1	-1
0.0118129979819059	0.0199760645627975	0.0188609957695007	0.519001722335815	0.626094222068787	1.57096457481384	0.299751341342926	1.87004256248474	0.0278262346982956	0.856363296508789	0.0225211884826422	-0.515131533145905	NPCFarDoor_HumanMale_Mesh_LOD1	TheTavern_3	-1	10
0.0103208944201469	0.0199760645627975	0.0188609957695007	0.519001722335815	0.626094222068787	1.57081007957459	0.299751877784729	1.87004804611206	0.0285342037677765	0.856078326702118	0.0230493992567062	-0.515542984008789	NPCFarDoor_HumanMale_Mesh_LOD1	TheTavern_3	-1	10
0.0115348938852549	0.0199760645627975	0.0188609957695007	0.519001722335815	0.626094222068787	1.57068955898285	0.299939453601837	1.87000620365143	0.0292631033807993	0.855817317962646	0.0234620794653893	-0.515916526317596	NPCFarDoor_HumanMale_Mesh_LOD1	TheTavern_3	-1	10
0.0109757576137781	0.0199760645627975	0.0188609957695007	0.519001722335815	0.626094222068787	1.57062494754791	0.300058007240295	1.86994385719299	0.0300056152045727	0.855576038360596	0.0238211266696453	-0.516257643699646	NPCFarDoor_HumanMale_Mesh_LOD1	TheTavern_3	-1	10
0.016715832054615	0.0215480476617813	0.0238964855670929	0.521242439746857	0.632932543754578	1.57065081596375	0.300154864788055	1.86985731124878	0.0309259425848722	0.855402827262878	0.0240320302546024	-0.516480565071106	NPCFarDoor_HumanMale_Mesh_LOD1	TheTavern_3	-1	9
0.0116039803251624	0.0206186771392822	0.0259138345718384	0.522680997848511	0.632380962371826	1.57057619094849	0.300296425819397	1.86986589431763	0.0319809578359127	0.855257570743561	0.0241326000541449	-0.51665210723877	NPCFarDoor_HumanMale_Mesh_LOD1	TheTavern_3	-1	9
0.00548187736421824	0.0206186771392822	0.0259138345718384	0.522680997848511	0.632380962371826	1.57049703598022	0.300511658191681	1.8697749376297	0.0333654135465622	0.855091273784637	0.024578170850873	-0.516818702220917	NPCFarDoor_HumanMale_Mesh_LOD1	TheTavern_3	-1	9
0.01074771117419	0.0206186771392822	0.0259138345718384	0.522680997848511	0.632380962371826	1.5705189704895	0.300664007663727	1.86964201927185	0.0345891118049622	0.854983866214752	0.0253703482449055	-0.516877770423889	NPCFarDoor_HumanMale_Mesh_LOD1	TheTavern_3	-1	9
