avgXGazingUncertainty	avgYGazingUncertainty	gazeX	gazeY	headX	headY	headZ	headRotationX	headRotationY	headRotationZ	headRotationW	faceRaycastHitObjectName	gazeRaycastHitObjectName	faceRaycastHitTriangleName	gazeRaycastHitTriangleName
0.0133846700191498	0.146158084273338	0.590694546699524	0.411846339702606	1.72996866703033	0.399578988552094	2.52303886413574	-0.0593705996870995	0.762416839599609	-0.0133793689310551	-0.644217908382416	TheTavern_3	TheTavern_3	10	11
0.0133846700191498	0.146158084273338	0.590694546699524	0.411846339702606	1.72998762130737	0.399570882320404	2.52300262451172	-0.0593584105372429	0.762457072734833	-0.0134497499093413	-0.644169986248016	TheTavern_3	TheTavern_3	10	11
0.0133846700191498	0.146158084273338	0.590694546699524	0.411846339702606	1.73004198074341	0.399561822414398	2.52301716804504	-0.0594164207577705	0.762465953826904	-0.0134604871273041	-0.644153892993927	TheTavern_3	TheTavern_3	10	11
0.0133846700191498	0.146158084273338	0.590694546699524	0.411846339702606	1.7301390171051	0.39960652589798	2.52295207977295	-0.0596389956772327	0.762473940849304	-0.0134113784879446	-0.644124865531921	TheTavern_3	TheTavern_3	10	11
0.0133846700191498	0.146158084273338	0.590694546699524	0.411846339702606	1.73017644882202	0.399596869945526	2.52294778823853	-0.059762354940176	0.762508928775787	-0.0134816225618124	-0.644070565700531	TheTavern_3	TheTavern_3	10	11
0.0147773325443268	0.145190060138702	0.592087149620056	0.412814378738403	1.73012709617615	0.399628460407257	2.52294301986694	-0.0598923601210117	0.76253342628479	-0.0135181592777371	-0.644028663635254	NPCNearDoor_HumanMale_Mesh_LOD1	TheTavern_3	-1	11
0.0147773325443268	0.145190060138702	0.592087149620056	0.412814378738403	1.73005187511444	0.399536788463593	2.52291822433472	-0.0599330812692642	0.762528657913208	-0.013531506061554	-0.644030332565308	NPCNearDoor_HumanMale_Mesh_LOD1	TheTavern_3	-1	11
0.0147773325443268	0.145190060138702	0.592087149620056	0.412814378738403	1.73005342483521	0.399552643299103	2.52287149429321	-0.0600299201905727	0.762479066848755	-0.013543208129704	-0.644079744815826	NPCNearDoor_HumanMale_Mesh_LOD1	TheTavern_3	-1	11
0.0147773325443268	0.145190060138702	0.592087149620056	0.412814378738403	1.72989571094513	0.3996621966362	2.52289485931396	-0.0600063800811768	0.762523591518402	-0.0134726511314511	-0.644030749797821	NPCNearDoor_HumanMale_Mesh_LOD1	TheTavern_3	-1	11
0.0135860741138458	0.144463151693344	0.590895891189575	0.413541287183762	1.7299382686615	0.399687230587006	2.5229320526123	-0.0600520633161068	0.762464880943298	-0.0134507594630122	-0.644096434116364	NPCNearDoor_HumanMale_Mesh_LOD1	TheTavern_3	-1	11
0.0135860741138458	0.144463151693344	0.590895891189575	0.413541287183762	1.72993350028992	0.399695336818695	2.52290821075439	-0.0601493641734123	0.76238614320755	-0.0135462079197168	-0.644178509712219	NPCNearDoor_HumanMale_Mesh_LOD1	TheTavern_3	-1	11
0.0135860741138458	0.144463151693344	0.590895891189575	0.413541287183762	1.72998833656311	0.399569690227509	2.52276611328125	-0.060046873986721	0.762395024299622	-0.0136446114629507	-0.64417552947998	NPCNearDoor_HumanMale_Mesh_LOD1	TheTavern_3	-1	11
0.0135860741138458	0.144463151693344	0.590895891189575	0.413541287183762	1.72998201847076	0.399572312831879	2.52274465560913	-0.0600874349474907	0.762333393096924	-0.0136490352451801	-0.64424455165863	NPCNearDoor_HumanMale_Mesh_LOD1	TheTavern_3	-1	11
0.0124881863594055	0.14438097178936	0.589798033237457	0.413623452186584	1.72998023033142	0.399588286876678	2.52272748947144	-0.06023059040308	0.762226104736328	-0.0137578994035721	-0.644355833530426	NPCNearDoor_HumanMale_Mesh_LOD1	TheTavern_3	-1	11
0.0124881863594055	0.14438097178936	0.589798033237457	0.413623452186584	1.72985816001892	0.399681031703949	2.52272796630859	-0.0602502748370171	0.762144088745117	-0.0138199757784605	-0.644449651241302	NPCNearDoor_HumanMale_Mesh_LOD1	TheTavern_3	-1	11
0.00873687863349915	0.141967982053757	0.586046695709229	0.416036456823349	1.72978830337524	0.399648249149323	2.5226583480835	-0.0603418275713921	0.762054264545441	-0.0138282850384712	-0.64454710483551	NPCNearDoor_HumanMale_Mesh_LOD1	TheTavern_3	-1	11
0.00873687863349915	0.141967982053757	0.586046695709229	0.416036456823349	1.72976088523865	0.399646937847137	2.52259016036987	-0.060381144285202	0.7620849609375	-0.0138450060039759	-0.644506812095642	NPCNearDoor_HumanMale_Mesh_LOD1	TheTavern_3	-1	11
0.00873687863349915	0.141967982053757	0.586046695709229	0.416036456823349	1.7298983335495	0.399539887905121	2.52252006530762	-0.0602047592401505	0.76206248998642	-0.0139228282496333	-0.644548118114471	NPCNearDoor_HumanMale_Mesh_LOD1	TheTavern_3	-1	11
0.151675492525101	0.184322826564312	0.425634354352951	0.373681604862213	1.72993612289429	0.39954274892807	2.52246284484863	-0.0600262545049191	0.762036383152008	-0.0140130110085011	-0.644593715667725	NPCNearDoor_HumanMale_Mesh_LOD1	Bench 1 (2)	-1	145
0.151675492525101	0.184322826564312	0.425634354352951	0.373681604862213	1.72993767261505	0.39953225851059	2.5223970413208	-0.059851910918951	0.7621209025383	-0.014110448770225	-0.644507944583893	NPCNearDoor_HumanMale_Mesh_LOD1	Bench 1 (2)	-1	145
0.151675492525101	0.184322826564312	0.425634354352951	0.373681604862213	1.72998583316803	0.399515330791473	2.52234649658203	-0.059772539883852	0.762167870998383	-0.0141733251512051	-0.644458293914795	NPCNearDoor_HumanMale_Mesh_LOD1	Bench 1 (2)	-1	145
0.151675492525101	0.184322826564312	0.425634354352951	0.373681604862213	1.73001003265381	0.399481356143951	2.52223801612854	-0.059712328016758	0.762200355529785	-0.0139992693439126	-0.644429266452789	NPCNearDoor_HumanMale_Mesh_LOD1	Bench 1 (2)	-1	145
0.151675492525101	0.184322826564312	0.425634354352951	0.373681604862213	1.73003935813904	0.399499833583832	2.52221632003784	-0.0597333870828152	0.762299716472626	-0.0140947224572301	-0.644307732582092	NPCNearDoor_HumanMale_Mesh_LOD1	Bench 1 (2)	-1	145
0.151675492525101	0.184322826564312	0.425634354352951	0.373681604862213	1.72996366024017	0.399569809436798	2.52219390869141	-0.0596200749278069	0.762414455413818	-0.0141118196770549	-0.644182145595551	NPCNearDoor_HumanMale_Mesh_LOD1	Bench 1 (2)	-1	145
0.151675492525101	0.184322826564312	0.425634354352951	0.373681604862213	1.73010897636414	0.399648010730743	2.52214360237122	-0.0593203231692314	0.762578308582306	-0.014266618527472	-0.644012331962585	NPCNearDoor_HumanMale_Mesh_LOD1	Bench 1 (2)	-1	145
0.151675492525101	0.184322826564312	0.425634354352951	0.373681604862213	1.73013281822205	0.399643838405609	2.52208995819092	-0.0590542666614056	0.762702524662018	-0.0143118081614375	-0.643888711929321	NPCNearDoor_HumanMale_Mesh_LOD1	Bench 1 (2)	-1	145
0.0080084502696991	0.133372232317925	0.554201483726501	0.411171913146973	1.73016119003296	0.399668872356415	2.52203416824341	-0.0590546876192093	0.762819588184357	-0.0143011435866356	-0.643750190734863	NPCNearDoor_HumanMale_Mesh_LOD1	NPCNearDoor_HumanMale_Mesh_LOD1	-1	-1
0.0080084502696991	0.133372232317925	0.554201483726501	0.411171913146973	1.7301664352417	0.399663865566254	2.52189636230469	-0.0590857937932014	0.762925803661346	-0.0142698986455798	-0.643622159957886	NPCNearDoor_HumanMale_Mesh_LOD1	NPCNearDoor_HumanMale_Mesh_LOD1	-1	-1
0.0080084502696991	0.133372232317925	0.554201483726501	0.411171913146973	1.73020684719086	0.399690091609955	2.52189254760742	-0.0591444224119186	0.763034224510193	-0.0142703140154481	-0.64348828792572	NPCNearDoor_HumanMale_Mesh_LOD1	NPCNearDoor_HumanMale_Mesh_LOD1	-1	-1
0.0080084502696991	0.133372232317925	0.554201483726501	0.411171913146973	1.73032379150391	0.39964884519577	2.52182865142822	-0.0591407902538776	0.763047695159912	-0.0141875296831131	-0.643474459648132	NPCNearDoor_HumanMale_Mesh_LOD1	NPCNearDoor_HumanMale_Mesh_LOD1	-1	-1
0.0080084502696991	0.133372232317925	0.554201483726501	0.411171913146973	1.73033142089844	0.399624526500702	2.52174639701843	-0.0592218451201916	0.763076901435852	-0.0141314975917339	-0.643433570861816	NPCNearDoor_HumanMale_Mesh_LOD1	NPCNearDoor_HumanMale_Mesh_LOD1	-1	-1
0.00335270166397095	0.137149319052696	0.558857202529907	0.407394826412201	1.73037993907928	0.399652183055878	2.52170753479004	-0.0589802525937557	0.763101518154144	-0.0144005296751857	-0.6434206366539	NPCNearDoor_HumanMale_Mesh_LOD1	TheTavern_3	-1	11
0.00335270166397095	0.137149319052696	0.558857202529907	0.407394826412201	1.7304493188858	0.399668872356415	2.52163505554199	-0.058738574385643	0.763092994689941	-0.0144977634772658	-0.643450677394867	NPCNearDoor_HumanMale_Mesh_LOD1	TheTavern_3	-1	11
0.00323596596717834	0.137756198644638	0.558973908424377	0.40678796172142	1.73042321205139	0.399627864360809	2.52165150642395	-0.058483749628067	0.763085007667542	-0.0146092176437378	-0.643480777740479	NPCNearDoor_HumanMale_Mesh_LOD1	TheTavern_3	-1	11
0.00323596596717834	0.137756198644638	0.558973908424377	0.40678796172142	1.73050940036774	0.399605929851532	2.52164459228516	-0.0580678172409534	0.763071537017822	-0.0146453063935041	-0.643533647060394	TheTavern_3	TheTavern_3	10	11
0.00323596596717834	0.137756198644638	0.558973908424377	0.40678796172142	1.73058688640594	0.399636685848236	2.52164125442505	-0.0579556450247765	0.763131260871887	-0.0148236658424139	-0.643468856811523	TheTavern_3	TheTavern_3	10	11
0.00323596596717834	0.137756198644638	0.558973908424377	0.40678796172142	1.7305896282196	0.399562776088715	2.52163743972778	-0.057784017175436	0.763100266456604	-0.0147857535630465	-0.643521845340729	TheTavern_3	TheTavern_3	10	11
0.00266847014427185	0.137820690870285	0.559541463851929	0.406723469495773	1.73064863681793	0.399532735347748	2.52155923843384	-0.0574008896946907	0.763166546821594	-0.0147671299055219	-0.643477976322174	TheTavern_3	TheTavern_3	10	11
0.00266847014427185	0.137820690870285	0.559541463851929	0.406723469495773	1.73060655593872	0.399627864360809	2.52152013778687	-0.0573203787207603	0.763205528259277	-0.0148736713454127	-0.643436551094055	TheTavern_3	TheTavern_3	10	11
0.00266847014427185	0.137820690870285	0.559541463851929	0.406723469495773	1.73066830635071	0.39963835477829	2.52149677276611	-0.0573294684290886	0.763387143611908	-0.0149278929457068	-0.64321893453598	TheTavern_3	TheTavern_3	10	11
0.00266847014427185	0.137820690870285	0.559541463851929	0.406723469495773	1.73073077201843	0.399620473384857	2.52143335342407	-0.0572827830910683	0.763524353504181	-0.0150212701410055	-0.643058061599731	TheTavern_3	TheTavern_3	10	11
0.000774174928665161	0.139738008379936	0.561435699462891	0.404806137084961	1.73075866699219	0.39961189031601	2.52141857147217	-0.0572386607527733	0.763724684715271	-0.0150674358010292	-0.642822980880737	TheTavern_3	TheTavern_3	10	11
0.000774174928665161	0.139738008379936	0.561435699462891	0.404806137084961	1.73091733455658	0.399632632732391	2.5213623046875	-0.0572650507092476	0.763835787773132	-0.0151088759303093	-0.642687618732452	TheTavern_3	TheTavern_3	10	11
0.000774174928665161	0.139738008379936	0.561435699462891	0.404806137084961	1.73099565505981	0.399645268917084	2.52134609222412	-0.0573276467621326	0.764007210731506	-0.0153088932856917	-0.642473518848419	NPCNearDoor_HumanMale_Mesh_LOD1	TheTavern_3	-1	11
0.000774174928665161	0.139738008379936	0.561435699462891	0.404806137084961	1.73089408874512	0.399710357189178	2.52127075195313	-0.0573837049305439	0.764113783836365	-0.0152884125709534	-0.642342329025269	NPCNearDoor_HumanMale_Mesh_LOD1	TheTavern_3	-1	11
0.000774174928665161	0.139738008379936	0.561435699462891	0.404806137084961	1.73096287250519	0.399750411510468	2.52124357223511	-0.0573911033570766	0.764206111431122	-0.0153680006042123	-0.642229855060577	NPCNearDoor_HumanMale_Mesh_LOD1	TheTavern_3	-1	11
0.000774174928665161	0.139738008379936	0.561435699462891	0.404806137084961	1.7310266494751	0.399795949459076	2.52125978469849	-0.0573073215782642	0.764220893383026	-0.0153030762448907	-0.64222127199173	NPCNearDoor_HumanMale_Mesh_LOD1	TheTavern_3	-1	11
0.000774174928665161	0.139738008379936	0.561435699462891	0.404806137084961	1.73111152648926	0.399793326854706	2.52123498916626	-0.0570780858397484	0.764231741428375	-0.0152846500277519	-0.642229199409485	TheTavern_3	TheTavern_3	10	11
0.000774174928665161	0.139738008379936	0.561435699462891	0.404806137084961	1.73115015029907	0.399841129779816	2.52125477790833	-0.0568094663321972	0.764239907264709	-0.0152286263182759	-0.642244637012482	TheTavern_3	TheTavern_3	10	11
0.00779443979263306	0.131349310278893	0.554415464401245	0.413194835186005	1.73115742206573	0.399886786937714	2.52121925354004	-0.0564847029745579	0.764224767684937	-0.0153485219925642	-0.642288446426392	TheTavern_3	NPCNearDoor_HumanMale_Mesh_LOD1	10	-1
0.00779443979263306	0.131349310278893	0.554415464401245	0.413194835186005	1.73128461837769	0.399859845638275	2.52124929428101	-0.0563432238996029	0.764222085475922	-0.0152234891429544	-0.642307043075562	TheTavern_3	NPCNearDoor_HumanMale_Mesh_LOD1	10	-1
0.00779443979263306	0.131349310278893	0.554415464401245	0.413194835186005	1.73118686676025	0.39975494146347	2.52131509780884	-0.0564448162913322	0.764145731925964	-0.0151976644992828	-0.642389535903931	TheTavern_3	NPCNearDoor_HumanMale_Mesh_LOD1	10	-1
0.00779443979263306	0.131349310278893	0.554415464401245	0.413194835186005	1.73120164871216	0.39973372220993	2.52126169204712	-0.0564357042312622	0.764122307300568	-0.0151603948324919	-0.642419099807739	TheTavern_3	NPCNearDoor_HumanMale_Mesh_LOD1	10	-1
0.245839945971966	0.0971327573060989	0.379771828651428	0.371073365211487	1.73112821578979	0.399818480014801	2.52131032943726	-0.0566400587558746	0.764178216457367	-0.0152110252529383	-0.642333447933197	TheTavern_3	Bench 1 (2)	10	148
0.245839945971966	0.0971327573060989	0.379771828651428	0.371073365211487	1.73105132579803	0.399779260158539	2.521324634552	-0.0566030405461788	0.764088928699493	-0.0153103973716497	-0.642440557479858	TheTavern_3	Bench 1 (2)	10	148
0.245839945971966	0.0971327573060989	0.379771828651428	0.371073365211487	1.73103713989258	0.399779856204987	2.52130842208862	-0.0565774440765381	0.764156877994537	-0.0152862863615155	-0.642362534999847	TheTavern_3	Bench 1 (2)	10	148
0.217499159276485	0.103929325938225	0.351431041955948	0.364276766777039	1.73097383975983	0.39975243806839	2.52119636535645	-0.0565387792885304	0.764218330383301	-0.0153028052300215	-0.642292499542236	TheTavern_3	Bench 1 (2)	10	148
0.217499159276485	0.103929325938225	0.351431041955948	0.364276766777039	1.73101282119751	0.399842202663422	2.52114343643188	-0.0564830936491489	0.764312922954559	-0.0152279203757644	-0.64218658208847	TheTavern_3	Bench 1 (2)	10	148
0.131970807909966	0.0777871757745743	0.436959385871887	0.33813464641571	1.73098695278168	0.399820268154144	2.52106189727783	-0.0564200766384602	0.764320969581604	-0.0151454694569111	-0.642184555530548	TheTavern_3	Bench 1 (2)	10	123
0.131970807909966	0.0777871757745743	0.436959385871887	0.33813464641571	1.73101282119751	0.399753868579865	2.52110481262207	-0.0565694235265255	0.764382123947144	-0.0150964064523578	-0.642099678516388	TheTavern_3	Bench 1 (2)	10	123
0.133215844631195	0.0673738718032837	0.462473690509796	0.346957832574844	1.73100686073303	0.399732172489166	2.52108240127563	-0.0566204003989697	0.764418244361877	-0.014961676672101	-0.64205539226532	TheTavern_3	NPCNearDoor_HumanMale_Mesh_LOD1	10	-1
0.133215844631195	0.0673738718032837	0.462473690509796	0.346957832574844	1.73097825050354	0.399736106395721	2.52105093002319	-0.0565568841993809	0.764423847198486	-0.0149881085380912	-0.642053663730621	TheTavern_3	NPCNearDoor_HumanMale_Mesh_LOD1	10	-1
0.133215844631195	0.0673738718032837	0.462473690509796	0.346957832574844	1.73102784156799	0.399790108203888	2.52095103263855	-0.0565891750156879	0.764435350894928	-0.0151152666658163	-0.642034113407135	TheTavern_3	NPCNearDoor_HumanMale_Mesh_LOD1	10	-1
0.133215844631195	0.0673738718032837	0.462473690509796	0.346957832574844	1.73101472854614	0.399782836437225	2.52094459533691	-0.0566363595426083	0.764533936977386	-0.0150692788884044	-0.641913652420044	TheTavern_3	NPCNearDoor_HumanMale_Mesh_LOD1	10	-1
0.163959875702858	0.0746065229177475	0.354099452495575	0.394676506519318	1.73097205162048	0.399801194667816	2.52090430259705	-0.0567916184663773	0.764495432376862	-0.0150501215830445	-0.641946256160736	TheTavern_3	Bench 1 (2)	10	154
0.163959875702858	0.0746065229177475	0.354099452495575	0.394676506519318	1.73111367225647	0.399891793727875	2.52091789245605	-0.056892666965723	0.764543414115906	-0.0149948168545961	-0.64188140630722	TheTavern_3	Bench 1 (2)	10	154
0.163959875702858	0.0746065229177475	0.354099452495575	0.394676506519318	1.73112034797668	0.399897873401642	2.52093315124512	-0.0569448731839657	0.764562427997589	-0.0149843627586961	-0.641854405403137	TheTavern_3	Bench 1 (2)	10	154
0.163959875702858	0.0746065229177475	0.354099452495575	0.394676506519318	1.73116517066956	0.399915874004364	2.52094650268555	-0.0570951662957668	0.764509677886963	-0.0149017982184887	-0.641905784606934	TheTavern_3	Bench 1 (2)	10	154
0.0276165008544922	0.048239678144455	0.49044281244278	0.368309676647186	1.73108732700348	0.399859845638275	2.5209755897522	-0.0570905469357967	0.764609754085541	-0.0148737048730254	-0.641787648200989	TheTavern_3	NPCNearDoor_HumanMale_Mesh_LOD1	10	-1
0.0276165008544922	0.048239678144455	0.49044281244278	0.368309676647186	1.73108243942261	0.399885237216949	2.52089262008667	-0.0572451800107956	0.764572143554688	-0.0149355717003345	-0.641817271709442	TheTavern_3	NPCNearDoor_HumanMale_Mesh_LOD1	10	-1
0.0276165008544922	0.048239678144455	0.49044281244278	0.368309676647186	1.73095524311066	0.399907529354095	2.52072286605835	-0.0573045276105404	0.764607071876526	-0.0150025356560946	-0.64176881313324	TheTavern_3	NPCNearDoor_HumanMale_Mesh_LOD1	10	-1
0.0349029153585434	0.0288983136415482	0.499803721904755	0.397815346717834	1.73092484474182	0.39988785982132	2.52070641517639	-0.0574967302381992	0.764616549015045	-0.0148907816037536	-0.641742944717407	TheTavern_3	NPCNearDoor_HumanMale_Mesh_LOD1	10	-1
0.0349029153585434	0.0288983136415482	0.499803721904755	0.397815346717834	1.73095047473907	0.399908721446991	2.52070713043213	-0.0576394721865654	0.764681160449982	-0.0149877304211259	-0.641650855541229	NPCNearDoor_HumanMale_Mesh_LOD1	NPCNearDoor_HumanMale_Mesh_LOD1	-1	-1
0.0318014174699783	0.0252117365598679	0.496702253818512	0.401501893997192	1.73092579841614	0.399877846240997	2.52057647705078	-0.057636734098196	0.764672040939331	-0.0149114821106195	-0.641663789749146	NPCNearDoor_HumanMale_Mesh_LOD1	NPCNearDoor_HumanMale_Mesh_LOD1	-1	-1
0.0318014174699783	0.0252117365598679	0.496702253818512	0.401501893997192	1.7310049533844	0.399937212467194	2.52048587799072	-0.0575356297194958	0.764676213264465	-0.015027130022645	-0.641665160655975	NPCNearDoor_HumanMale_Mesh_LOD1	NPCNearDoor_HumanMale_Mesh_LOD1	-1	-1
0.0318014174699783	0.0252117365598679	0.496702253818512	0.401501893997192	1.73103713989258	0.399944245815277	2.52045059204102	-0.0573278702795506	0.76467490196228	-0.0152417412027717	-0.641680240631104	NPCNearDoor_HumanMale_Mesh_LOD1	NPCNearDoor_HumanMale_Mesh_LOD1	-1	-1
0.0318014174699783	0.0252117365598679	0.496702253818512	0.401501893997192	1.73126983642578	0.399837911128998	2.52045917510986	-0.056998148560524	0.764793038368225	-0.0152835343033075	-0.641567826271057	NPCNearDoor_HumanMale_Mesh_LOD1	NPCNearDoor_HumanMale_Mesh_LOD1	-1	-1
0.0151245594024658	0.058983102440834	0.51096248626709	0.43876051902771	1.73133742809296	0.399862945079803	2.5203652381897	-0.0568583011627197	0.764764487743378	-0.0153409233316779	-0.641612946987152	TheTavern_3	NPCNearDoor_HumanMale_Mesh_LOD1	10	-1
0.0151245594024658	0.058983102440834	0.51096248626709	0.43876051902771	1.73138988018036	0.39981609582901	2.52028274536133	-0.0568129010498524	0.764915585517883	-0.0153552396222949	-0.641436398029327	TheTavern_3	NPCNearDoor_HumanMale_Mesh_LOD1	10	-1
0.0151245594024658	0.058983102440834	0.51096248626709	0.43876051902771	1.73144817352295	0.399783670902252	2.52015495300293	-0.0569415278732777	0.765026807785034	-0.0155798969790339	-0.641286969184875	NPCNearDoor_HumanMale_Mesh_LOD1	NPCNearDoor_HumanMale_Mesh_LOD1	-1	-1
0.0151245594024658	0.058983102440834	0.51096248626709	0.43876051902771	1.73145389556885	0.399712741374969	2.52009677886963	-0.056901328265667	0.765212535858154	-0.0158051513135433	-0.641063392162323	NPCNearDoor_HumanMale_Mesh_LOD1	NPCNearDoor_HumanMale_Mesh_LOD1	-1	-1
0.00655287504196167	0.0628521293401718	0.502390801906586	0.434891521930695	1.73149275779724	0.39967554807663	2.5199990272522	-0.0569371096789837	0.765330195426941	-0.0159330274909735	-0.640916585922241	NPCNearDoor_HumanMale_Mesh_LOD1	NPCNearDoor_HumanMale_Mesh_LOD1	-1	-1
0.00655287504196167	0.0628521293401718	0.502390801906586	0.434891521930695	1.73159158229828	0.399594247341156	2.519935131073	-0.0569413527846336	0.76563686132431	-0.0159341525286436	-0.640549778938293	NPCNearDoor_HumanMale_Mesh_LOD1	NPCNearDoor_HumanMale_Mesh_LOD1	-1	-1
0.00655287504196167	0.0628521293401718	0.502390801906586	0.434891521930695	1.73160552978516	0.399620473384857	2.51984071731567	-0.0570574812591076	0.765697717666626	-0.0158668924123049	-0.640468418598175	NPCNearDoor_HumanMale_Mesh_LOD1	NPCNearDoor_HumanMale_Mesh_LOD1	-1	-1
0.0154207944869995	0.0582917779684067	0.522749125957489	0.431470632553101	1.73160898685455	0.399634182453156	2.51983165740967	-0.0569352991878986	0.765849173069	-0.0158089585602283	-0.640299558639526	NPCNearDoor_HumanMale_Mesh_LOD1	NPCNearDoor_HumanMale_Mesh_LOD1	-1	-1
0.0154207944869995	0.0582917779684067	0.522749125957489	0.431470632553101	1.7317351102829	0.399657428264618	2.51990175247192	-0.0568625517189503	0.765848875045776	-0.0156264640390873	-0.640310823917389	NPCNearDoor_HumanMale_Mesh_LOD1	NPCNearDoor_HumanMale_Mesh_LOD1	-1	-1
0.0150992572307587	0.0574440658092499	0.523070693016052	0.432318359613419	1.73181819915771	0.399746119976044	2.51982259750366	-0.0568095929920673	0.765817046165466	-0.0155258271843195	-0.640356123447418	NPCNearDoor_HumanMale_Mesh_LOD1	NPCNearDoor_HumanMale_Mesh_LOD1	-1	-1
0.0150992572307587	0.0574440658092499	0.523070693016052	0.432318359613419	1.73183917999268	0.399799287319183	2.51980495452881	-0.0568336807191372	0.765749156475067	-0.0156804788857698	-0.64043140411377	NPCNearDoor_HumanMale_Mesh_LOD1	NPCNearDoor_HumanMale_Mesh_LOD1	-1	-1
0.0150992572307587	0.0574440658092499	0.523070693016052	0.432318359613419	1.73172783851624	0.399884879589081	2.51975965499878	-0.0566862486302853	0.76559442281723	-0.0157452151179314	-0.640627801418304	NPCNearDoor_HumanMale_Mesh_LOD1	NPCNearDoor_HumanMale_Mesh_LOD1	-1	-1
0.0150992572307587	0.0574440658092499	0.523070693016052	0.432318359613419	1.73162877559662	0.399824321269989	2.51981115341187	-0.0566043928265572	0.76546323299408	-0.0158366411924362	-0.640789568424225	NPCNearDoor_HumanMale_Mesh_LOD1	NPCNearDoor_HumanMale_Mesh_LOD1	-1	-1
0.0181045979261398	0.0461363047361374	0.489769577980042	0.42038893699646	1.73167824745178	0.399784028530121	2.51980924606323	-0.0565005987882614	0.765344500541687	-0.015789158642292	-0.640941679477692	NPCNearDoor_HumanMale_Mesh_LOD1	NPCNearDoor_HumanMale_Mesh_LOD1	-1	-1
0.0181045979261398	0.0461363047361374	0.489769577980042	0.42038893699646	1.73167109489441	0.399767458438873	2.51975727081299	-0.0563555769622326	0.765211701393127	-0.0157780721783638	-0.641113221645355	NPCNearDoor_HumanMale_Mesh_LOD1	NPCNearDoor_HumanMale_Mesh_LOD1	-1	-1
0.0181045979261398	0.0461363047361374	0.489769577980042	0.42038893699646	1.73167026042938	0.399784028530121	2.51973295211792	-0.056317426264286	0.765015244483948	-0.0156542006880045	-0.641354024410248	TheTavern_3	NPCNearDoor_HumanMale_Mesh_LOD1	10	-1
0.13685929775238	0.14334662258625	0.644306838512421	0.517275452613831	1.73167955875397	0.399797260761261	2.51975202560425	-0.0562145709991455	0.764995753765106	-0.0155781861394644	-0.641388177871704	TheTavern_3	Door	10	1
0.13685929775238	0.14334662258625	0.644306838512421	0.517275452613831	1.73167681694031	0.399871170520782	2.51984882354736	-0.056138664484024	0.764885723590851	-0.0154227279126644	-0.64152979850769	TheTavern_3	Door	10	2
0.13685929775238	0.14334662258625	0.644306838512421	0.517275452613831	1.73166084289551	0.399866998195648	2.51986908912659	-0.0561313889920712	0.764912784099579	-0.0153460782021284	-0.641500055789948	TheTavern_3	Door	10	2
0.142583787441254	0.145789802074432	0.649237453937531	0.519889712333679	1.73166012763977	0.399871289730072	2.5198860168457	-0.0560805276036263	0.764930725097656	-0.0154027557000518	-0.641481697559357	TheTavern_3	Door	10	2
0.142583787441254	0.145789802074432	0.649237453937531	0.519889712333679	1.73171067237854	0.399766266345978	2.51976609230042	-0.055901762098074	0.765000820159912	-0.0154094146564603	-0.641413569450378	TheTavern_3	Door	10	2
0.142583787441254	0.145789802074432	0.649237453937531	0.519889712333679	1.73168039321899	0.399735152721405	2.51979637145996	-0.0558307506144047	0.765073955059052	-0.0154820894822478	-0.641330718994141	TheTavern_3	Door	10	2
0.152751058340073	0.150401026010513	0.658362507820129	0.524626970291138	1.7316529750824	0.399763286113739	2.51981210708618	-0.0559190399944782	0.765063047409058	-0.015418229624629	-0.641337633132935	TheTavern_3	Door	10	3
0.152751058340073	0.150401026010513	0.658362507820129	0.524626970291138	1.73171639442444	0.399751365184784	2.51987218856812	-0.0559715889394283	0.765123784542084	-0.015417899005115	-0.641260623931885	TheTavern_3	Door	10	3
0.153429925441742	0.150079399347305	0.657683670520782	0.524948596954346	1.73170530796051	0.399735510349274	2.51989603042603	-0.0560344830155373	0.765133142471313	-0.0154832536354661	-0.641242325305939	TheTavern_3	Door	10	3
0.153429925441742	0.150079399347305	0.657683670520782	0.524948596954346	1.73173749446869	0.399719417095184	2.51990985870361	-0.0561229139566422	0.765145182609558	-0.0154950898140669	-0.641219913959503	TheTavern_3	Door	10	3
0.153429925441742	0.150079399347305	0.657683670520782	0.524948596954346	1.73173427581787	0.399692595005035	2.51987600326538	-0.0561125576496124	0.765157997608185	-0.0156021090224385	-0.641202926635742	TheTavern_3	Door	10	3
0.153429925441742	0.150079399347305	0.657683670520782	0.524948596954346	1.73177456855774	0.399727761745453	2.51984906196594	-0.0560813546180725	0.76515656709671	-0.0156688038259745	-0.641205787658691	TheTavern_3	Door	10	3
0.153773039579391	0.150551959872246	0.657340526580811	0.524475991725922	1.7318799495697	0.399649798870087	2.51985883712769	-0.0559088848531246	0.765244901180267	-0.0158337764441967	-0.641111314296722	TheTavern_3	Door	10	3
0.153773039579391	0.150551959872246	0.657340526580811	0.524475991725922	1.73190891742706	0.399631202220917	2.51985216140747	-0.0558784455060959	0.765213251113892	-0.0158147029578686	-0.641152262687683	TheTavern_3	Door	10	3
0.153773039579391	0.150551959872246	0.657340526580811	0.524475991725922	1.73197734355927	0.399745881557465	2.51980757713318	-0.0559074692428112	0.765285909175873	-0.0158689226955175	-0.641061663627625	TheTavern_3	Door	10	3
0.153773039579391	0.150551959872246	0.657340526580811	0.524475991725922	1.73200535774231	0.399705708026886	2.51973628997803	-0.0558453798294067	0.765303552150726	-0.0156368892639875	-0.641051709651947	TheTavern_3	Door	10	3
0.0527198016643524	0.100141003727913	0.555278182029724	0.476360678672791	1.73200511932373	0.399741590023041	2.5197491645813	-0.0557057298719883	0.765329301357269	-0.0156052149832249	-0.641033887863159	NPCNearDoor_HumanMale_Mesh_LOD1	TheTavern_3	-1	11
0.0527198016643524	0.100141003727913	0.555278182029724	0.476360678672791	1.73190319538116	0.399731338024139	2.51981449127197	-0.0556098073720932	0.765363812446594	-0.0155540630221367	-0.641002237796783	NPCNearDoor_HumanMale_Mesh_LOD1	TheTavern_3	-1	11
0.153782725334167	0.14954973757267	0.655767679214478	0.525294601917267	1.7318127155304	0.399790227413177	2.51981830596924	-0.0554874315857887	0.765383124351501	-0.0156691819429398	-0.640987038612366	NPCNearDoor_HumanMale_Mesh_LOD1	Door	-1	3
0.153782725334167	0.14954973757267	0.655767679214478	0.525294601917267	1.73180043697357	0.399790942668915	2.5198392868042	-0.0554139465093613	0.765448749065399	-0.0157135035842657	-0.640913903713226	NPCNearDoor_HumanMale_Mesh_LOD1	Door	-1	3
0.153782725334167	0.14954973757267	0.655767679214478	0.525294601917267	1.73177409172058	0.399808704853058	2.51977872848511	-0.0554027818143368	0.765463292598724	-0.0157902054488659	-0.640895664691925	NPCNearDoor_HumanMale_Mesh_LOD1	Door	-1	3
0.151462197303772	0.148934110999107	0.653355896472931	0.524608790874481	1.73171865940094	0.399803340435028	2.51981592178345	-0.0554180853068829	0.765618860721588	-0.0157819092273712	-0.64070862531662	NPCNearDoor_HumanMale_Mesh_LOD1	Door	-1	3
0.151462197303772	0.148934110999107	0.653355896472931	0.524608790874481	1.73166155815125	0.399768173694611	2.51977396011353	-0.0555577240884304	0.765654325485229	-0.0157236699014902	-0.64065557718277	NPCNearDoor_HumanMale_Mesh_LOD1	Door	-1	3
0.151462197303772	0.148934110999107	0.653355896472931	0.524608790874481	1.73154973983765	0.399677574634552	2.5198335647583	-0.0556723065674305	0.765615880489349	-0.0155830848962069	-0.640695095062256	NPCNearDoor_HumanMale_Mesh_LOD1	Door	-1	3
0.151638835668564	0.14939583837986	0.653471946716309	0.522872447967529	1.73150610923767	0.399652659893036	2.51983594894409	-0.0557597130537033	0.765593588352203	-0.0155353574082255	-0.64071524143219	NPCNearDoor_HumanMale_Mesh_LOD1	Door	-1	3
0.151638835668564	0.14939583837986	0.653471946716309	0.522872447967529	1.73144817352295	0.39960902929306	2.51978826522827	-0.0558648034930229	0.765568256378174	-0.0155313769355416	-0.640736401081085	NPCNearDoor_HumanMale_Mesh_LOD1	Door	-1	3
0.151638835668564	0.14939583837986	0.653471946716309	0.522872447967529	1.7313779592514	0.399570882320404	2.51983499526978	-0.0560264624655247	0.765593290328979	-0.015559789724648	-0.640691697597504	TheTavern_3	Door	10	3
0.151638835668564	0.14939583837986	0.653471946716309	0.522872447967529	1.73131620883942	0.399555027484894	2.51986503601074	-0.0561420731246471	0.765573382377625	-0.015540056861937	-0.64070588350296	TheTavern_3	Door	10	2
0.152169227600098	0.148950710892677	0.652941584587097	0.523317575454712	1.73133480548859	0.399497926235199	2.51995229721069	-0.0562284588813782	0.765629410743713	-0.0155111188068986	-0.640632033348084	TheTavern_3	Door	10	3
0.152169227600098	0.148950710892677	0.652941584587097	0.523317575454712	1.73135125637054	0.399505317211151	2.51992034912109	-0.0564662143588066	0.765513122081757	-0.0154836280271411	-0.640750765800476	NPCNearDoor_HumanMale_Mesh_LOD1	Door	-1	3
0.152169227600098	0.148950710892677	0.652941584587097	0.523317575454712	1.73126792907715	0.399534404277802	2.5199761390686	-0.0564957000315189	0.765456736087799	-0.0156066222116351	-0.640812575817108	NPCNearDoor_HumanMale_Mesh_LOD1	Door	-1	3
0.151488184928894	0.149093061685562	0.653622627258301	0.523175239562988	1.7313015460968	0.3995401263237	2.52007913589478	-0.0568006820976734	0.765367031097412	-0.0156287886202335	-0.640892148017883	NPCNearDoor_HumanMale_Mesh_LOD1	Door	-1	2
0.151488184928894	0.149093061685562	0.653622627258301	0.523175239562988	1.73131680488586	0.399542033672333	2.52012586593628	-0.0568669959902763	0.765258550643921	-0.0155361760407686	-0.641018092632294	NPCNearDoor_HumanMale_Mesh_LOD1	Door	-1	2
0.000187605619430542	0.048383966088295	0.500291347503662	0.423321068286896	1.73117232322693	0.399657785892487	2.52020072937012	-0.0570211112499237	0.765156209468842	-0.0155639285221696	-0.641125857830048	NPCNearDoor_HumanMale_Mesh_LOD1	NPCNearDoor_HumanMale_Mesh_LOD1	-1	-1
0.000187605619430542	0.048383966088295	0.500291347503662	0.423321068286896	1.73113965988159	0.399639785289764	2.52020740509033	-0.0569928735494614	0.76508903503418	-0.0155054647475481	-0.641209959983826	NPCNearDoor_HumanMale_Mesh_LOD1	NPCNearDoor_HumanMale_Mesh_LOD1	-1	-1
0.000187605619430542	0.048383966088295	0.500291347503662	0.423321068286896	1.73115730285645	0.399723947048187	2.52022695541382	-0.0570012517273426	0.765007078647614	-0.01536965649575	-0.641310274600983	NPCNearDoor_HumanMale_Mesh_LOD1	NPCNearDoor_HumanMale_Mesh_LOD1	-1	-1
0.00156600773334503	0.0481233596801758	0.498912930488586	0.423581689596176	1.73123896121979	0.399707496166229	2.52024364471436	-0.0569811090826988	0.764908075332642	-0.0153075391426682	-0.64143168926239	NPCNearDoor_HumanMale_Mesh_LOD1	NPCNearDoor_HumanMale_Mesh_LOD1	-1	-1
0.00156600773334503	0.0481233596801758	0.498912930488586	0.423581689596176	1.73134326934814	0.399771392345428	2.52043485641479	-0.056783776730299	0.764873504638672	-0.0152059299871325	-0.641492784023285	TheTavern_3	NPCNearDoor_HumanMale_Mesh_LOD1	10	-1
0.00156600773334503	0.0481233596801758	0.498912930488586	0.423581689596176	1.73130893707275	0.399788320064545	2.52049875259399	-0.0566587671637535	0.764874219894409	-0.0151455057784915	-0.641504347324371	TheTavern_3	NPCNearDoor_HumanMale_Mesh_LOD1	10	-1
0.00156600773334503	0.0481233596801758	0.498912930488586	0.423581689596176	1.7312673330307	0.399860799312592	2.52054738998413	-0.0565210916101933	0.764906108379364	-0.0151846585795283	-0.641477644443512	TheTavern_3	NPCNearDoor_HumanMale_Mesh_LOD1	10	-1
0.000827491283416748	0.048299640417099	0.499651432037354	0.423405408859253	1.73122036457062	0.399846971035004	2.5204906463623	-0.0564166307449341	0.764984309673309	-0.0151762263849378	-0.641393780708313	TheTavern_3	NPCNearDoor_HumanMale_Mesh_LOD1	10	-1
0.000827491283416748	0.048299640417099	0.499651432037354	0.423405408859253	1.7312775850296	0.399943172931671	2.52046394348145	-0.0561509877443314	0.76513010263443	-0.0153062511235476	-0.641240060329437	TheTavern_3	NPCNearDoor_HumanMale_Mesh_LOD1	10	-1
0.00147959589958191	0.0488321483135223	0.498999327421188	0.42287290096283	1.73129868507385	0.399920403957367	2.52046632766724	-0.0558297373354435	0.765243887901306	-0.0151843950152397	-0.641135215759277	NPCNearDoor_HumanMale_Mesh_LOD1	NPCNearDoor_HumanMale_Mesh_LOD1	-1	-1
0.00147959589958191	0.0488321483135223	0.498999327421188	0.42287290096283	1.73135137557983	0.399946987628937	2.52053928375244	-0.0557395108044147	0.765327513217926	-0.0150702698156238	-0.641045987606049	NPCNearDoor_HumanMale_Mesh_LOD1	NPCNearDoor_HumanMale_Mesh_LOD1	-1	-1
0.00147959589958191	0.0488321483135223	0.498999327421188	0.42287290096283	1.73130774497986	0.399941861629486	2.52054071426392	-0.0557365156710148	0.765439748764038	-0.014876414090395	-0.640916645526886	NPCNearDoor_HumanMale_Mesh_LOD1	NPCNearDoor_HumanMale_Mesh_LOD1	-1	-1
0.000457197427749634	0.0477779805660248	0.500936150550842	0.423927068710327	1.73135316371918	0.399903953075409	2.52054595947266	-0.0555872619152069	0.765649318695068	-0.0150495264679194	-0.640675187110901	NPCNearDoor_HumanMale_Mesh_LOD1	NPCNearDoor_HumanMale_Mesh_LOD1	-1	-1
0.000457197427749634	0.0477779805660248	0.500936150550842	0.423927068710327	1.73132741451263	0.399846255779266	2.52050113677979	-0.055404607206583	0.765825569629669	-0.0151418196037412	-0.640478193759918	NPCNearDoor_HumanMale_Mesh_LOD1	NPCNearDoor_HumanMale_Mesh_LOD1	-1	-1
0.000705420970916748	0.0476102977991104	0.501184344291687	0.42409473657608	1.73127913475037	0.399806201457977	2.52053546905518	-0.0554044842720032	0.766019344329834	-0.0152833815664053	-0.640243113040924	NPCNearDoor_HumanMale_Mesh_LOD1	NPCNearDoor_HumanMale_Mesh_LOD1	-1	-1
0.000705420970916748	0.0476102977991104	0.501184344291687	0.42409473657608	1.7312114238739	0.399818122386932	2.52055168151855	-0.0554190874099731	0.76612788438797	-0.0153875267133117	-0.640109419822693	NPCNearDoor_HumanMale_Mesh_LOD1	NPCNearDoor_HumanMale_Mesh_LOD1	-1	-1
0.000705420970916748	0.0476102977991104	0.501184344291687	0.42409473657608	1.73118078708649	0.399792373180389	2.52059268951416	-0.0555888265371323	0.766289174556732	-0.0153538901358843	-0.639902472496033	NPCNearDoor_HumanMale_Mesh_LOD1	NPCNearDoor_HumanMale_Mesh_LOD1	-1	-1
0.000705420970916748	0.0476102977991104	0.501184344291687	0.42409473657608	1.73110604286194	0.399732768535614	2.5206184387207	-0.0557287037372589	0.766384541988373	-0.0152729768306017	-0.639777898788452	NPCNearDoor_HumanMale_Mesh_LOD1	NPCNearDoor_HumanMale_Mesh_LOD1	-1	-1
0.000783532857894897	0.0483404695987701	0.501262426376343	0.423364579677582	1.73113763332367	0.399668276309967	2.52064895629883	-0.0559597089886665	0.766511678695679	-0.0151128452271223	-0.639609277248383	NPCNearDoor_HumanMale_Mesh_LOD1	NPCNearDoor_HumanMale_Mesh_LOD1	-1	-1
0.000783532857894897	0.0483404695987701	0.501262426376343	0.423364579677582	1.7311087846756	0.399665296077728	2.5206618309021	-0.0562879033386707	0.766505897045136	-0.0150564312934875	-0.63958877325058	NPCNearDoor_HumanMale_Mesh_LOD1	NPCNearDoor_HumanMale_Mesh_LOD1	-1	-1
0.000506997108459473	0.0481061935424805	0.50098592042923	0.423598855733871	1.73109912872314	0.399708688259125	2.5207462310791	-0.0563694834709167	0.766451060771942	-0.0150810359045863	-0.639646708965302	NPCNearDoor_HumanMale_Mesh_LOD1	NPCNearDoor_HumanMale_Mesh_LOD1	-1	-1
0.000506997108459473	0.0481061935424805	0.50098592042923	0.423598855733871	1.73105990886688	0.399730384349823	2.5208568572998	-0.0562519803643227	0.766473293304443	-0.0149987796321511	-0.639632284641266	NPCNearDoor_HumanMale_Mesh_LOD1	NPCNearDoor_HumanMale_Mesh_LOD1	-1	-1
4.43160533905029E-05	0.0478159338235855	0.500434637069702	0.423889100551605	1.73105561733246	0.399747312068939	2.52094268798828	-0.056107934564352	0.766323387622833	-0.0150644285604358	-0.639823019504547	NPCNearDoor_HumanMale_Mesh_LOD1	NPCNearDoor_HumanMale_Mesh_LOD1	-1	-1
0.000219166278839111	0.0476028323173523	0.500698089599609	0.424102216959	1.73108470439911	0.399809777736664	2.52104473114014	-0.0559354834258556	0.766156673431396	-0.015021045692265	-0.640038728713989	NPCNearDoor_HumanMale_Mesh_LOD1	NPCNearDoor_HumanMale_Mesh_LOD1	-1	-1
0.000219166278839111	0.0476028323173523	0.500698089599609	0.424102216959	1.73104929924011	0.399835526943207	2.52117919921875	-0.0559098049998283	0.766049325466156	-0.0149941435083747	-0.640170097351074	NPCNearDoor_HumanMale_Mesh_LOD1	NPCNearDoor_HumanMale_Mesh_LOD1	-1	-1
0.000219166278839111	0.0476028323173523	0.500698089599609	0.424102216959	1.73101103305817	0.39982658624649	2.52117395401001	-0.0559231005609035	0.765811145305634	-0.0149978948757052	-0.640453696250916	NPCNearDoor_HumanMale_Mesh_LOD1	NPCNearDoor_HumanMale_Mesh_LOD1	-1	-1
