deltaTime	avgXGazingUncertainty	avgYGazingUncertainty	gazeX	gazeY	headX	headY	headZ	headRotationX	headRotationY	headRotationZ	headRotationW	faceRaycastHitObjectName	gazeRaycastHitObjectName	faceRaycastHitTriangleName	gazeRaycastHitTriangleName
0.0125287510454655	0.0151252150535584	0.027531236410141	0.491484403610229	0.544982075691223	1.53786611557007	0.254496872425079	2.74106884002686	-0.0198406670242548	0.835283219814301	0.0258637834340334	-0.548852741718292	TheTavern_3	Cube.001	10	22
0.0102538568899035	0.0151252150535584	0.027531236410141	0.491484403610229	0.544982075691223	1.53791153430939	0.254463255405426	2.74104309082031	-0.0196959897875786	0.835349798202515	0.0255448427051306	-0.548771679401398	TheTavern_3	Cube.001	10	22
0.0106115872040391	0.00788891315460205	0.06876140832901	0.51449853181839	0.503751933574677	1.53790044784546	0.254430711269379	2.7410135269165	-0.0193471442908049	0.835419654846191	0.0256451889872551	-0.54867297410965	TheTavern_3	NPCNearDoor_HumanMale_Mesh_LOD1	10	-1
0.0112491780892015	0.00788891315460205	0.06876140832901	0.51449853181839	0.503751933574677	1.5378839969635	0.254424393177032	2.74098300933838	-0.019159097224474	0.835565567016602	0.0255525447428226	-0.548461675643921	TheTavern_3	NPCNearDoor_HumanMale_Mesh_LOD1	10	-1
0.0112286861985922	0.00788891315460205	0.06876140832901	0.51449853181839	0.503751933574677	1.53778576850891	0.254480540752411	2.74094104766846	-0.0190144572407007	0.835662961006165	0.0255141928792	-0.54831999540329	TheTavern_3	NPCNearDoor_HumanMale_Mesh_LOD1	10	-1
0.0112819643691182	0.0846136957406998	0.0595538765192032	0.421995937824249	0.512959480285645	1.53773307800293	0.254435837268829	2.74096488952637	-0.0189782958477736	0.835682332515717	0.0254343394190073	-0.548295617103577	TheTavern_3	Cube.001	10	37
0.0109871737658978	0.0846136957406998	0.0595538765192032	0.421995937824249	0.512959480285645	1.53771305084229	0.254413068294525	2.7409405708313	-0.0188181437551975	0.835822522640228	0.0254988558590412	-0.548084378242493	TheTavern_3	Cube.001	10	37
0.0108630517497659	0.0846136957406998	0.0595538765192032	0.421995937824249	0.512959480285645	1.53786623477936	0.254425823688507	2.74093770980835	-0.0188620984554291	0.835960566997528	0.0257183518260717	-0.54786205291748	TheTavern_3	Cube.001	10	37
0.0123024620115757	0.0846136957406998	0.0595538765192032	0.421995937824249	0.512959480285645	1.53783047199249	0.25442236661911	2.74096632003784	-0.0189452171325684	0.83598655462265	0.0255563650280237	-0.547827005386353	TheTavern_3	Cube.001	10	37
0.0106923831626773	0.13466502726078	0.144753098487854	0.467660069465637	0.525785267353058	1.53784656524658	0.254448294639587	2.74099850654602	-0.0191743299365044	0.836039900779724	0.0253545269370079	-0.547747075557709	TheTavern_3	TheTavern_3	10	10
0.0130182150751352	0.13466502726078	0.144753098487854	0.467660069465637	0.525785267353058	1.53796243667603	0.254332840442657	2.74104070663452	-0.0192747507244349	0.836163699626923	0.0252303425222635	-0.547560214996338	TheTavern_3	TheTavern_3	10	10
0.00887767877429724	0.13466502726078	0.144753098487854	0.467660069465637	0.525785267353058	1.53795957565308	0.254398584365845	2.74110054969788	-0.0194653030484915	0.836199462413788	0.0251550283282995	-0.547502398490906	TheTavern_3	TheTavern_3	10	10
0.00945057440549135	0.13466502726078	0.144753098487854	0.467660069465637	0.525785267353058	1.53804397583008	0.254430830478668	2.74113416671753	-0.0196584537625313	0.836185812950134	0.0252566412091255	-0.547511696815491	TheTavern_3	TheTavern_3	10	10
0.0109971277415752	0.13466502726078	0.144753098487854	0.467660069465637	0.525785267353058	1.53811597824097	0.254484415054321	2.74120473861694	-0.0197107885032892	0.836212038993835	0.0254402812570333	-0.547461271286011	TheTavern_3	TheTavern_3	10	10
0.0186250917613506	0.0666633546352386	0.184717357158661	0.399658381938934	0.485821008682251	1.53824055194855	0.254543662071228	2.74128198623657	-0.0197424404323101	0.836217224597931	0.025614470243454	-0.547444045543671	TheTavern_3	TheTavern_3	10	10
0.00707322033122182	0.0666633546352386	0.184717357158661	0.399658381938934	0.485821008682251	1.53831624984741	0.254631876945496	2.74137783050537	-0.0196527559310198	0.8362095952034	0.025582492351532	-0.547460317611694	TheTavern_3	TheTavern_3	10	10
0.00763733312487602	0.0666633546352386	0.184717357158661	0.399658381938934	0.485821008682251	1.53843748569489	0.25469571352005	2.7414755821228	-0.0197414085268974	0.836199343204498	0.0256544277071953	-0.5474693775177	TheTavern_3	TheTavern_3	10	10
0.0111973620951176	0.00272403657436371	0.108423560857773	0.469045758247375	0.409527212381363	1.5386518239975	0.254813134670258	2.74158811569214	-0.0198206566274166	0.83613109588623	0.0258749611675739	-0.547560393810272	TheTavern_3	NPCNearDoor_HumanMale_Mesh_LOD1	10	-1
0.0108331916853786	0.00272403657436371	0.108423560857773	0.469045758247375	0.409527212381363	1.53877902030945	0.254891812801361	2.74169254302979	-0.0198901779949665	0.836147964000702	0.0259026028215885	-0.547530889511108	TheTavern_3	NPCNearDoor_HumanMale_Mesh_LOD1	10	-1
0.0111915078014135	0.00272403657436371	0.108423560857773	0.469045758247375	0.409527212381363	1.5389130115509	0.254959642887115	2.74180269241333	-0.0200072694569826	0.836116433143616	0.0261133685708046	-0.547564685344696	TheTavern_3	NPCNearDoor_HumanMale_Mesh_LOD1	10	-1
0.0112705482169986	0.00272403657436371	0.108423560857773	0.469045758247375	0.409527212381363	1.53900575637817	0.255001246929169	2.74192905426025	-0.0204036347568035	0.836128115653992	0.0264060366898775	-0.547518312931061	TheTavern_3	NPCNearDoor_HumanMale_Mesh_LOD1	10	-1
0.0114757595583797	0.0310827195644379	0.0412458032369614	0.501970052719116	0.477124929428101	1.53917217254639	0.255064368247986	2.74201345443726	-0.0206569079309702	0.836064755916595	0.0266880355775356	-0.547591865062714	TheTavern_3	NPCNearDoor_HumanMale_Mesh_LOD1	10	-1
0.0106291510164738	0.0310827195644379	0.0412458032369614	0.501970052719116	0.477124929428101	1.53926730155945	0.255168855190277	2.74212312698364	-0.0206883139908314	0.836183309555054	0.0269260983914137	-0.54739785194397	TheTavern_3	NPCNearDoor_HumanMale_Mesh_LOD1	10	-1
0.0114502916112542	0.0310827195644379	0.0412458032369614	0.501970052719116	0.477124929428101	1.53939187526703	0.255212724208832	2.74213480949402	-0.0207357704639435	0.836254596710205	0.027348468080163	-0.547266364097595	TheTavern_3	NPCNearDoor_HumanMale_Mesh_LOD1	10	-1
0.0117216622456908	0.0310827195644379	0.0412458032369614	0.501970052719116	0.477124929428101	1.53962874412537	0.255218803882599	2.7421875	-0.0207987502217293	0.836358547210693	0.0277664959430695	-0.547083973884583	TheTavern_3	NPCNearDoor_HumanMale_Mesh_LOD1	10	-1
0.0107951359823346	0.0175192654132843	0.0332998335361481	0.555328965187073	0.41028618812561	1.5397744178772	0.255298852920532	2.74227237701416	-0.0208843741565943	0.836437106132507	0.0282258782535791	-0.546937108039856	TheTavern_3	NPCNearDoor_HumanMale_Mesh_LOD1	10	-1
0.0109903942793608	0.0175192654132843	0.0332998335361481	0.555328965187073	0.41028618812561	1.54005312919617	0.255425274372101	2.74238204956055	-0.0208908896893263	0.836494207382202	0.0286953058093786	-0.546824991703033	TheTavern_3	NPCNearDoor_HumanMale_Mesh_LOD1	10	-1
0.0110893407836556	0.0152460336685181	0.0289348214864731	0.553055703639984	0.414651215076447	1.54024064540863	0.255524694919586	2.74246168136597	-0.0207715500146151	0.836469769477844	0.0291989985853434	-0.546840250492096	TheTavern_3	NPCNearDoor_HumanMale_Mesh_LOD1	10	-1
0.0165469199419022	0.0152460336685181	0.0289348214864731	0.553055703639984	0.414651215076447	1.54045248031616	0.255594551563263	2.74253416061401	-0.0206519104540348	0.836421072483063	0.029913280159235	-0.546880662441254	TheTavern_3	NPCNearDoor_HumanMale_Mesh_LOD1	10	-1
0.00536858662962914	0.0152460336685181	0.0289348214864731	0.553055703639984	0.414651215076447	1.54063904285431	0.255683600902557	2.74269199371338	-0.0205600932240486	0.836439311504364	0.0304630398750305	-0.546825885772705	TheTavern_3	NPCNearDoor_HumanMale_Mesh_LOD1	10	-1
0.0118899885565043	0.0368425399065018	0.0420467108488083	0.500967144966125	0.485632717609406	1.54073548316956	0.255826413631439	2.74282884597778	-0.0204545147716999	0.836370646953583	0.0310383401811123	-0.546902477741241	TheTavern_3	TheTavern_3	10	10
0.0107728876173496	0.0368425399065018	0.0420467108488083	0.500967144966125	0.485632717609406	1.54086327552795	0.255937159061432	2.74291944503784	-0.0202283691614866	0.836264789104462	0.0316595025360584	-0.547037303447723	TheTavern_3	TheTavern_3	10	10
0.011150524020195	0.0368425399065018	0.0420467108488083	0.500967144966125	0.485632717609406	1.54097843170166	0.256019949913025	2.74296045303345	-0.0201822072267532	0.836167454719543	0.0322248376905918	-0.547154724597931	TheTavern_3	TheTavern_3	10	10
0.0112357120960951	0.0373930931091309	0.0429751425981522	0.500416576862335	0.486561179161072	1.54115557670593	0.256011366844177	2.74296617507935	-0.0200704615563154	0.835981369018555	0.0327924117445946	-0.547409296035767	TheTavern_3	TheTavern_3	10	10
0.0111508164554834	0.0373930931091309	0.0429751425981522	0.500416576862335	0.486561179161072	1.5412255525589	0.256093442440033	2.74307107925415	-0.0201798975467682	0.83600252866745	0.0331365242600441	-0.547352373600006	TheTavern_3	TheTavern_3	10	10
0.0112459575757384	0.0373930931091309	0.0429751425981522	0.500416576862335	0.486561179161072	1.54134893417358	0.256108820438385	2.7431468963623	-0.020298158749938	0.83593225479126	0.0334759466350079	-0.547434628009796	TheTavern_3	TheTavern_3	10	10
0.0112351262941957	0.0373930931091309	0.0429751425981522	0.500416576862335	0.486561179161072	1.54144406318665	0.256089806556702	2.74318814277649	-0.020193837583065	0.835840046405792	0.0338088721036911	-0.547558844089508	NPCNearDoor_HumanMale_Mesh_LOD1	TheTavern_3	-1	10
0.01112827565521	0.0373930931091309	0.0429751425981522	0.500416576862335	0.486561179161072	1.54150867462158	0.256038248538971	2.7432017326355	-0.0202626883983612	0.835770070552826	0.0341740138828754	-0.547640442848206	NPCNearDoor_HumanMale_Mesh_LOD1	TheTavern_3	-1	10
0.0110243521630764	0.0373930931091309	0.0429751425981522	0.500416576862335	0.486561179161072	1.54147577285767	0.256098687648773	2.7433180809021	-0.0202784221619368	0.835660755634308	0.0344635769724846	-0.547788500785828	NPCNearDoor_HumanMale_Mesh_LOD1	TheTavern_3	-1	10
0.0115779265761375	0.0373930931091309	0.0429751425981522	0.500416576862335	0.486561179161072	1.54145562648773	0.256180346012115	2.74341058731079	-0.0205256063491106	0.835519671440125	0.0348680764436722	-0.547968864440918	NPCNearDoor_HumanMale_Mesh_LOD1	TheTavern_3	-1	10
0.0113832531496882	0.0373930931091309	0.0429751425981522	0.500416576862335	0.486561179161072	1.5415073633194	0.256165206432343	2.74344921112061	-0.0209401026368141	0.835331857204437	0.035279206931591	-0.548213183879852	NPCNearDoor_HumanMale_Mesh_LOD1	TheTavern_3	-1	10
0.0107638128101826	0.0373930931091309	0.0429751425981522	0.500416576862335	0.486561179161072	1.5414365530014	0.256223380565643	2.74345922470093	-0.0213321447372437	0.8350909948349	0.0354779474437237	-0.548551976680756	NPCNearDoor_HumanMale_Mesh_LOD1	TheTavern_3	-1	10
0.0183818247169256	0.0102134943008423	0.0198415964841843	0.548023164272308	0.423744440078735	1.54139685630798	0.256210744380951	2.74352216720581	-0.0215569175779819	0.834911942481995	0.0354837104678154	-0.548815369606018	NPCNearDoor_HumanMale_Mesh_LOD1	NPCNearDoor_HumanMale_Mesh_LOD1	-1	-1
0.00510980281978846	0.0102134943008423	0.0198415964841843	0.548023164272308	0.423744440078735	1.54138278961182	0.256163537502289	2.74355506896973	-0.0216908361762762	0.834755301475525	0.0354181751608849	-0.549052596092224	NPCNearDoor_HumanMale_Mesh_LOD1	NPCNearDoor_HumanMale_Mesh_LOD1	-1	-1
0.00966427568346262	0.0102134943008423	0.0198415964841843	0.548023164272308	0.423744440078735	1.54130601882935	0.256098926067352	2.74352049827576	-0.0218900237232447	0.834626495838165	0.0353272929787636	-0.549246311187744	NPCNearDoor_HumanMale_Mesh_LOD1	NPCNearDoor_HumanMale_Mesh_LOD1	-1	-1
0.0115123521536589	0.0102134943008423	0.0198415964841843	0.548023164272308	0.423744440078735	1.54131770133972	0.256006300449371	2.74349403381348	-0.0220834724605083	0.83449774980545	0.0354069136083126	-0.549428999423981	NPCNearDoor_HumanMale_Mesh_LOD1	NPCNearDoor_HumanMale_Mesh_LOD1	-1	-1
0.0117500582709908	0.123171448707581	0.0858652293682098	0.488074660301209	0.371813505887985	1.54135012626648	0.255922555923462	2.74346971511841	-0.0224502272903919	0.834345400333405	0.0355305001139641	-0.54963755607605	NPCNearDoor_HumanMale_Mesh_LOD1	NPCNearDoor_HumanMale_Mesh_LOD1	-1	-1
0.0104336002841592	0.123171448707581	0.0858652293682098	0.488074660301209	0.371813505887985	1.54124236106873	0.25587409734726	2.74360466003418	-0.0226118955761194	0.834243595600128	0.0355793945491314	-0.549782276153564	NPCNearDoor_HumanMale_Mesh_LOD1	NPCNearDoor_HumanMale_Mesh_LOD1	-1	-1
0.0115325516089797	0.123171448707581	0.0858652293682098	0.488074660301209	0.371813505887985	1.5411741733551	0.255851089954376	2.74361896514893	-0.0229688175022602	0.834145843982697	0.0356861501932144	-0.549908876419067	NPCNearDoor_HumanMale_Mesh_LOD1	Bench 1 (2)	-1	144
0.0113413911312819	0.123171448707581	0.0858652293682098	0.488074660301209	0.371813505887985	1.5411856174469	0.255865871906281	2.7435736656189	-0.0232658833265305	0.834023654460907	0.0358618497848511	-0.55007016658783	NPCNearDoor_HumanMale_Mesh_LOD1	NPCNearDoor_HumanMale_Mesh_LOD1	-1	-1
0.0113677382469177	0.123171448707581	0.0858652293682098	0.488074660301209	0.371813505887985	1.54104351997375	0.25587272644043	2.74359369277954	-0.0235257223248482	0.833984613418579	0.0360360778868198	-0.550107002258301	NPCNearDoor_HumanMale_Mesh_LOD1	NPCNearDoor_HumanMale_Mesh_LOD1	-1	-1
0.0109494104981422	0.123171448707581	0.0858652293682098	0.488074660301209	0.371813505887985	1.54091548919678	0.255875945091248	2.74360084533691	-0.0237790793180466	0.833977460861206	0.0360820554196835	-0.550103843212128	NPCNearDoor_HumanMale_Mesh_LOD1	Bench 1 (2)	-1	144
0.0119306799024343	0.105395257472992	0.0683144479990005	0.456468760967255	0.445600032806396	1.5409482717514	0.255768299102783	2.74356365203857	-0.023888673633337	0.833945572376251	0.0363335460424423	-0.5501309633255	NPCNearDoor_HumanMale_Mesh_LOD1	TheTavern_3	-1	11
0.0109142819419503	0.105395257472992	0.0683144479990005	0.456468760967255	0.445600032806396	1.54079031944275	0.255730748176575	2.74356031417847	-0.0241939630359411	0.833905756473541	0.0362585075199604	-0.5501828789711	NPCNearDoor_HumanMale_Mesh_LOD1	TheTavern_3	-1	11
0.0110659217461944	0.105395257472992	0.0683144479990005	0.456468760967255	0.445600032806396	1.54066753387451	0.255675256252289	2.74355936050415	-0.0247194524854422	0.833820462226868	0.0363211669027805	-0.550284564495087	NPCNearDoor_HumanMale_Mesh_LOD1	TheTavern_3	-1	11
0.0121543342247605	0.00191378593444824	0.0145470499992371	0.352987289428711	0.528461515903473	1.54062461853027	0.25556892156601	2.7435142993927	-0.0251159258186817	0.833754122257233	0.0365141071379185	-0.550354480743408	NPCNearDoor_HumanMale_Mesh_LOD1	TheTavern_3	-1	10
0.0170012563467026	0.00191378593444824	0.0145470499992371	0.352987289428711	0.528461515903473	1.54043054580688	0.255551159381866	2.7434401512146	-0.0256171356886625	0.833689570426941	0.0364784859120846	-0.550431430339813	NPCNearDoor_HumanMale_Mesh_LOD1	TheTavern_3	-1	10
0.00448245787993073	0.00191378593444824	0.0145470499992371	0.352987289428711	0.528461515903473	1.54033756256104	0.255441009998322	2.74336671829224	-0.0260459575802088	0.8335862159729	0.0365550667047501	-0.550562739372253	NPCNearDoor_HumanMale_Mesh_LOD1	TheTavern_3	-1	10
0.0118896961212158	0.00191378593444824	0.0145470499992371	0.352987289428711	0.528461515903473	1.54027569293976	0.255284368991852	2.7433295249939	-0.0265385787934065	0.833560466766357	0.0366231203079224	-0.550573825836182	NPCNearDoor_HumanMale_Mesh_LOD1	TheTavern_3	-1	10
0.0105796782299876	0.00191378593444824	0.0145470499992371	0.352987289428711	0.528461515903473	1.54006958007813	0.255240380764008	2.74329400062561	-0.0270494055002928	0.833459913730621	0.0367345288395882	-0.55069363117218	NPCNearDoor_HumanMale_Mesh_LOD1	TheTavern_3	-1	10
0.0117421541363001	0.00191378593444824	0.0145470499992371	0.352987289428711	0.528461515903473	1.53983521461487	0.25521320104599	2.743323802948	-0.0275720115751028	0.833410084247589	0.0367714613676071	-0.550740659236908	NPCNearDoor_HumanMale_Mesh_LOD1	TheTavern_3	-1	10
0.0108937891200185	0.00191378593444824	0.0145470499992371	0.352987289428711	0.528461515903473	1.53975892066956	0.255092322826386	2.74328970909119	-0.0281403884291649	0.833362817764282	0.0367776453495026	-0.550783097743988	NPCNearDoor_HumanMale_Mesh_LOD1	TheTavern_3	-1	10
0.0113610047847033	0.0721155405044556	0.0137700885534287	0.423189043998718	0.500144362449646	1.53954076766968	0.255043208599091	2.74328708648682	-0.0287177562713623	0.833268940448761	0.036721259355545	-0.550898969173431	NPCNearDoor_HumanMale_Mesh_LOD1	Cube.001	-1	171
0.0112158050760627	0.0721155405044556	0.0137700885534287	0.423189043998718	0.500144362449646	1.53936409950256	0.254947364330292	2.74328279495239	-0.0294545777142048	0.83321475982666	0.0368333719670773	-0.550934672355652	NPCNearDoor_HumanMale_Mesh_LOD1	Cube.001	-1	171
0.0108551476150751	0.0721155405044556	0.0137700885534287	0.423189043998718	0.500144362449646	1.5393340587616	0.254869997501373	2.74324893951416	-0.0301752053201199	0.833096504211426	0.0371716506779194	-0.551051735877991	NPCNearDoor_HumanMale_Mesh_LOD1	Cube.001	-1	171
0.0110896332189441	0.0721155405044556	0.0137700885534287	0.423189043998718	0.500144362449646	1.53910970687866	0.254852414131165	2.74328136444092	-0.0310681909322739	0.832935035228729	0.0373929999768734	-0.55123108625412	NPCNearDoor_HumanMale_Mesh_LOD1	Cube.001	-1	171
0.0110609447583556	0.0721155405044556	0.0137700885534287	0.423189043998718	0.500144362449646	1.53892302513123	0.254780471324921	2.74329471588135	-0.0316767767071724	0.832800149917603	0.0372723452746868	-0.551408529281616	NPCNearDoor_HumanMale_Mesh_LOD1	Cube.001	-1	170
0.0114295063540339	0.0721155405044556	0.0137700885534287	0.423189043998718	0.500144362449646	1.53874802589417	0.254555702209473	2.7432918548584	-0.0322986952960491	0.83270537853241	0.0371331237256527	-0.551524937152863	NPCNearDoor_HumanMale_Mesh_LOD1	Cube.001	-1	170
0.0115009350702167	0.0746424198150635	0.0238966345787048	0.425715923309326	0.490017831325531	1.53849720954895	0.254526734352112	2.74320840835571	-0.0328457467257977	0.832532584667206	0.0367656163871288	-0.551777958869934	NPCNearDoor_HumanMale_Mesh_LOD1	TheTavern_3	-1	10
0.0110416244715452	0.0746424198150635	0.0238966345787048	0.425715923309326	0.490017831325531	1.53821349143982	0.254479765892029	2.74323916435242	-0.0333741493523121	0.832429468631744	0.0365361757576466	-0.55191707611084	NPCNearDoor_HumanMale_Mesh_LOD1	TheTavern_3	-1	10
0.0167612079530954	0.0746424198150635	0.0238966345787048	0.425715923309326	0.490017831325531	1.53804314136505	0.254293024539948	2.74321293830872	-0.0340198054909706	0.8322793841362	0.0360953658819199	-0.552132964134216	NPCNearDoor_HumanMale_Mesh_LOD1	TheTavern_3	-1	10
0.00497719086706638	0.0746424198150635	0.0238966345787048	0.425715923309326	0.490017831325531	1.53778076171875	0.254190981388092	2.7432746887207	-0.0346116982400417	0.832053065299988	0.0356036573648453	-0.552469193935394	NPCNearDoor_HumanMale_Mesh_LOD1	TheTavern_3	-1	10
0.011869496665895	0.0746424198150635	0.0238966345787048	0.425715923309326	0.490017831325531	1.53758347034454	0.254019498825073	2.7432656288147	-0.0351681783795357	0.831869900226593	0.0351282954216003	-0.552740156650543	NPCNearDoor_HumanMale_Mesh_LOD1	TheTavern_3	-1	10
0.0110246445983648	0.0746424198150635	0.0238966345787048	0.425715923309326	0.490017831325531	1.53741717338562	0.253847241401672	2.7432279586792	-0.0359366126358509	0.831592082977295	0.0346850976347923	-0.553136587142944	NPCNearDoor_HumanMale_Mesh_LOD1	TheTavern_3	-1	10
0.0108680287376046	0.0796867311000824	0.0309910923242569	0.430760234594345	0.48292338848114	1.53713023662567	0.253713607788086	2.7433819770813	-0.0365634113550186	0.831408023834229	0.0342550240457058	-0.553399085998535	NPCNearDoor_HumanMale_Mesh_LOD1	TheTavern_3	-1	10
0.0112430304288864	0.0796867311000824	0.0309910923242569	0.430760234594345	0.48292338848114	1.53688406944275	0.253578662872314	2.74335622787476	-0.0371172428131104	0.831136286258698	0.0337203852832317	-0.553802907466888	NPCNearDoor_HumanMale_Mesh_LOD1	TheTavern_3	-1	10
0.011166624724865	0.0796867311000824	0.0309910923242569	0.430760234594345	0.48292338848114	1.53666353225708	0.253390252590179	2.74333763122559	-0.0378209576010704	0.830962002277374	0.03329873457551	-0.554042339324951	NPCNearDoor_HumanMale_Mesh_LOD1	TheTavern_3	-1	10
0.0110266944393516	0.0796867311000824	0.0309910923242569	0.430760234594345	0.48292338848114	1.53637671470642	0.253271043300629	2.74338006973267	-0.0385279878973961	0.830704629421234	0.0327593088150024	-0.554411709308624	NPCNearDoor_HumanMale_Mesh_LOD1	TheTavern_3	-1	10
0.0113232415169477	0.0785132646560669	0.0293306112289429	0.42958676815033	0.484583854675293	1.53608286380768	0.253171026706696	2.74341249465942	-0.0389902703464031	0.830577969551086	0.0321717523038387	-0.554603397846222	NPCNearDoor_HumanMale_Mesh_LOD1	TheTavern_3	-1	10
0.0113516375422478	0.0785132646560669	0.0293306112289429	0.42958676815033	0.484583854675293	1.53589963912964	0.253008663654327	2.74340152740479	-0.0395694971084595	0.830385804176331	0.031675361096859	-0.554878652095795	NPCNearDoor_HumanMale_Mesh_LOD1	TheTavern_3	-1	10
0.0109309675171971	0.0785132646560669	0.0293306112289429	0.42958676815033	0.484583854675293	1.53562223911285	0.252897799015045	2.74343657493591	-0.0400244258344173	0.8302161693573	0.0312857069075108	-0.555122017860413	NPCNearDoor_HumanMale_Mesh_LOD1	TheTavern_3	-1	10
0.0118179740384221	0.0785132646560669	0.0293306112289429	0.42958676815033	0.484583854675293	1.53537714481354	0.252814948558807	2.74342823028564	-0.0404194854199886	0.830012142658234	0.0308633092790842	-0.555422008037567	NPCNearDoor_HumanMale_Mesh_LOD1	TheTavern_3	-1	10
0.0105779217556119	0.0785132646560669	0.0293306112289429	0.42958676815033	0.484583854675293	1.53521585464478	0.252674758434296	2.74344301223755	-0.0407783128321171	0.829915523529053	0.0305640734732151	-0.55555671453476	NPCNearDoor_HumanMale_Mesh_LOD1	TheTavern_3	-1	10
0.0121481865644455	0.0750491321086884	0.0187279134988785	0.426122635602951	0.495186567306519	1.5349634885788	0.252632558345795	2.74341583251953	-0.0412743389606476	0.829753518104553	0.0303369276225567	-0.555774509906769	NPCNearDoor_HumanMale_Mesh_LOD1	TheTavern_3	-1	10
0.0162998475134373	0.0750491321086884	0.0187279134988785	0.426122635602951	0.495186567306519	1.53475856781006	0.252572000026703	2.74340629577637	-0.0416486449539661	0.82959508895874	0.0300492625683546	-0.555998563766479	NPCNearDoor_HumanMale_Mesh_LOD1	TheTavern_3	-1	10
0.00536214606836438	0.0750491321086884	0.0187279134988785	0.426122635602951	0.495186567306519	1.53466784954071	0.252471804618835	2.74339175224304	-0.0419164188206196	0.829491436481476	0.0298405420035124	-0.556144416332245	NPCNearDoor_HumanMale_Mesh_LOD1	TheTavern_3	-1	10
0.0108999367803335	0.0745739340782166	0.0179782509803772	0.425647437572479	0.495936214923859	1.53447318077087	0.252485692501068	2.74332761764526	-0.042202290147543	0.829426288604736	0.0294793657958508	-0.556239187717438	NPCNearDoor_HumanMale_Mesh_LOD1	TheTavern_3	-1	10
0.0109883453696966	0.0745739340782166	0.0179782509803772	0.425647437572479	0.495936214923859	1.53430020809174	0.252494871616364	2.74330902099609	-0.0422972664237022	0.829416573047638	0.0292402412742376	-0.556259036064148	NPCNearDoor_HumanMale_Mesh_LOD1	TheTavern_3	-1	10
0.0120530463755131	0.0745739340782166	0.0179782509803772	0.425647437572479	0.495936214923859	1.53426826000214	0.252463579177856	2.7432861328125	-0.0425399951636791	0.829438745975494	0.0291085820645094	-0.556214392185211	NPCNearDoor_HumanMale_Mesh_LOD1	TheTavern_3	-1	10
0.0106036830693483	0.0744727253913879	0.017773374915123	0.425546228885651	0.496141076087952	1.53417110443115	0.252450168132782	2.74336957931519	-0.0426141731441021	0.829436779022217	0.0289623457938433	-0.556219339370728	NPCNearDoor_HumanMale_Mesh_LOD1	TheTavern_3	-1	10
0.0110568469390273	0.0744727253913879	0.017773374915123	0.425546228885651	0.496141076087952	1.53421247005463	0.252374053001404	2.74331998825073	-0.0423964485526085	0.829574406147003	0.028792779892683	-0.556039392948151	NPCNearDoor_HumanMale_Mesh_LOD1	TheTavern_3	-1	10
0.0115094250068069	0.0734919011592865	0.0161571055650711	0.424565404653549	0.497757375240326	1.5342481136322	0.252342641353607	2.74333453178406	-0.0423711203038692	0.829722225666046	0.0288246888667345	-0.555819153785706	NPCNearDoor_HumanMale_Mesh_LOD1	TheTavern_3	-1	10
0.0106347138062119	0.0734919011592865	0.0161571055650711	0.424565404653549	0.497757375240326	1.53420567512512	0.252404510974884	2.74333953857422	-0.0424145422875881	0.829753994941711	0.028743539005518	-0.555772602558136	NPCNearDoor_HumanMale_Mesh_LOD1	TheTavern_3	-1	10
0.0113513441756368	0.0734919011592865	0.0161571055650711	0.424565404653549	0.497757375240326	1.53428566455841	0.252416789531708	2.74333477020264	-0.0422877296805382	0.82986706495285	0.0288521237671375	-0.555607736110687	NPCNearDoor_HumanMale_Mesh_LOD1	TheTavern_3	-1	10
0.0114286281168461	0.0734919011592865	0.0161571055650711	0.424565404653549	0.497757375240326	1.53445649147034	0.252494633197784	2.7433443069458	-0.0421210788190365	0.829986274242401	0.0289512202143669	-0.555437207221985	NPCNearDoor_HumanMale_Mesh_LOD1	TheTavern_3	-1	10
0.0107632270082831	0.0723120272159576	0.0142745673656464	0.42338553071022	0.499639898538589	1.53450012207031	0.252609252929688	2.7433385848999	-0.0418594107031822	0.83006078004837	0.0291259717196226	-0.555336534976959	NPCNearDoor_HumanMale_Mesh_LOD1	TheTavern_3	-1	10
0.0112119996920228	0.0723120272159576	0.0142745673656464	0.42338553071022	0.499639898538589	1.53451073169708	0.252762734889984	2.74342393875122	-0.0416125133633614	0.830273747444153	0.029336616396904	-0.555025517940521	NPCNearDoor_HumanMale_Mesh_LOD1	TheTavern_3	-1	10
0.0112553257495165	0.0723120272159576	0.0142745673656464	0.42338553071022	0.499639898538589	1.5346474647522	0.252801716327667	2.74344444274902	-0.0413698144257069	0.830386102199554	0.0297653153538704	-0.554852783679962	NPCNearDoor_HumanMale_Mesh_LOD1	TheTavern_3	-1	10
0.0190779641270638	0.0716778039932251	0.013389989733696	0.422751307487488	0.500524461269379	1.53473258018494	0.252925872802734	2.743567943573	-0.0411503948271275	0.830518782138824	0.0300151873379946	-0.55465692281723	NPCNearDoor_HumanMale_Mesh_LOD1	TheTavern_3	-1	10
0.00480564450845122	0.0716778039932251	0.013389989733696	0.422751307487488	0.500524461269379	1.53481507301331	0.253050625324249	2.7436146736145	-0.0408135987818241	0.83055305480957	0.0301658064126968	-0.554622352123261	NPCNearDoor_HumanMale_Mesh_LOD1	TheTavern_3	-1	10
0.00950326770544052	0.0716778039932251	0.013389989733696	0.422751307487488	0.500524461269379	1.53505182266235	0.253155410289764	2.74370002746582	-0.0402967296540737	0.830740451812744	0.0303377695381641	-0.554370045661926	NPCNearDoor_HumanMale_Mesh_LOD1	TheTavern_3	-1	10
0.0110782170668244	0.0222625732421875	0.0178953111171722	0.472871422767639	0.468059360980988	1.53515362739563	0.253263056278229	2.74375438690186	-0.0399378128349781	0.830798029899597	0.0305657107383013	-0.554297268390656	NPCNearDoor_HumanMale_Mesh_LOD1	TheTavern_3	-1	10
0.0111721865832806	0.0222625732421875	0.0178953111171722	0.472871422767639	0.468059360980988	1.53533434867859	0.253332912921906	2.7438063621521	-0.039620328694582	0.830892145633698	0.0307547282427549	-0.554168343544006	NPCNearDoor_HumanMale_Mesh_LOD1	TheTavern_3	-1	10
0.0128226634114981	0.0222625732421875	0.0178953111171722	0.472871422767639	0.468059360980988	1.53550481796265	0.253353893756866	2.74384784698486	-0.0391514226794243	0.830919027328491	0.0308947991579771	-0.554153740406036	NPCNearDoor_HumanMale_Mesh_LOD1	TheTavern_3	-1	10
0.00923394504934549	0.0211062133312225	0.024123951792717	0.473645448684692	0.462332248687744	1.53558325767517	0.253483474254608	2.7438702583313	-0.0388668440282345	0.830913960933685	0.0311877317726612	-0.554164826869965	NPCNearDoor_HumanMale_Mesh_LOD1	NPCNearDoor_HumanMale_Mesh_LOD1	-1	-1
0.0112845990806818	0.0211062133312225	0.024123951792717	0.473645448684692	0.462332248687744	1.53578412532806	0.253524005413055	2.74389886856079	-0.038769256323576	0.830928444862366	0.0315921045839787	-0.554127097129822	NPCNearDoor_HumanMale_Mesh_LOD1	NPCNearDoor_HumanMale_Mesh_LOD1	-1	-1
0.0111227137967944	0.0211062133312225	0.024123951792717	0.473645448684692	0.462332248687744	1.53588390350342	0.25351482629776	2.74394249916077	-0.0387277826666832	0.830947816371918	0.0319510847330093	-0.554080426692963	NPCNearDoor_HumanMale_Mesh_LOD1	NPCNearDoor_HumanMale_Mesh_LOD1	-1	-1
0.0114497058093548	0.0215836018323898	0.0237492918968201	0.474338173866272	0.460733383893967	1.53598952293396	0.253619432449341	2.74405956268311	-0.0385789982974529	0.830922603607178	0.0321806073188782	-0.554115295410156	NPCNearDoor_HumanMale_Mesh_LOD1	NPCNearDoor_HumanMale_Mesh_LOD1	-1	-1
0.0110536264255643	0.0215836018323898	0.0237492918968201	0.474338173866272	0.460733383893967	1.53611207008362	0.253748953342438	2.74412727355957	-0.0382415764033794	0.830918788909912	0.0324247293174267	-0.554130077362061	NPCNearDoor_HumanMale_Mesh_LOD1	NPCNearDoor_HumanMale_Mesh_LOD1	-1	-1
0.0112014608457685	0.0215836018323898	0.0237492918968201	0.474338173866272	0.460733383893967	1.53636789321899	0.25383597612381	2.74419665336609	-0.0377835668623447	0.830980718135834	0.0327491275966167	-0.554049611091614	NPCNearDoor_HumanMale_Mesh_LOD1	NPCNearDoor_HumanMale_Mesh_LOD1	-1	-1
0.0115208420902491	0.0190429836511612	0.0242517590522766	0.477134823799133	0.459816485643387	1.53650379180908	0.253949999809265	2.74428176879883	-0.0373195484280586	0.831010580062866	0.0331380926072598	-0.554013192653656	NPCNearDoor_HumanMale_Mesh_LOD1	NPCNearDoor_HumanMale_Mesh_LOD1	-1	-1
0.010795428417623	0.0190429836511612	0.0242517590522766	0.477134823799133	0.459816485643387	1.53671813011169	0.254041135311127	2.74441623687744	-0.0369206443428993	0.831120550632477	0.033427532762289	-0.553857445716858	NPCNearDoor_HumanMale_Mesh_LOD1	NPCNearDoor_HumanMale_Mesh_LOD1	-1	-1
0.0178566463291645	0.0202140808105469	0.0222441852092743	0.47830593585968	0.457808911800385	1.53688526153564	0.254020869731903	2.74448156356812	-0.036506712436676	0.831133484840393	0.0337871238589287	-0.553843796253204	NPCNearDoor_HumanMale_Mesh_LOD1	NPCNearDoor_HumanMale_Mesh_LOD1	-1	-1
0.00528369145467877	0.0202140808105469	0.0222441852092743	0.47830593585968	0.457808911800385	1.53700399398804	0.254164516925812	2.74452352523804	-0.0361948199570179	0.831164002418518	0.0341701917350292	-0.553794801235199	NPCNearDoor_HumanMale_Mesh_LOD1	NPCNearDoor_HumanMale_Mesh_LOD1	-1	-1
0.0103375809267163	0.0202140808105469	0.0222441852092743	0.47830593585968	0.457808911800385	1.53720998764038	0.254280865192413	2.74458503723145	-0.0358668230473995	0.831092119216919	0.0347014218568802	-0.553891122341156	NPCNearDoor_HumanMale_Mesh_LOD1	NPCNearDoor_HumanMale_Mesh_LOD1	-1	-1
0.0109842466190457	0.0202140808105469	0.0222441852092743	0.47830593585968	0.457808911800385	1.53739547729492	0.25432151556015	2.74465274810791	-0.0355585254728794	0.831022202968597	0.0352699607610703	-0.553979873657227	NPCNearDoor_HumanMale_Mesh_LOD1	NPCNearDoor_HumanMale_Mesh_LOD1	-1	-1
0.0115425046533346	0.0199496746063232	0.0225726962089539	0.478041529655457	0.458137422800064	1.537513256073	0.254475653171539	2.74467849731445	-0.035258773714304	0.830943763256073	0.0358339883387089	-0.554080605506897	NPCNearDoor_HumanMale_Mesh_LOD1	NPCNearDoor_HumanMale_Mesh_LOD1	-1	-1
0.0109295044094324	0.0199496746063232	0.0225726962089539	0.478041529655457	0.458137422800064	1.53769731521606	0.254578173160553	2.74476718902588	-0.0348228104412556	0.830847918987274	0.0362816229462624	-0.554222762584686	NPCNearDoor_HumanMale_Mesh_LOD1	NPCNearDoor_HumanMale_Mesh_LOD1	-1	-1
0.0117032201960683	0.0199496746063232	0.0225726962089539	0.478041529655457	0.458137422800064	1.53794527053833	0.254660904407501	2.7448410987854	-0.0345261543989182	0.830777645111084	0.036654569208622	-0.554322123527527	NPCNearDoor_HumanMale_Mesh_LOD1	NPCNearDoor_HumanMale_Mesh_LOD1	-1	-1
0.0104640452191234	0.0199496746063232	0.0225726962089539	0.478041529655457	0.458137422800064	1.53808307647705	0.254770576953888	2.74500417709351	-0.034244492650032	0.830720007419586	0.0368166640400887	-0.554415225982666	NPCNearDoor_HumanMale_Mesh_LOD1	NPCNearDoor_HumanMale_Mesh_LOD1	-1	-1
0.0114139914512634	0.0144358724355698	0.0249262154102325	0.483469247817993	0.455696135759354	1.53822231292725	0.254823744297028	2.74504661560059	-0.0339506566524506	0.830634117126465	0.0372138805687428	-0.554535448551178	NPCNearDoor_HumanMale_Mesh_LOD1	NPCNearDoor_HumanMale_Mesh_LOD1	-1	-1
0.011461122892797	0.0144358724355698	0.0249262154102325	0.483469247817993	0.455696135759354	1.53852117061615	0.254922330379486	2.74513101577759	-0.0335606224834919	0.830574512481689	0.0374397113919258	-0.55463320016861	NPCNearDoor_HumanMale_Mesh_LOD1	NPCNearDoor_HumanMale_Mesh_LOD1	-1	-1
0.0115574346855283	0.0149607062339783	0.0255383402109146	0.483616977930069	0.454095125198364	1.53863406181335	0.255025088787079	2.74520754814148	-0.0334946997463703	0.830417931079865	0.0376393422484398	-0.554858028888702	NPCNearDoor_HumanMale_Mesh_LOD1	NPCNearDoor_HumanMale_Mesh_LOD1	-1	-1
0.0106118796393275	0.0149607062339783	0.0255383402109146	0.483616977930069	0.454095125198364	1.53880226612091	0.255060017108917	2.74528455734253	-0.0334331281483173	0.830269992351532	0.0378234051167965	-0.555070579051971	NPCNearDoor_HumanMale_Mesh_LOD1	NPCNearDoor_HumanMale_Mesh_LOD1	-1	-1
0.0109936147928238	0.0149607062339783	0.0255383402109146	0.483616977930069	0.454095125198364	1.53893899917603	0.255020678043365	2.74533367156982	-0.0333749689161778	0.830117285251617	0.038040466606617	-0.555287599563599	NPCNearDoor_HumanMale_Mesh_LOD1	NPCNearDoor_HumanMale_Mesh_LOD1	-1	-1
0.0115208420902491	0.013098806142807	0.0270829945802689	0.484896093606949	0.453267931938171	1.53896927833557	0.255087792873383	2.74544429779053	-0.0331938154995441	0.830004990100861	0.0379043109714985	-0.55547571182251	NPCNearDoor_HumanMale_Mesh_LOD1	NPCNearDoor_HumanMale_Mesh_LOD1	-1	-1
0.01757444255054	0.013098806142807	0.0270829945802689	0.484896093606949	0.453267931938171	1.53898429870605	0.25514429807663	2.74550437927246	-0.0329086631536484	0.829923331737518	0.0378382131457329	-0.555619120597839	NPCNearDoor_HumanMale_Mesh_LOD1	NPCNearDoor_HumanMale_Mesh_LOD1	-1	-1
0.00480652274563909	0.013098806142807	0.0270829945802689	0.484896093606949	0.453267931938171	1.5390510559082	0.255107581615448	2.74552392959595	-0.0327099077403545	0.829820394515991	0.0378061346709728	-0.555786669254303	NPCNearDoor_HumanMale_Mesh_LOD1	NPCNearDoor_HumanMale_Mesh_LOD1	-1	-1
0.0110495276749134	0.013098806142807	0.0270829945802689	0.484896093606949	0.453267931938171	1.53899216651917	0.255174458026886	2.7455141544342	-0.0326003655791283	0.829764187335968	0.0378231331706047	-0.555875897407532	NPCNearDoor_HumanMale_Mesh_LOD1	NPCNearDoor_HumanMale_Mesh_LOD1	-1	-1
0.0108358263969421	0.013098806142807	0.0270829945802689	0.484896093606949	0.453267931938171	1.53908276557922	0.255139410495758	2.74553918838501	-0.0326361693441868	0.829677879810333	0.037914015352726	-0.555996417999268	NPCNearDoor_HumanMale_Mesh_LOD1	NPCNearDoor_HumanMale_Mesh_LOD1	-1	-1
0.0112067302688956	0.013098806142807	0.0270829945802689	0.484896093606949	0.453267931938171	1.5390796661377	0.255066335201263	2.74552512168884	-0.0328303910791874	0.829541802406311	0.0379748493432999	-0.556183815002441	NPCNearDoor_HumanMale_Mesh_LOD1	NPCNearDoor_HumanMale_Mesh_LOD1	-1	-1
0.0117298597469926	0.0138350576162338	0.0259129852056503	0.485632359981537	0.45209789276123	1.53900289535522	0.25508052110672	2.74554109573364	-0.0329368151724339	0.829461634159088	0.0379891023039818	-0.556296229362488	NPCNearDoor_HumanMale_Mesh_LOD1	NPCNearDoor_HumanMale_Mesh_LOD1	-1	-1
0.0110073732212186	0.0138350576162338	0.0259129852056503	0.485632359981537	0.45209789276123	1.53890573978424	0.255101978778839	2.74554109573364	-0.0329855047166348	0.82935905456543	0.0378518141806126	-0.556455492973328	NPCNearDoor_HumanMale_Mesh_LOD1	NPCNearDoor_HumanMale_Mesh_LOD1	-1	-1
0.0109974201768637	0.0138350576162338	0.0259129852056503	0.485632359981537	0.45209789276123	1.53892648220062	0.255057156085968	2.7455096244812	-0.0329223945736885	0.829307198524475	0.0376991108059883	-0.556546986103058	NPCNearDoor_HumanMale_Mesh_LOD1	NPCNearDoor_HumanMale_Mesh_LOD1	-1	-1
0.0108323134481907	0.0138350576162338	0.0259129852056503	0.485632359981537	0.45209789276123	1.53885400295258	0.255008161067963	2.74548292160034	-0.0330227352678776	0.829211950302124	0.0376583896577358	-0.55668568611145	NPCNearDoor_HumanMale_Mesh_LOD1	NPCNearDoor_HumanMale_Mesh_LOD1	-1	-1
0.0115790972486138	0.0140836089849472	0.0254794210195541	0.48588091135025	0.451664328575134	1.538729429245	0.254962027072906	2.7454674243927	-0.0330592356622219	0.829145967960358	0.0374011732637882	-0.556799054145813	NPCNearDoor_HumanMale_Mesh_LOD1	NPCNearDoor_HumanMale_Mesh_LOD1	-1	-1
0.0112360045313835	0.0140836089849472	0.0254794210195541	0.48588091135025	0.451664328575134	1.53868508338928	0.254866123199463	2.74542665481567	-0.0331746228039265	0.829034209251404	0.0373024009168148	-0.556965291500092	NPCNearDoor_HumanMale_Mesh_LOD1	NPCNearDoor_HumanMale_Mesh_LOD1	-1	-1
0.0114239444956183	0.0141786336898804	0.0252849906682968	0.485975921154022	0.451469898223877	1.53855204582214	0.254806935787201	2.74536228179932	-0.0332771241664886	0.828926205635071	0.037096731364727	-0.557133674621582	NPCNearDoor_HumanMale_Mesh_LOD1	NPCNearDoor_HumanMale_Mesh_LOD1	-1	-1
0.0107819624245167	0.0141786336898804	0.0252849906682968	0.485975921154022	0.451469898223877	1.5384349822998	0.254733324050903	2.74535751342773	-0.0334120839834213	0.828845143318176	0.0368902385234833	-0.557259738445282	NPCNearDoor_HumanMale_Mesh_LOD1	NPCNearDoor_HumanMale_Mesh_LOD1	-1	-1
0.0110135208815336	0.0141786336898804	0.0252849906682968	0.485975921154022	0.451469898223877	1.53836369514465	0.254616796970367	2.74531650543213	-0.033622682094574	0.828754544258118	0.0368255823850632	-0.557386219501495	NPCNearDoor_HumanMale_Mesh_LOD1	NPCNearDoor_HumanMale_Mesh_LOD1	-1	-1
0.0176751464605331	0.0146680474281311	0.0246514976024628	0.486465334892273	0.450836420059204	1.53814387321472	0.254607617855072	2.7453773021698	-0.033899050205946	0.828628420829773	0.0366548411548138	-0.557568252086639	NPCNearDoor_HumanMale_Mesh_LOD1	NPCNearDoor_HumanMale_Mesh_LOD1	-1	-1
0.005611561704427	0.0146680474281311	0.0246514976024628	0.486465334892273	0.450836420059204	1.53798413276672	0.254562854766846	2.74538135528564	-0.0340352989733219	0.828572154045105	0.0365289077162743	-0.557651698589325	NPCNearDoor_HumanMale_Mesh_LOD1	NPCNearDoor_HumanMale_Mesh_LOD1	-1	-1
0.0103768082335591	0.0146680474281311	0.0246514976024628	0.486465334892273	0.450836420059204	1.53784108161926	0.254474341869354	2.74531745910645	-0.0341849885880947	0.828389525413513	0.0364727415144444	-0.557917475700378	NPCNearDoor_HumanMale_Mesh_LOD1	NPCNearDoor_HumanMale_Mesh_LOD1	-1	-1
0.011385009624064	0.0148525536060333	0.0243812650442123	0.486649841070175	0.450566172599792	1.53761053085327	0.254476726055145	2.74524879455566	-0.0342523418366909	0.828236758708954	0.0363072007894516	-0.558151006698608	NPCNearDoor_HumanMale_Mesh_LOD1	NPCNearDoor_HumanMale_Mesh_LOD1	-1	-1
0.0105310827493668	0.0148525536060333	0.0243812650442123	0.486649841070175	0.450566172599792	1.53743362426758	0.254417955875397	2.74523973464966	-0.034329142421484	0.828179657459259	0.036283727735281	-0.558232545852661	NPCNearDoor_HumanMale_Mesh_LOD1	NPCNearDoor_HumanMale_Mesh_LOD1	-1	-1
0.0114883473142982	0.0148525536060333	0.0243812650442123	0.486649841070175	0.450566172599792	1.53734660148621	0.254351317882538	2.74520206451416	-0.0343640334904194	0.828116774559021	0.0361510328948498	-0.55833226442337	NPCNearDoor_HumanMale_Mesh_LOD1	NPCNearDoor_HumanMale_Mesh_LOD1	-1	-1
0.0113422693684697	0.0149593949317932	0.0241529792547226	0.486756682395935	0.450337886810303	1.53713667392731	0.254345774650574	2.74516534805298	-0.0346382074058056	0.827961981296539	0.0359706990420818	-0.558556377887726	NPCNearDoor_HumanMale_Mesh_LOD1	NPCNearDoor_HumanMale_Mesh_LOD1	-1	-1
0.0111815547570586	0.0149593949317932	0.0241529792547226	0.486756682395935	0.450337886810303	1.53697597980499	0.254266560077667	2.74514389038086	-0.0346959754824638	0.827940702438354	0.0356725864112377	-0.558603584766388	NPCNearDoor_HumanMale_Mesh_LOD1	NPCNearDoor_HumanMale_Mesh_LOD1	-1	-1
0.0113168014213443	0.0149593949317932	0.0241529792547226	0.486756682395935	0.450337886810303	1.53690040111542	0.254186272621155	2.74508047103882	-0.0348309278488159	0.827881872653961	0.0352779813110828	-0.558707416057587	NPCNearDoor_HumanMale_Mesh_LOD1	NPCNearDoor_HumanMale_Mesh_LOD1	-1	-1
0.011704976670444	0.0151910185813904	0.0129865854978561	0.486271858215332	0.46174830198288	1.53669905662537	0.254122912883759	2.74507761001587	-0.035017091780901	0.827839553356171	0.0348187349736691	-0.558787226676941	NPCNearDoor_HumanMale_Mesh_LOD1	NPCNearDoor_HumanMale_Mesh_LOD1	-1	-1
0.0104646300897002	0.0151910185813904	0.0129865854978561	0.486271858215332	0.46174830198288	1.53648519515991	0.254052639007568	2.74504327774048	-0.035140722990036	0.827825605869293	0.0344105251133442	-0.558825433254242	NPCNearDoor_HumanMale_Mesh_LOD1	NPCNearDoor_HumanMale_Mesh_LOD1	-1	-1
0.0116959009319544	0.015677809715271	0.0123070329427719	0.486758649349213	0.461068749427795	1.53633689880371	0.253925740718842	2.74498558044434	-0.0353981629014015	0.827808201313019	0.0339734964072704	-0.558861613273621	NPCNearDoor_HumanMale_Mesh_LOD1	NPCNearDoor_HumanMale_Mesh_LOD1	-1	-1
0.0110187903046608	0.015677809715271	0.0123070329427719	0.486758649349213	0.461068749427795	1.53610277175903	0.25388640165329	2.74486589431763	-0.0356834009289742	0.827748954296112	0.0335077010095119	-0.558959484100342	NPCNearDoor_HumanMale_Mesh_LOD1	NPCNearDoor_HumanMale_Mesh_LOD1	-1	-1
0.0110793877393007	0.015677809715271	0.0123070329427719	0.486758649349213	0.461068749427795	1.53590559959412	0.253808557987213	2.74480533599854	-0.0359217077493668	0.827705383300781	0.0329887941479683	-0.55903959274292	NPCNearDoor_HumanMale_Mesh_LOD1	NPCNearDoor_HumanMale_Mesh_LOD1	-1	-1
0.0171684101223946	0.0162786990404129	0.0114038288593292	0.48573625087738	0.46243092417717	1.53574454784393	0.253704965114594	2.74480390548706	-0.0362588092684746	0.827713489532471	0.0325585827231407	-0.559031069278717	NPCNearDoor_HumanMale_Mesh_LOD1	NPCNearDoor_HumanMale_Mesh_LOD1	-1	-1
0.00619616685435176	0.0162786990404129	0.0114038288593292	0.48573625087738	0.46243092417717	1.53561747074127	0.253617227077484	2.74474620819092	-0.0365289188921452	0.827678084373474	0.0319211408495903	-0.559102535247803	NPCNearDoor_HumanMale_Mesh_LOD1	NPCNearDoor_HumanMale_Mesh_LOD1	-1	-1
0.00991017837077379	0.0162786990404129	0.0114038288593292	0.48573625087738	0.46243092417717	1.5355236530304	0.253524363040924	2.74472141265869	-0.0367452166974545	0.827753603458405	0.0312842018902302	-0.559012532234192	NPCNearDoor_HumanMale_Mesh_LOD1	NPCNearDoor_HumanMale_Mesh_LOD1	-1	-1
0.0110097154974937	0.0162786990404129	0.0114038288593292	0.48573625087738	0.46243092417717	1.53546142578125	0.253469109535217	2.74475693702698	-0.0369122847914696	0.827828228473663	0.0307889636605978	-0.558918654918671	NPCNearDoor_HumanMale_Mesh_LOD1	NPCNearDoor_HumanMale_Mesh_LOD1	-1	-1
0.0112576670944691	0.0162786990404129	0.0114038288593292	0.48573625087738	0.46243092417717	1.5353786945343	0.253403842449188	2.74468421936035	-0.0371467657387257	0.827801465988159	0.0303095038980246	-0.558968961238861	NPCNearDoor_HumanMale_Mesh_LOD1	NPCNearDoor_HumanMale_Mesh_LOD1	-1	-1
0.0109701948240399	0.0164858251810074	0.011125311255455	0.485943377017975	0.462152421474457	1.53528666496277	0.253336012363434	2.74467420578003	-0.0372719429433346	0.827941536903381	0.0298530105501413	-0.558777570724487	NPCNearDoor_HumanMale_Mesh_LOD1	NPCNearDoor_HumanMale_Mesh_LOD1	-1	-1
0.0111429123207927	0.0164858251810074	0.011125311255455	0.485943377017975	0.462152421474457	1.5352988243103	0.253267526626587	2.74462556838989	-0.0374238938093185	0.827996909618378	0.0295213293284178	-0.558703124523163	NPCNearDoor_HumanMale_Mesh_LOD1	NPCNearDoor_HumanMale_Mesh_LOD1	-1	-1
0.0125486571341753	0.0164858251810074	0.011125311255455	0.485943377017975	0.462152421474457	1.53525173664093	0.253199398517609	2.74456715583801	-0.0375696532428265	0.828086316585541	0.0291230566799641	-0.558581709861755	NPCNearDoor_HumanMale_Mesh_LOD1	NPCNearDoor_HumanMale_Mesh_LOD1	-1	-1
0.0104265743866563	0.0168776959180832	0.0105854570865631	0.486335217952728	0.461612552404404	1.53518533706665	0.253169000148773	2.74454784393311	-0.0376786217093468	0.82818478345871	0.0286897663027048	-0.558450698852539	NPCNearDoor_HumanMale_Mesh_LOD1	NPCNearDoor_HumanMale_Mesh_LOD1	-1	-1
0.0107409786432981	0.0168776959180832	0.0105854570865631	0.486335217952728	0.461612552404404	1.53503811359406	0.253083646297455	2.74442148208618	-0.0378741547465324	0.828209698200226	0.0282935164868832	-0.558420717716217	NPCNearDoor_HumanMale_Mesh_LOD1	NPCNearDoor_HumanMale_Mesh_LOD1	-1	-1
0.011216975748539	0.0168776959180832	0.0105854570865631	0.486335217952728	0.461612552404404	1.535031914711	0.253063142299652	2.74442195892334	-0.037794753909111	0.828321933746338	0.0279993619769812	-0.558274447917938	NPCNearDoor_HumanMale_Mesh_LOD1	NPCNearDoor_HumanMale_Mesh_LOD1	-1	-1
0.0109895160421729	0.0168776959180832	0.0105854570865631	0.486335217952728	0.461612552404404	1.53503274917603	0.253064811229706	2.74441003799438	-0.0377007573843002	0.828423917293549	0.0277522318065166	-0.558141767978668	NPCNearDoor_HumanMale_Mesh_LOD1	NPCNearDoor_HumanMale_Mesh_LOD1	-1	-1
0.0116502335295081	0.0166612714529037	0.0109332352876663	0.486118793487549	0.461960315704346	1.53505325317383	0.253107249736786	2.74442338943481	-0.0377319194376469	0.82848334312439	0.0275924820452929	-0.558059394359589	NPCNearDoor_HumanMale_Mesh_LOD1	NPCNearDoor_HumanMale_Mesh_LOD1	-1	-1
0.0114198457449675	0.0166612714529037	0.0109332352876663	0.486118793487549	0.461960315704346	1.53507208824158	0.253181278705597	2.74443006515503	-0.0377251915633678	0.828577101230621	0.0275809410959482	-0.557921290397644	NPCNearDoor_HumanMale_Mesh_LOD1	NPCNearDoor_HumanMale_Mesh_LOD1	-1	-1
0.0181968118995428	0.0167465358972549	0.0108196437358856	0.486204087734222	0.461846739053726	1.53507173061371	0.253237783908844	2.74442386627197	-0.037691742181778	0.828640818595886	0.0276424065232277	-0.557825803756714	NPCNearDoor_HumanMale_Mesh_LOD1	NPCNearDoor_HumanMale_Mesh_LOD1	-1	-1
0.00517801148816943	0.0167465358972549	0.0108196437358856	0.486204087734222	0.461846739053726	1.53501176834106	0.253246009349823	2.74432039260864	-0.0376953892409801	0.828661143779755	0.0276843942701817	-0.557793378829956	NPCNearDoor_HumanMale_Mesh_LOD1	NPCNearDoor_HumanMale_Mesh_LOD1	-1	-1
0.00963558629155159	0.0167465358972549	0.0108196437358856	0.486204087734222	0.461846739053726	1.53508818149567	0.253290832042694	2.74431800842285	-0.0376752056181431	0.82868891954422	0.0278123803436756	-0.55774712562561	NPCNearDoor_HumanMale_Mesh_LOD1	NPCNearDoor_HumanMale_Mesh_LOD1	-1	-1
0.0109546799212694	0.0167465358972549	0.0108196437358856	0.486204087734222	0.461846739053726	1.53516054153442	0.253346264362335	2.74430847167969	-0.0373389236629009	0.828767836093903	0.0276261754333973	-0.557661592960358	NPCNearDoor_HumanMale_Mesh_LOD1	NPCNearDoor_HumanMale_Mesh_LOD1	-1	-1
0.0111868241801858	0.0169143229722977	0.0104747712612152	0.486371874809265	0.461501866579056	1.53524112701416	0.253360450267792	2.74427700042725	-0.036993570625782	0.828926980495453	0.0274328086525202	-0.557457625865936	NPCNearDoor_HumanMale_Mesh_LOD1	NPCNearDoor_HumanMale_Mesh_LOD1	-1	-1
0.0109877595677972	0.0169143229722977	0.0104747712612152	0.486371874809265	0.461501866579056	1.53532302379608	0.253390967845917	2.74434423446655	-0.0365528911352158	0.829042911529541	0.0270654559135437	-0.557332277297974	NPCNearDoor_HumanMale_Mesh_LOD1	NPCNearDoor_HumanMale_Mesh_LOD1	-1	-1
0.0111675029620528	0.0169143229722977	0.0104747712612152	0.486371874809265	0.461501866579056	1.53539454936981	0.253444969654083	2.7442946434021	-0.0360598601400852	0.829201519489288	0.0266493260860443	-0.557148456573486	NPCNearDoor_HumanMale_Mesh_LOD1	NPCNearDoor_HumanMale_Mesh_LOD1	-1	-1
0.0118109490722418	0.0169143229722977	0.0104747712612152	0.486371874809265	0.461501866579056	1.53550970554352	0.25346451997757	2.7442946434021	-0.0356491431593895	0.829389870166779	0.0262241903692484	-0.556914687156677	NPCNearDoor_HumanMale_Mesh_LOD1	NPCNearDoor_HumanMale_Mesh_LOD1	-1	-1
0.0105208372697234	0.0173434168100357	0.00992226600646973	0.486800968647003	0.46094936132431	1.53569293022156	0.253457248210907	2.74423885345459	-0.0353274345397949	0.82958060503006	0.0259121563285589	-0.556665599346161	NPCNearDoor_HumanMale_Mesh_LOD1	NPCNearDoor_HumanMale_Mesh_LOD1	-1	-1
0.01136305462569	0.0173434168100357	0.00992226600646973	0.486800968647003	0.46094936132431	1.53584790229797	0.253485023975372	2.74421119689941	-0.0350793823599815	0.829721212387085	0.0257106143981218	-0.556481063365936	NPCNearDoor_HumanMale_Mesh_LOD1	NPCNearDoor_HumanMale_Mesh_LOD1	-1	-1
0.0108528053388	0.0175751894712448	0.00103054940700531	0.486989796161652	0.469249784946442	1.53599715232849	0.253519237041473	2.74420213699341	-0.0348605290055275	0.829936683177948	0.0255933627486229	-0.556178867816925	NPCNearDoor_HumanMale_Mesh_LOD1	NPCNearDoor_HumanMale_Mesh_LOD1	-1	-1
0.0119350710883737	0.0175751894712448	0.00103054940700531	0.486989796161652	0.469249784946442	1.53612899780273	0.253601968288422	2.74422883987427	-0.0346004217863083	0.830130755901337	0.025531493127346	-0.555908203125	NPCNearDoor_HumanMale_Mesh_LOD1	NPCNearDoor_HumanMale_Mesh_LOD1	-1	-1
0.0105644557625055	0.0175751894712448	0.00103054940700531	0.486989796161652	0.469249784946442	1.53632342815399	0.253630936145782	2.74422931671143	-0.0342455580830574	0.8302983045578	0.0255494825541973	-0.555679023265839	NPCNearDoor_HumanMale_Mesh_LOD1	NPCNearDoor_HumanMale_Mesh_LOD1	-1	-1
0.0120325544849038	0.0173173397779465	0.00134503841400146	0.486731946468353	0.469564259052277	1.53645849227905	0.25367933511734	2.74417090415955	-0.0340275540947914	0.830460846424103	0.0257099810987711	-0.555442094802856	NPCNearDoor_HumanMale_Mesh_LOD1	NPCNearDoor_HumanMale_Mesh_LOD1	-1	-1
0.0172096882015467	0.0173173397779465	0.00134503841400146	0.486731946468353	0.469564259052277	1.53660798072815	0.253777801990509	2.74423503875732	-0.033789798617363	0.830644190311432	0.0257644485682249	-0.555179834365845	NPCNearDoor_HumanMale_Mesh_LOD1	NPCNearDoor_HumanMale_Mesh_LOD1	-1	-1
0.00507672317326069	0.0173173397779465	0.00134503841400146	0.486731946468353	0.469564259052277	1.53680694103241	0.253808557987213	2.74429750442505	-0.0334906280040741	0.830820143222809	0.0259781293570995	-0.554924666881561	NPCNearDoor_HumanMale_Mesh_LOD1	NPCNearDoor_HumanMale_Mesh_LOD1	-1	-1
0.0104652158915997	0.0847653150558472	0.0395209491252899	0.419752776622772	0.509570956230164	1.53699851036072	0.253838181495667	2.74430704116821	-0.0332481861114502	0.830809473991394	0.026070162653923	-0.554951012134552	NPCNearDoor_HumanMale_Mesh_LOD1	Cube.001	-1	171
0.0112907467409968	0.0847653150558472	0.0395209491252899	0.419752776622772	0.509570956230164	1.53706836700439	0.253959596157074	2.74435567855835	-0.0329227410256863	0.830801904201508	0.026132233440876	-0.554978847503662	NPCNearDoor_HumanMale_Mesh_LOD1	Cube.001	-1	171
0.0107380514964461	0.0847653150558472	0.0395209491252899	0.419752776622772	0.509570956230164	1.53708899021149	0.254116475582123	2.7444224357605	-0.0326681286096573	0.83082503080368	0.026158295571804	-0.554957866668701	NPCNearDoor_HumanMale_Mesh_LOD1	Cube.001	-1	171
0.0118375886231661	0.000338375568389893	0.0112539380788803	0.504148066043854	0.480627655982971	1.53725028038025	0.254170715808868	2.74454927444458	-0.0324877165257931	0.830775141716003	0.0262505300343037	-0.555038869380951	NPCNearDoor_HumanMale_Mesh_LOD1	NPCNearDoor_HumanMale_Mesh_LOD1	-1	-1
0.0105442563071847	0.000338375568389893	0.0112539380788803	0.504148066043854	0.480627655982971	1.53737080097198	0.254269540309906	2.74461913108826	-0.0322580747306347	0.830657660961151	0.0261936131864786	-0.555230796337128	NPCNearDoor_HumanMale_Mesh_LOD1	NPCNearDoor_HumanMale_Mesh_LOD1	-1	-1
0.0112401023507118	0.000338375568389893	0.0112539380788803	0.504148066043854	0.480627655982971	1.53753209114075	0.254275143146515	2.74471044540405	-0.0318685621023178	0.830687403678894	0.0262423027306795	-0.555206418037415	NPCNearDoor_HumanMale_Mesh_LOD1	NPCNearDoor_HumanMale_Mesh_LOD1	-1	-1
0.0110384039580822	0.000338375568389893	0.0112539380788803	0.504148066043854	0.480627655982971	1.53769338130951	0.254380404949188	2.74466943740845	-0.0315425768494606	0.830646157264709	0.0261444598436356	-0.555291414260864	NPCNearDoor_HumanMale_Mesh_LOD1	NPCNearDoor_HumanMale_Mesh_LOD1	-1	-1
0.0116461347788572	0.0230442881584167	0.0318109840154648	0.480765402317047	0.523692548274994	1.53784215450287	0.254380345344543	2.74467539787292	-0.0313088186085224	0.83066999912262	0.0260852333158255	-0.555271744728088	NPCNearDoor_HumanMale_Mesh_LOD1	Cube.001	-1	34
0.0105612352490425	0.0230442881584167	0.0318109840154648	0.480765402317047	0.523692548274994	1.53798425197601	0.254363715648651	2.74471879005432	-0.0311669874936342	0.830732941627502	0.0261227954179049	-0.555183708667755	NPCNearDoor_HumanMale_Mesh_LOD1	Cube.001	-1	34
0.0115960761904716	0.0230442881584167	0.0318109840154648	0.480765402317047	0.523692548274994	1.53805613517761	0.254382073879242	2.74468994140625	-0.0312682092189789	0.830804705619812	0.0259883478283882	-0.555077016353607	NPCNearDoor_HumanMale_Mesh_LOD1	Cube.001	-1	34
0.0114909820258617	0.0230442881584167	0.0318109840154648	0.480765402317047	0.523692548274994	1.53816485404968	0.254355788230896	2.7446756362915	-0.0314004197716713	0.830836296081543	0.0258382689207792	-0.555029332637787	NPCNearDoor_HumanMale_Mesh_LOD1	Cube.001	-1	34
0.0111692594364285	0.0230442881584167	0.0318109840154648	0.480765402317047	0.523692548274994	1.53824198246002	0.254338920116425	2.74470949172974	-0.0316438749432564	0.830921471118927	0.0258486308157444	-0.554887473583221	NPCNearDoor_HumanMale_Mesh_LOD1	Cube.001	-1	34
0.0168701075017452	0.010036826133728	0.00532390177249908	0.493772864341736	0.497205495834351	1.5382217168808	0.254287600517273	2.74470615386963	-0.0317186005413532	0.830901324748993	0.0256519746035337	-0.554922521114349	NPCNearDoor_HumanMale_Mesh_LOD1	TheTavern_3	-1	10
0.00610863696783781	0.0100209414958954	0.00541095435619354	0.493788748979568	0.497292518615723	1.53825879096985	0.254289448261261	2.74470591545105	-0.0318771451711655	0.830862998962402	0.025712363421917	-0.554967939853668	NPCNearDoor_HumanMale_Mesh_LOD1	TheTavern_3	-1	10
0.0103978859260678	0.0100209414958954	0.00541095435619354	0.493788748979568	0.497292518615723	1.53824055194855	0.254316985607147	2.74471569061279	-0.0320458486676216	0.830826640129089	0.0257695857435465	-0.55501002073288	NPCNearDoor_HumanMale_Mesh_LOD1	TheTavern_3	-1	10
0.0110000548884273	0.0100209414958954	0.00541095435619354	0.493788748979568	0.497292518615723	1.53829395771027	0.254364728927612	2.74478054046631	-0.032149076461792	0.830780446529388	0.0258500054478645	-0.555069506168365	NPCNearDoor_HumanMale_Mesh_LOD1	TheTavern_3	-1	10
0.0111546218395233	0.0100209414958954	0.00541095435619354	0.493788748979568	0.497292518615723	1.53832399845123	0.254335105419159	2.74478483200073	-0.0321892723441124	0.830730855464935	0.0259718783199787	-0.555135607719421	NPCNearDoor_HumanMale_Mesh_LOD1	TheTavern_3	-1	10
0.0110834864899516	0.0862781256437302	0.0234219878911972	0.394684374332428	0.483910322189331	1.53825199604034	0.254342496395111	2.744797706604	-0.0321919061243534	0.83058100938797	0.0260916985571384	-0.555354118347168	NPCNearDoor_HumanMale_Mesh_LOD1	TheTavern_3	-1	10
0.0112910401076078	0.0862781256437302	0.0234219878911972	0.394684374332428	0.483910322189331	1.5381166934967	0.254275500774384	2.74473428726196	-0.0323770269751549	0.830393970012665	0.0261239632964134	-0.555621385574341	NPCNearDoor_HumanMale_Mesh_LOD1	TheTavern_3	-1	10
0.0112889902666211	0.0861051082611084	0.023767277598381	0.394511342048645	0.484255611896515	1.53801560401917	0.254248738288879	2.74479198455811	-0.0324598476290703	0.830240786075592	0.0261375419795513	-0.555844902992249	NPCNearDoor_HumanMale_Mesh_LOD1	TheTavern_3	-1	10
0.0110483570024371	0.0861051082611084	0.023767277598381	0.394511342048645	0.484255611896515	1.53794169425964	0.25419420003891	2.74481678009033	-0.0326188206672668	0.830065011978149	0.0260285399854183	-0.556103050708771	NPCNearDoor_HumanMale_Mesh_LOD1	TheTavern_3	-1	10
0.0110158631578088	0.0861051082611084	0.023767277598381	0.394511342048645	0.484255611896515	1.53790688514709	0.254162967205048	2.74483156204224	-0.0328950732946396	0.829820871353149	0.026031706482172	-0.556450843811035	NPCNearDoor_HumanMale_Mesh_LOD1	TheTavern_3	-1	10
0.0115360645577312	0.0859865993261337	0.0239829570055008	0.394392848014832	0.484471321105957	1.53779768943787	0.254125833511353	2.74486637115479	-0.0331218913197517	0.829676806926727	0.0258680451661348	-0.556659936904907	NPCNearDoor_HumanMale_Mesh_LOD1	TheTavern_3	-1	10
0.0138756548985839	0.0855580121278763	0.0246918946504593	0.393964231014252	0.485180258750916	1.53768134117126	0.254058480262756	2.74488925933838	-0.0332687944173813	0.829543113708496	0.0258135069161654	-0.55685293674469	NPCNearDoor_HumanMale_Mesh_LOD1	TheTavern_3	-1	10
0.0076789022423327	0.0855580121278763	0.0246918946504593	0.393964231014252	0.485180258750916	1.5376148223877	0.254007518291473	2.74494791030884	-0.0336651504039764	0.829382598400116	0.0257392041385174	-0.557071447372437	NPCNearDoor_HumanMale_Mesh_LOD1	TheTavern_3	-1	10
0.0107957208529115	0.0854763388633728	0.0248317569494247	0.393882572650909	0.485320091247559	1.53750443458557	0.253940105438232	2.74493002891541	-0.0339436568319798	0.829211473464966	0.025686252862215	-0.557311832904816	NPCNearDoor_HumanMale_Mesh_LOD1	TheTavern_3	-1	10
0.0175767857581377	0.0854763388633728	0.0248317569494247	0.393882572650909	0.485320091247559	1.53735685348511	0.253909051418304	2.74495792388916	-0.0342720784246922	0.82915335893631	0.0256623867899179	-0.557379305362701	NPCNearDoor_HumanMale_Mesh_LOD1	TheTavern_3	-1	10
0.00477373553439975	0.0854763388633728	0.0248317569494247	0.393882572650909	0.485320091247559	1.53713536262512	0.253775775432587	2.74498414993286	-0.0346030071377754	0.829013645648956	0.0256187580525875	-0.557568550109863	NPCNearDoor_HumanMale_Mesh_LOD1	TheTavern_3	-1	10
0.0114022819325328	0.0853099524974823	0.0252126604318619	0.393716186285019	0.485701024532318	1.53706192970276	0.253695547580719	2.74497747421265	-0.0348677225410938	0.828981161117554	0.0255690570920706	-0.557602643966675	NPCNearDoor_HumanMale_Mesh_LOD1	TheTavern_3	-1	10
0.0101715959608555	0.0852592885494232	0.025300994515419	0.39366552233696	0.485789358615875	1.53694558143616	0.253650844097137	2.7449836730957	-0.0351725853979588	0.828897893428802	0.0254227332770824	-0.55771392583847	NPCNearDoor_HumanMale_Mesh_LOD1	TheTavern_3	-1	10
0.0112242950126529	0.0852592885494232	0.025300994515419	0.39366552233696	0.485789358615875	1.53682255744934	0.253611505031586	2.74490118026733	-0.0354981124401093	0.828844130039215	0.025276018306613	-0.557779967784882	NPCNearDoor_HumanMale_Mesh_LOD1	TheTavern_3	-1	10
0.0113829607143998	0.0852592885494232	0.025300994515419	0.39366552233696	0.485789358615875	1.53675222396851	0.253528833389282	2.74486589431763	-0.0358167439699173	0.828807473182678	0.0251511130481958	-0.557819664478302	NPCNearDoor_HumanMale_Mesh_LOD1	TheTavern_3	-1	10
0.0117401052266359	0.0855849534273148	0.0248941630125046	0.39399117231369	0.485382497310638	1.53661215305328	0.253510773181915	2.74484539031982	-0.0362602919340134	0.828734576702118	0.025059437379241	-0.557903409004211	NPCNearDoor_HumanMale_Mesh_LOD1	TheTavern_3	-1	10
0.0103006949648261	0.0855849534273148	0.0248941630125046	0.39399117231369	0.485382497310638	1.53656077384949	0.25351482629776	2.74488353729248	-0.0366108678281307	0.828732669353485	0.0248655173927546	-0.557892084121704	NPCNearDoor_HumanMale_Mesh_LOD1	TheTavern_3	-1	10
0.0114734182134271	0.0855849534273148	0.0248941630125046	0.39399117231369	0.485382497310638	1.53638887405396	0.253515362739563	2.74493074417114	-0.0370194539427757	0.828658819198608	0.0248643420636654	-0.557974934577942	NPCNearDoor_HumanMale_Mesh_LOD1	TheTavern_3	-1	10
0.0109696099534631	0.0852188467979431	0.0255356878042221	0.39362508058548	0.486024022102356	1.53624868392944	0.253487288951874	2.74493455886841	-0.0373048447072506	0.828570961952209	0.02470313757658	-0.558093428611755	NPCNearDoor_HumanMale_Mesh_LOD1	TheTavern_3	-1	10
0.011318264529109	0.0852188467979431	0.0255356878042221	0.39362508058548	0.486024022102356	1.53620576858521	0.253493964672089	2.74489164352417	-0.037553183734417	0.828532218933105	0.0245553106069565	-0.558140873908997	NPCNearDoor_HumanMale_Mesh_LOD1	TheTavern_3	-1	10
0.0114646358415484	0.0852188467979431	0.0255356878042221	0.39362508058548	0.486024022102356	1.5360803604126	0.253441154956818	2.74491834640503	-0.0379156582057476	0.828419506549835	0.0242059454321861	-0.558298945426941	NPCNearDoor_HumanMale_Mesh_LOD1	TheTavern_3	-1	10
0.0111434981226921	0.0850287526845932	0.025944396853447	0.393435001373291	0.486432731151581	1.53602123260498	0.253346383571625	2.7449254989624	-0.0382533185184002	0.828315913677216	0.0238731857389212	-0.558443903923035	NPCNearDoor_HumanMale_Mesh_LOD1	TheTavern_3	-1	10
0.0108396327123046	0.0850287526845932	0.025944396853447	0.393435001373291	0.486432731151581	1.53588926792145	0.253203213214874	2.74498605728149	-0.0385866314172745	0.828154027462006	0.0236117020249367	-0.558672070503235	NPCNearDoor_HumanMale_Mesh_LOD1	TheTavern_3	-1	10
0.0195533763617277	0.0621287673711777	0.00459802150726318	0.416645526885986	0.507499873638153	1.53582656383514	0.253111779689789	2.74498128890991	-0.0388808511197567	0.828078985214233	0.023299939930439	-0.558775961399078	NPCNearDoor_HumanMale_Mesh_LOD1	Cube.001	-1	154
0.00537268491461873	0.0621287673711777	0.00459802150726318	0.416645526885986	0.507499873638153	1.53576993942261	0.25301855802536	2.74499797821045	-0.0390628725290298	0.828035891056061	0.0230132378637791	-0.558839023113251	NPCNearDoor_HumanMale_Mesh_LOD1	TheTavern_3	-1	10
0.00876848585903645	0.0621287673711777	0.00459802150726318	0.416645526885986	0.507499873638153	1.53567910194397	0.252974331378937	2.74500703811646	-0.0393348336219788	0.828004240989685	0.0225890427827835	-0.55888420343399	NPCNearDoor_HumanMale_Mesh_LOD1	TheTavern_3	-1	10
0.0114201391115785	0.0887912064790726	0.028547540307045	0.390133380889893	0.483352243900299	1.53562784194946	0.252895593643188	2.74498128890991	-0.0394150651991367	0.827907204627991	0.0223764348775148	-0.559030771255493	NPCNearDoor_HumanMale_Mesh_LOD1	TheTavern_3	-1	10
0.010659889318049	0.0887912064790726	0.028547540307045	0.390133380889893	0.483352243900299	1.53554844856262	0.252860069274902	2.74497318267822	-0.0394824035465717	0.82793664932251	0.0220234077423811	-0.558996498584747	NPCNearDoor_HumanMale_Mesh_LOD1	TheTavern_3	-1	10
0.0111396927386522	0.0887912064790726	0.028547540307045	0.390133380889893	0.483352243900299	1.53548240661621	0.252856492996216	2.74498891830444	-0.0396934822201729	0.828007698059082	0.0218421146273613	-0.558883368968964	NPCNearDoor_HumanMale_Mesh_LOD1	TheTavern_3	-1	10
0.0119801536202431	0.0887087434530258	0.0287333279848099	0.390050888061523	0.483538031578064	1.53551077842712	0.252809882164001	2.74492335319519	-0.0398398898541927	0.828039646148682	0.0217382479459047	-0.558829724788666	NPCNearDoor_HumanMale_Mesh_LOD1	TheTavern_3	-1	10
0.011214048601687	0.0887087434530258	0.0287333279848099	0.390050888061523	0.483538031578064	1.53552401065826	0.2527716755867	2.74488067626953	-0.0400612913072109	0.827990472316742	0.0218556467443705	-0.558882176876068	NPCNearDoor_HumanMale_Mesh_LOD1	TheTavern_3	-1	10
0.0104330144822598	0.0887087434530258	0.0287333279848099	0.390050888061523	0.483538031578064	1.53545522689819	0.252801597118378	2.7449312210083	-0.0403664708137512	0.827999711036682	0.0217977296561003	-0.558848738670349	TheTavern_3	TheTavern_3	10	10
0.0115858307108283	0.0885677486658096	0.0289159566164017	0.38990992307663	0.483720660209656	1.53548729419708	0.252786457538605	2.74490404129028	-0.0404231436550617	0.827991366386414	0.0217889621853828	-0.558857381343842	TheTavern_3	TheTavern_3	10	10
0.0107011655345559	0.0885677486658096	0.0289159566164017	0.38990992307663	0.483720660209656	1.53545916080475	0.252850115299225	2.74490690231323	-0.0403172224760056	0.828036069869995	0.0215523764491081	-0.558808028697968	TheTavern_3	TheTavern_3	10	10
0.0112848924472928	0.0885677486658096	0.0289159566164017	0.38990992307663	0.483720660209656	1.5354163646698	0.252818644046783	2.74494647979736	-0.0402413122355938	0.828031957149506	0.0214624814689159	-0.558822929859161	TheTavern_3	TheTavern_3	10	10
0.0118340756744146	0.0982735306024551	0.0383414775133133	0.380819618701935	0.473447799682617	1.53543078899384	0.252862095832825	2.74499464035034	-0.0400313213467598	0.828039586544037	0.02134726382792	-0.558831214904785	TheTavern_3	TheTavern_3	10	10
0.0109997624531388	0.0982735306024551	0.0383414775133133	0.380819618701935	0.473447799682617	1.53552079200745	0.252831995487213	2.74502229690552	-0.0399728789925575	0.828039407730103	0.0213973093777895	-0.558833777904511	TheTavern_3	TheTavern_3	10	10
0.0173935294151306	0.0982735306024551	0.0383414775133133	0.380819618701935	0.473447799682617	1.5356285572052	0.252875506877899	2.74508953094482	-0.0401335991919041	0.828120946884155	0.0214950274676085	-0.558697640895844	TheTavern_3	TheTavern_3	10	10
0.00557555491104722	0.0982735306024551	0.0383414775133133	0.380819618701935	0.473447799682617	1.53570866584778	0.252926349639893	2.74515318870544	-0.0402227453887463	0.828105986118317	0.0215850491076708	-0.558709800243378	TheTavern_3	TheTavern_3	10	10
0.0106891635805368	0.0977473109960556	0.0390647500753403	0.380293428897858	0.474171042442322	1.53572225570679	0.252875745296478	2.74519443511963	-0.0401016771793365	0.828156054019928	0.0217413678765297	-0.558638393878937	TheTavern_3	TheTavern_3	10	10
0.0107351234182715	0.0977473109960556	0.0390647500753403	0.380293428897858	0.474171042442322	1.53576266765594	0.252968847751617	2.74528980255127	-0.0400790721178055	0.828119456768036	0.021912632510066	-0.558687508106232	NPCNearDoor_HumanMale_Mesh_LOD1	TheTavern_3	-1	10
0.0119766406714916	0.0979474633932114	0.0388447493314743	0.380493581295013	0.473951041698456	1.53587830066681	0.253004491329193	2.74532127380371	-0.0398723445832729	0.828181147575378	0.0220922660082579	-0.558603823184967	NPCNearDoor_HumanMale_Mesh_LOD1	TheTavern_3	-1	10
0.0105881672352552	0.0979474633932114	0.0388447493314743	0.380493581295013	0.473951041698456	1.53600668907166	0.253029763698578	2.74536561965942	-0.0397175885736942	0.828200399875641	0.0223286878317595	-0.558576881885529	NPCNearDoor_HumanMale_Mesh_LOD1	TheTavern_3	-1	10
0.0115217203274369	0.0979474633932114	0.0388447493314743	0.380493581295013	0.473951041698456	1.5360461473465	0.253115653991699	2.74540734291077	-0.0395301282405853	0.828191578388214	0.0224449578672647	-0.558598518371582	NPCNearDoor_HumanMale_Mesh_LOD1	TheTavern_3	-1	10
0.0112582528963685	0.0979474633932114	0.0388447493314743	0.380493581295013	0.473951041698456	1.53611731529236	0.253185153007507	2.74547529220581	-0.0395095385611057	0.828145325183868	0.0226031616330147	-0.558662176132202	NPCNearDoor_HumanMale_Mesh_LOD1	TheTavern_3	-1	10
0.0111768702045083	0.103797167539597	0.0449863076210022	0.37448987364769	0.46802693605423	1.5362788438797	0.253252029418945	2.74552631378174	-0.0394076146185398	0.828143358230591	0.0227528531104326	-0.558666348457336	NPCNearDoor_HumanMale_Mesh_LOD1	TheTavern_3	-1	10
0.0134025840088725	0.103797167539597	0.0449863076210022	0.37448987364769	0.46802693605423	1.53632783889771	0.253318428993225	2.74552631378174	-0.0393328629434109	0.828086912631989	0.0228598732501268	-0.558750748634338	NPCNearDoor_HumanMale_Mesh_LOD1	TheTavern_3	-1	10
0.00857498403638601	0.103797167539597	0.0449863076210022	0.37448987364769	0.46802693605423	1.53644442558289	0.2533238530159	2.74553847312927	-0.0392682552337646	0.828060150146484	0.0229577738791704	-0.558791041374207	NPCNearDoor_HumanMale_Mesh_LOD1	TheTavern_3	-1	10
0.011169551871717	0.103797167539597	0.0449863076210022	0.37448987364769	0.46802693605423	1.53648817539215	0.253305733203888	2.74554634094238	-0.0393459796905518	0.827991545200348	0.022923169657588	-0.558888614177704	NPCNearDoor_HumanMale_Mesh_LOD1	TheTavern_3	-1	10
0.0112002901732922	0.103458672761917	0.045407623052597	0.37415137887001	0.468448251485825	1.53652286529541	0.253337919712067	2.7456111907959	-0.0392400659620762	0.82798844575882	0.0228520855307579	-0.558903574943542	NPCNearDoor_HumanMale_Mesh_LOD1	TheTavern_3	-1	10
0.0111569641157985	0.103458672761917	0.045407623052597	0.37415137887001	0.468448251485825	1.5365823507309	0.253342688083649	2.74565029144287	-0.0390663929283619	0.827994227409363	0.0227291285991669	-0.558912217617035	NPCNearDoor_HumanMale_Mesh_LOD1	TheTavern_3	-1	10
0.0177503805607557	0.103925481438637	0.0447273254394531	0.374618172645569	0.467767953872681	1.53672826290131	0.253301560878754	2.74564981460571	-0.0389381051063538	0.827971220016479	0.0227276440709829	-0.558955311775208	NPCNearDoor_HumanMale_Mesh_LOD1	TheTavern_3	-1	10
0.00487356074154377	0.103925481438637	0.0447273254394531	0.374618172645569	0.467767953872681	1.53673624992371	0.253323256969452	2.74569416046143	-0.0387510471045971	0.828058481216431	0.0225825551897287	-0.558844804763794	NPCNearDoor_HumanMale_Mesh_LOD1	TheTavern_3	-1	10
0.010494782589376	0.103925481438637	0.0447273254394531	0.374618172645569	0.467767953872681	1.53683173656464	0.253295004367828	2.74565982818604	-0.0387667529284954	0.828073680400848	0.0226552784442902	-0.558818280696869	NPCNearDoor_HumanMale_Mesh_LOD1	TheTavern_3	-1	10
0.0113566135987639	0.103925481438637	0.0447273254394531	0.374618172645569	0.467767953872681	1.53679084777832	0.253211855888367	2.74563980102539	-0.0387409031391144	0.828148186206818	0.022664912045002	-0.558709323406219	NPCNearDoor_HumanMale_Mesh_LOD1	TheTavern_3	-1	10
0.0112711330875754	0.0868988484144211	0.0778147578239441	0.357591569423676	0.500855386257172	1.53677177429199	0.253223598003387	2.74563646316528	-0.0389277786016464	0.828219175338745	0.0227537080645561	-0.558587491512299	NPCNearDoor_HumanMale_Mesh_LOD1	TheTavern_3	-1	10
0.0110881701111794	0.0868988484144211	0.0778147578239441	0.357591569423676	0.500855386257172	1.53676533699036	0.253259599208832	2.74563121795654	-0.0389541499316692	0.828202724456787	0.0227333884686232	-0.558610856533051	NPCNearDoor_HumanMale_Mesh_LOD1	TheTavern_3	-1	10
0.0113733001053333	0.105871826410294	0.0379521399736404	0.376564532518387	0.460992753505707	1.53682327270508	0.253219306468964	2.74560642242432	-0.0390856042504311	0.828257739543915	0.0228342469781637	-0.558515906333923	NPCNearDoor_HumanMale_Mesh_LOD1	TheTavern_3	-1	10
0.0111800907179713	0.105871826410294	0.0379521399736404	0.376564532518387	0.460992753505707	1.53678357601166	0.2532599568367	2.74561834335327	-0.0391256511211395	0.828334867954254	0.0227631088346243	-0.558401703834534	NPCNearDoor_HumanMale_Mesh_LOD1	TheTavern_3	-1	10
0.0110946102067828	0.105871826410294	0.0379521399736404	0.376564532518387	0.460992753505707	1.53677320480347	0.253286182880402	2.74561214447021	-0.0391632504761219	0.828396320343018	0.0226743351668119	-0.558311522006989	NPCNearDoor_HumanMale_Mesh_LOD1	TheTavern_3	-1	10
0.0112444935366511	0.105871826410294	0.0379521399736404	0.376564532518387	0.460992753505707	1.53676176071167	0.253264784812927	2.74555683135986	-0.0391037687659264	0.828381717205048	0.0227248929440975	-0.558335185050964	NPCNearDoor_HumanMale_Mesh_LOD1	TheTavern_3	-1	10
0.0108612952753901	0.105871826410294	0.0379521399736404	0.376564532518387	0.460992753505707	1.536705493927	0.253264129161835	2.74559307098389	-0.039065308868885	0.828393995761871	0.0226868391036987	-0.558321297168732	NPCNearDoor_HumanMale_Mesh_LOD1	TheTavern_3	-1	10
0.0113334869965911	0.105871826410294	0.0379521399736404	0.376564532518387	0.460992753505707	1.53665542602539	0.253250896930695	2.7455689907074	-0.039084654301405	0.828363955020905	0.0226719882339239	-0.558365046977997	NPCNearDoor_HumanMale_Mesh_LOD1	TheTavern_3	-1	10
0.0114254085347056	0.105871826410294	0.0379521399736404	0.376564532518387	0.460992753505707	1.53658831119537	0.253195345401764	2.74552297592163	-0.0391604416072369	0.828353941440582	0.0225847624242306	-0.558378100395203	NPCNearDoor_HumanMale_Mesh_LOD1	TheTavern_3	-1	10
0.0117907496169209	0.162226170301437	0.0469774156808853	0.432918876409531	0.376063227653503	1.53649377822876	0.253212213516235	2.74538898468018	-0.0392350219190121	0.828248143196106	0.0224613845348358	-0.558534920215607	NPCNearDoor_HumanMale_Mesh_LOD1	Bench 1 (2)	-1	148
0.0167620852589607	0.162226170301437	0.0469774156808853	0.432918876409531	0.376063227653503	1.53645801544189	0.253162384033203	2.74532079696655	-0.0392626151442528	0.828215777873993	0.0223585218191147	-0.558585047721863	NPCNearDoor_HumanMale_Mesh_LOD1	Bench 1 (2)	-1	148
0.00555359898135066	0.162226170301437	0.0469774156808853	0.432918876409531	0.376063227653503	1.53641748428345	0.253116250038147	2.74525880813599	-0.0392757095396519	0.828215003013611	0.0223345030099154	-0.558586299419403	NPCNearDoor_HumanMale_Mesh_LOD1	Bench 1 (2)	-1	148
0.0102623458951712	0.162226170301437	0.0469774156808853	0.432918876409531	0.376063227653503	1.53629517555237	0.253115475177765	2.7452278137207	-0.0393201410770416	0.828185856342316	0.0222508832812309	-0.55862957239151	NPCNearDoor_HumanMale_Mesh_LOD1	Bench 1 (2)	-1	148
0.0110635794699192	0.162226170301437	0.0469774156808853	0.432918876409531	0.376063227653503	1.53616964817047	0.253123044967651	2.74520134925842	-0.0394130200147629	0.828206717967987	0.0221350155770779	-0.558596789836884	NPCNearDoor_HumanMale_Mesh_LOD1	Bench 1 (2)	-1	148
0.0112199038267136	0.162226170301437	0.0469774156808853	0.432918876409531	0.376063227653503	1.53622221946716	0.253058016300201	2.74514532089233	-0.039424080401659	0.828257203102112	0.0220856759697199	-0.558522999286652	NPCNearDoor_HumanMale_Mesh_LOD1	Bench 1 (2)	-1	148
0.0118803288787603	0.0526686757802963	0.0594938844442368	0.542476356029511	0.388579666614532	1.53610682487488	0.253054678440094	2.7450704574585	-0.0395744033157825	0.82822322845459	0.0219654683023691	-0.558567583560944	NPCNearDoor_HumanMale_Mesh_LOD1	NPCNearDoor_HumanMale_Mesh_LOD1	-1	-1
0.0104634594172239	0.0526686757802963	0.0594938844442368	0.542476356029511	0.388579666614532	1.53606534004211	0.252999722957611	2.7449586391449	-0.0397703647613525	0.828194379806519	0.0218211244791746	-0.558602094650269	NPCNearDoor_HumanMale_Mesh_LOD1	NPCNearDoor_HumanMale_Mesh_LOD1	-1	-1
0.011698829010129	0.0526686757802963	0.0594938844442368	0.542476356029511	0.388579666614532	1.53602182865143	0.252879679203033	2.74487829208374	-0.0398566238582134	0.828191995620728	0.0217163171619177	-0.558603584766388	TheTavern_3	NPCNearDoor_HumanMale_Mesh_LOD1	10	-1
0.0106186121702194	0.0526686757802963	0.0594938844442368	0.542476356029511	0.388579666614532	1.53589653968811	0.252865970134735	2.74487113952637	-0.0399500913918018	0.828219056129456	0.0215589739382267	-0.558562874794006	TheTavern_3	NPCNearDoor_HumanMale_Mesh_LOD1	10	-1
0.0119892284274101	0.0526686757802963	0.0594938844442368	0.542476356029511	0.388579666614532	1.5358020067215	0.252843797206879	2.74478483200073	-0.0401030778884888	0.828160047531128	0.0214448403567076	-0.558643817901611	TheTavern_3	NPCNearDoor_HumanMale_Mesh_LOD1	10	-1
0.0105196656659245	0.0526686757802963	0.0594938844442368	0.542476356029511	0.388579666614532	1.53571331501007	0.252774834632874	2.74472093582153	-0.0401361808180809	0.82824170589447	0.0213261358439922	-0.558524906635284	TheTavern_3	NPCNearDoor_HumanMale_Mesh_LOD1	10	-1
0.0112225385382771	0.0560181140899658	0.00786566734313965	0.422191321849823	0.483217120170593	1.53557395935059	0.252798199653625	2.74458312988281	-0.0402249954640865	0.828172028064728	0.0211637858301401	-0.558627903461456	TheTavern_3	TheTavern_3	10	10
0.0110641652718186	0.0560181140899658	0.00786566734313965	0.422191321849823	0.483217120170593	1.53544175624847	0.252795338630676	2.7445764541626	-0.0402652285993099	0.828210711479187	0.021027285605669	-0.558572828769684	TheTavern_3	TheTavern_3	10	10
0.0117787467315793	0.0560181140899658	0.00786566734313965	0.422191321849823	0.483217120170593	1.5354905128479	0.25275182723999	2.74451470375061	-0.0403994955122471	0.828189253807068	0.0208817720413208	-0.55860036611557	TheTavern_3	TheTavern_3	10	10
0.0164400693029165	0.0560181140899658	0.00786566734313965	0.422191321849823	0.483217120170593	1.53539967536926	0.252722978591919	2.7445240020752	-0.040349468588829	0.828141212463379	0.0206804517656565	-0.558682680130005	TheTavern_3	TheTavern_3	10	10
0.00581648107618093	0.000636905431747437	0.0118231177330017	0.511058330535889	0.480103969573975	1.53537249565125	0.252684772014618	2.74445915222168	-0.0403610169887543	0.828112065792084	0.0204955972731113	-0.558731853961945	TheTavern_3	NPCNearDoor_HumanMale_Mesh_LOD1	10	-1
0.0143897086381912	0.000636905431747437	0.0118231177330017	0.511058330535889	0.480103969573975	1.53533136844635	0.252607047557831	2.74439334869385	-0.0403972342610359	0.828159153461456	0.0202779807150364	-0.558667540550232	TheTavern_3	NPCNearDoor_HumanMale_Mesh_LOD1	10	-1
0.00745641905814409	0.000636905431747437	0.0118231177330017	0.511058330535889	0.480103969573975	1.53524196147919	0.252600371837616	2.74438714981079	-0.040468979626894	0.828157007694244	0.0201592668890953	-0.558669805526733	TheTavern_3	NPCNearDoor_HumanMale_Mesh_LOD1	10	-1
0.0104107661172748	0.000636905431747437	0.0118231177330017	0.511058330535889	0.480103969573975	1.53518331050873	0.252611339092255	2.74434423446655	-0.0405345894396305	0.828180134296417	0.0199207719415426	-0.558639168739319	TheTavern_3	NPCNearDoor_HumanMale_Mesh_LOD1	10	-1
0.0117061473429203	0.0255345553159714	0.00554946064949036	0.492201268672943	0.441478341817856	1.53514063358307	0.252594888210297	2.74425983428955	-0.0405729971826077	0.828171908855438	0.0198691505938768	-0.558650434017181	TheTavern_3	NPCNearDoor_HumanMale_Mesh_LOD1	10	-1
0.0106051461771131	0.0255345553159714	0.00554946064949036	0.492201268672943	0.441478341817856	1.53505325317383	0.25263512134552	2.74419784545898	-0.0406672470271587	0.828223884105682	0.0195747558027506	-0.558577001094818	TheTavern_3	NPCNearDoor_HumanMale_Mesh_LOD1	10	-1
0.0117155145853758	0.0241848081350327	0.00740064680576324	0.490851521492004	0.443329513072968	1.5350341796875	0.252637684345245	2.74416589736938	-0.0405563674867153	0.828309416770935	0.0192133169621229	-0.558470845222473	TheTavern_3	NPCNearDoor_HumanMale_Mesh_LOD1	10	-1
0.0109016932547092	0.0241848081350327	0.00740064680576324	0.490851521492004	0.443329513072968	1.53501725196838	0.252502799034119	2.74411153793335	-0.0405315086245537	0.82834130525589	0.0190885756164789	-0.558429598808289	TheTavern_3	NPCNearDoor_HumanMale_Mesh_LOD1	10	-1
0.0111036850139499	0.0241848081350327	0.00740064680576324	0.490851521492004	0.443329513072968	1.53498351573944	0.252541720867157	2.7440447807312	-0.0405444987118244	0.828345596790314	0.0188783314079046	-0.558429300785065	TheTavern_3	NPCNearDoor_HumanMale_Mesh_LOD1	10	-1
0.0108299721032381	0.0241848081350327	0.00740064680576324	0.490851521492004	0.443329513072968	1.53496813774109	0.252583205699921	2.74402856826782	-0.040473435074091	0.828437149524689	0.0187227334827185	-0.558304011821747	TheTavern_3	NPCNearDoor_HumanMale_Mesh_LOD1	10	-1
0.0121707282960415	0.0243310779333115	0.00723281502723694	0.490997791290283	0.443161696195602	1.53505492210388	0.25258857011795	2.74400043487549	-0.0405209586024284	0.828475117683411	0.0186658650636673	-0.55824613571167	TheTavern_3	NPCNearDoor_HumanMale_Mesh_LOD1	10	-1
0.0107638128101826	0.0243310779333115	0.00723281502723694	0.490997791290283	0.443161696195602	1.53505671024323	0.252616167068481	2.74405479431152	-0.0403035804629326	0.828544795513153	0.0185686945915222	-0.558161675930023	TheTavern_3	NPCNearDoor_HumanMale_Mesh_LOD1	10	-1
0.0114227738231421	0.0243310779333115	0.00723281502723694	0.490997791290283	0.443161696195602	1.53514432907104	0.252616941928864	2.74403047561646	-0.0402381457388401	0.828537940979004	0.0185268223285675	-0.558177947998047	TheTavern_3	NPCNearDoor_HumanMale_Mesh_LOD1	10	-1
0.0176941752433777	0.00348100066184998	0.00568631291389465	0.511784553527832	0.44482883810997	1.53519237041473	0.252553284168243	2.74404287338257	-0.0402478650212288	0.828642904758453	0.018700310960412	-0.558015525341034	TheTavern_3	NPCNearDoor_HumanMale_Mesh_LOD1	10	-1
0.00531706400215626	0.00348100066184998	0.00568631291389465	0.511784553527832	0.44482883810997	1.53521299362183	0.252586960792542	2.7440721988678	-0.0401970781385899	0.828591585159302	0.0188545491546392	-0.558090209960938	TheTavern_3	NPCNearDoor_HumanMale_Mesh_LOD1	10	-1
0.00973277632147074	0.00348100066184998	0.00568631291389465	0.511784553527832	0.44482883810997	1.53525853157043	0.252613842487335	2.74411630630493	-0.0401634387671947	0.828682959079742	0.0189721994102001	-0.55795294046402	TheTavern_3	NPCNearDoor_HumanMale_Mesh_LOD1	10	-1
0.0113984756171703	0.00363221764564514	0.00550398230552673	0.511935830116272	0.444646507501602	1.53537130355835	0.252619206905365	2.74412083625793	-0.0401095449924469	0.828701019287109	0.0190855339169502	-0.557926118373871	TheTavern_3	NPCNearDoor_HumanMale_Mesh_LOD1	10	-1
0.0116194961592555	0.00363221764564514	0.00550398230552673	0.511935830116272	0.444646507501602	1.53536343574524	0.252700865268707	2.74411249160767	-0.039959330111742	0.828742742538452	0.0190853215754032	-0.557874917984009	TheTavern_3	NPCNearDoor_HumanMale_Mesh_LOD1	10	-1
0.0103533891960979	0.00363221764564514	0.00550398230552673	0.511935830116272	0.444646507501602	1.53523087501526	0.252828896045685	2.74414777755737	-0.0398168414831162	0.828759610652924	0.019246269017458	-0.557854652404785	TheTavern_3	NPCNearDoor_HumanMale_Mesh_LOD1	10	-1
0.0117480093613267	0.00359219312667847	0.00555950403213501	0.511895775794983	0.44470202922821	1.53534257411957	0.252852618694305	2.74415302276611	-0.0397661067545414	0.828743934631348	0.019368527457118	-0.5578773021698	TheTavern_3	NPCNearDoor_HumanMale_Mesh_LOD1	10	-1
0.0107664465904236	0.00359219312667847	0.00555950403213501	0.511895775794983	0.44470202922821	1.53528642654419	0.252966344356537	2.74420261383057	-0.0398084707558155	0.828731119632721	0.0193342845886946	-0.55789440870285	TheTavern_3	NPCNearDoor_HumanMale_Mesh_LOD1	10	-1
0.0110679706558585	0.00359219312667847	0.00555950403213501	0.511895775794983	0.44470202922821	1.53539609909058	0.252920866012573	2.74423885345459	-0.039710845798254	0.828719913959503	0.0197114180773497	-0.557904958724976	TheTavern_3	NPCNearDoor_HumanMale_Mesh_LOD1	10	-1
0.0117465453222394	0.00404596328735352	0.00500158965587616	0.512349545955658	0.444144129753113	1.53539538383484	0.252927243709564	2.7442638874054	-0.0395533517003059	0.828632235527039	0.0200593769550323	-0.55803394317627	TheTavern_3	NPCNearDoor_HumanMale_Mesh_LOD1	10	-1
0.010903743095696	0.00404596328735352	0.00500158965587616	0.512349545955658	0.444144129753113	1.53532242774963	0.25300008058548	2.74437522888184	-0.039490994066	0.828419864177704	0.0201444011181593	-0.558350503444672	TheTavern_3	NPCNearDoor_HumanMale_Mesh_LOD1	10	-1
0.011242444626987	0.00404596328735352	0.00500158965587616	0.512349545955658	0.444144129753113	1.53526926040649	0.253058910369873	2.7444019317627	-0.0393360517919064	0.828321754932404	0.0201919879764318	-0.558505296707153	TheTavern_3	NPCNearDoor_HumanMale_Mesh_LOD1	10	-1
0.0111285680904984	0.00416773557662964	0.00480176508426666	0.512471318244934	0.443944275379181	1.53524613380432	0.253020584583282	2.74442768096924	-0.0392671190202236	0.828182458877563	0.0202449541538954	-0.558714628219604	TheTavern_3	NPCNearDoor_HumanMale_Mesh_LOD1	10	-1
0.0115545075386763	0.00416773557662964	0.00480176508426666	0.512471318244934	0.443944275379181	1.5351722240448	0.253086745738983	2.74451112747192	-0.0392444059252739	0.82804012298584	0.0201357882469893	-0.558931112289429	TheTavern_3	NPCNearDoor_HumanMale_Mesh_LOD1	10	-1
0.016693877056241	0.00416773557662964	0.00480176508426666	0.512471318244934	0.443944275379181	1.53516554832459	0.25309556722641	2.74457192420959	-0.0392028801143169	0.827874481678009	0.0202733986079693	-0.559174358844757	TheTavern_3	NPCNearDoor_HumanMale_Mesh_LOD1	10	-1
0.00542772002518177	0.00416773557662964	0.00480176508426666	0.512471318244934	0.443944275379181	1.53524911403656	0.253131330013275	2.74463105201721	-0.039267111569643	0.827885687351227	0.0203396938741207	-0.559150815010071	TheTavern_3	NPCNearDoor_HumanMale_Mesh_LOD1	10	-1
0.011539869941771	0.00395467877388	0.00509697198867798	0.512258291244507	0.444239497184753	1.5352224111557	0.253206670284271	2.74474191665649	-0.0394244231283665	0.827829122543335	0.020519932731986	-0.559217035770416	TheTavern_3	NPCNearDoor_HumanMale_Mesh_LOD1	10	-1
0.0106288585811853	0.00395467877388	0.00509697198867798	0.512258291244507	0.444239497184753	1.53516793251038	0.253311574459076	2.74483609199524	-0.0397026911377907	0.827775955200195	0.0208974536508322	-0.559262096881866	TheTavern_3	NPCNearDoor_HumanMale_Mesh_LOD1	10	-1
0.0117951408028603	0.00395467877388	0.00509697198867798	0.512258291244507	0.444239497184753	1.53523206710815	0.253310084342957	2.74488973617554	-0.039784874767065	0.827716708183289	0.0211263354867697	-0.559335231781006	NPCNearDoor_HumanMale_Mesh_LOD1	NPCNearDoor_HumanMale_Mesh_LOD1	-1	-1
0.0106432028114796	0.00395467877388	0.00509697198867798	0.512258291244507	0.444239497184753	1.53522729873657	0.253339946269989	2.74501466751099	-0.0398226380348206	0.827629029750824	0.0210372861474752	-0.559465706348419	NPCNearDoor_HumanMale_Mesh_LOD1	NPCNearDoor_HumanMale_Mesh_LOD1	-1	-1
0.0110782170668244	0.00395467877388	0.00509697198867798	0.512258291244507	0.444239497184753	1.53519904613495	0.2533900141716	2.74508810043335	-0.0398450344800949	0.827575027942657	0.0209945645183325	-0.559545576572418	NPCNearDoor_HumanMale_Mesh_LOD1	NPCNearDoor_HumanMale_Mesh_LOD1	-1	-1
0.0139394719153643	0.00395467877388	0.00509697198867798	0.512258291244507	0.444239497184753	1.53529179096222	0.253390491008759	2.74512624740601	-0.0398646593093872	0.827555060386658	0.0211272370070219	-0.559568703174591	NPCNearDoor_HumanMale_Mesh_LOD1	NPCNearDoor_HumanMale_Mesh_LOD1	-1	-1
0.00867919996380806	0.0134093016386032	0.0172300338745117	0.49489426612854	0.456372559070587	1.53529572486877	0.253458678722382	2.74523544311523	-0.0400622822344303	0.827568173408508	0.0212870724499226	-0.559529066085815	NPCNearDoor_HumanMale_Mesh_LOD1	NPCNearDoor_HumanMale_Mesh_LOD1	-1	-1
0.011587293818593	0.0134093016386032	0.0172300338745117	0.49489426612854	0.456372559070587	1.53540396690369	0.253439009189606	2.74524021148682	-0.0402155630290508	0.827538251876831	0.0215159337967634	-0.559553563594818	NPCNearDoor_HumanMale_Mesh_LOD1	NPCNearDoor_HumanMale_Mesh_LOD1	-1	-1
0.0114564383402467	0.0145816504955292	0.0235704928636551	0.493721932172775	0.462713003158569	1.53551232814789	0.25345116853714	2.74524211883545	-0.0404046960175037	0.827508211135864	0.0215271487832069	-0.559583961963654	NPCNearDoor_HumanMale_Mesh_LOD1	NPCNearDoor_HumanMale_Mesh_LOD1	-1	-1
0.0110085438936949	0.0145816504955292	0.0235704928636551	0.493721932172775	0.462713003158569	1.53551983833313	0.25344330072403	2.74527311325073	-0.0407120101153851	0.827624678611755	0.0215591564774513	-0.559388279914856	NPCNearDoor_HumanMale_Mesh_LOD1	NPCNearDoor_HumanMale_Mesh_LOD1	-1	-1
0.0112371752038598	0.0145816504955292	0.0235704928636551	0.493721932172775	0.462713003158569	1.5355658531189	0.253427088260651	2.74528765678406	-0.0408433265984058	0.827710509300232	0.0214722789824009	-0.559255003929138	TheTavern_3	NPCNearDoor_HumanMale_Mesh_LOD1	10	-1
0.011609542183578	0.0145816504955292	0.0235704928636551	0.493721932172775	0.462713003158569	1.53567898273468	0.253402948379517	2.74524974822998	-0.0408033393323421	0.827735960483551	0.0214815028011799	-0.559219896793365	TheTavern_3	NPCNearDoor_HumanMale_Mesh_LOD1	10	-1
0.0168223902583122	0.0145816504955292	0.0235704928636551	0.493721932172775	0.462713003158569	1.5356537103653	0.253417193889618	2.7452654838562	-0.0408817455172539	0.82787811756134	0.0215376634150743	-0.559001505374908	TheTavern_3	NPCNearDoor_HumanMale_Mesh_LOD1	10	-1
0.00555916130542755	0.0145816504955292	0.0235704928636551	0.493721932172775	0.462713003158569	1.53577780723572	0.253334820270538	2.74524259567261	-0.0409830920398235	0.827988028526306	0.0213950723409653	-0.558836758136749	TheTavern_3	NPCNearDoor_HumanMale_Mesh_LOD1	10	-1
0.0107181444764137	0.0145816504955292	0.0235704928636551	0.493721932172775	0.462713003158569	1.53591275215149	0.253257691860199	2.7452220916748	-0.0411647856235504	0.828122556209564	0.0211927704513073	-0.558631718158722	TheTavern_3	NPCNearDoor_HumanMale_Mesh_LOD1	10	-1
0.011147303506732	0.0145816504955292	0.0235704928636551	0.493721932172775	0.462713003158569	1.53592610359192	0.253187716007233	2.74527025222778	-0.0412870906293392	0.828292667865753	0.0207552947103977	-0.558386921882629	TheTavern_3	NPCNearDoor_HumanMale_Mesh_LOD1	10	-1
0.011334365233779	0.0422824174165726	0.00391685962677002	0.466021180152893	0.435225665569305	1.53583550453186	0.253227055072784	2.74528741836548	-0.0414813756942749	0.828495800495148	0.0205950103700161	-0.558077037334442	TheTavern_3	NPCNearDoor_HumanMale_Mesh_LOD1	10	-1
0.0113188503310084	0.0422824174165726	0.00391685962677002	0.466021180152893	0.435225665569305	1.53587067127228	0.253194987773895	2.74522018432617	-0.0417106784880161	0.828652679920197	0.0206540673971176	-0.557824730873108	TheTavern_3	NPCNearDoor_HumanMale_Mesh_LOD1	10	-1
0.011178920045495	0.0422824174165726	0.00391685962677002	0.466021180152893	0.435225665569305	1.53581607341766	0.253235280513763	2.74518013000488	-0.0417935475707054	0.828729450702667	0.020881749689579	-0.557695925235748	TheTavern_3	NPCNearDoor_HumanMale_Mesh_LOD1	10	-1
0.0105386944487691	0.0422824174165726	0.00391685962677002	0.466021180152893	0.435225665569305	1.53575360774994	0.253287136554718	2.7451434135437	-0.0417584665119648	0.828835785388947	0.0212960187345743	-0.557524919509888	TheTavern_3	NPCNearDoor_HumanMale_Mesh_LOD1	10	-1
0.0114570241421461	0.0341944247484207	0.0138116478919983	0.387641310691834	0.468357026576996	1.53573048114777	0.253330051898956	2.74508786201477	-0.0415093936026096	0.828847169876099	0.0217325910925865	-0.557509779930115	TheTavern_3	TheTavern_3	10	10
0.0108697852119803	0.0341944247484207	0.0138116478919983	0.387641310691834	0.468357026576996	1.53563821315765	0.253357112407684	2.74507284164429	-0.041262574493885	0.828836262226105	0.0220350902527571	-0.55753231048584	TheTavern_3	TheTavern_3	10	10
0.0113413911312819	0.0341944247484207	0.0138116478919983	0.387641310691834	0.468357026576996	1.53559136390686	0.253354609012604	2.74504089355469	-0.0411278046667576	0.828804135322571	0.0217885356396437	-0.55759984254837	TheTavern_3	TheTavern_3	10	10
0.0114939101040363	0.0341944247484207	0.0138116478919983	0.387641310691834	0.468357026576996	1.53579092025757	0.253380358219147	2.74500584602356	-0.041089441627264	0.828729689121246	0.02163608931005	-0.557719111442566	TheTavern_3	TheTavern_3	10	10
0.0113188503310084	0.0324808359146118	0.00659638643264771	0.389354884624481	0.461141765117645	1.53569984436035	0.253402888774872	2.74499225616455	-0.0413159988820553	0.828669309616089	0.0211684703826904	-0.557810127735138	TheTavern_3	TheTavern_3	10	10
0.0109587777405977	0.0324808359146118	0.00659638643264771	0.389354884624481	0.461141765117645	1.53571343421936	0.253351867198944	2.74494671821594	-0.0412381775677204	0.828569531440735	0.0209595132619143	-0.557972013950348	TheTavern_3	TheTavern_3	10	10
0.0171546526253223	0.104735642671585	0.0416381806135178	0.461609691381454	0.426099956035614	1.53567254543304	0.253303349018097	2.74487686157227	-0.0413415133953094	0.828508257865906	0.0208694543689489	-0.558058619499207	TheTavern_3	NPCNearDoor_HumanMale_Mesh_LOD1	10	-1
0.00627169385552406	0.104735642671585	0.0416381806135178	0.461609691381454	0.426099956035614	1.53559136390686	0.253385603427887	2.7448558807373	-0.0412837229669094	0.828483402729034	0.0211664699018002	-0.558088600635529	TheTavern_3	NPCNearDoor_HumanMale_Mesh_LOD1	10	-1
0.0099956588819623	0.104735642671585	0.0416381806135178	0.461609691381454	0.426099956035614	1.53559875488281	0.253416955471039	2.74481058120728	-0.0411621406674385	0.828509509563446	0.0214674007147551	-0.558047413825989	TheTavern_3	NPCNearDoor_HumanMale_Mesh_LOD1	10	-1
0.0114049166440964	0.0566249489784241	0.114962011575699	0.620032429695129	0.504071593284607	1.53566491603851	0.253468334674835	2.74472045898438	-0.0413280017673969	0.828521907329559	0.0218375083059072	-0.558002293109894	TheTavern_3	TheTavern_3	10	11
0.0107436133548617	0.0566249489784241	0.114962011575699	0.620032429695129	0.504071593284607	1.53560185432434	0.253563821315765	2.74466562271118	-0.0413936078548431	0.828648090362549	0.0220533683896065	-0.55780166387558	TheTavern_3	TheTavern_3	10	11
0.0110641652718186	0.0566249489784241	0.114962011575699	0.620032429695129	0.504071593284607	1.53555691242218	0.253642022609711	2.74459075927734	-0.041281383484602	0.82882171869278	0.0219834595918655	-0.557554721832275	TheTavern_3	TheTavern_3	10	11
0.0117951408028603	0.0621276199817657	0.106115385890007	0.614529728889465	0.512918174266815	1.53557372093201	0.253595888614655	2.74449014663696	-0.0412377938628197	0.8289675116539	0.0220625717192888	-0.557337999343872	TheTavern_3	TheTavern_3	10	10
0.0107143390923738	0.0621276199817657	0.106115385890007	0.614529728889465	0.512918174266815	1.53550267219543	0.253660082817078	2.744469165802	-0.0412161983549595	0.829128265380859	0.022066805511713	-0.557100176811218	TheTavern_3	TheTavern_3	10	10
0.0108771035447717	0.0621276199817657	0.106115385890007	0.614529728889465	0.512918174266815	1.53552067279816	0.25370192527771	2.74438428878784	-0.0412177629768848	0.829273521900177	0.0219935532659292	-0.556886792182922	TheTavern_3	TheTavern_3	10	10
0.0135858403518796	0.101579308509827	0.0523988753557205	0.446160614490509	0.467679083347321	1.53567123413086	0.253799378871918	2.74428510665894	-0.0412759855389595	0.829388201236725	0.0221902560442686	-0.556703746318817	TheTavern_3	TheTavern_3	10	10
0.00924448389559984	0.101579308509827	0.0523988753557205	0.446160614490509	0.467679083347321	1.53563666343689	0.253902614116669	2.74408435821533	-0.0413133278489113	0.829488813877106	0.0222625378519297	-0.556548297405243	TheTavern_3	TheTavern_3	10	10
0.0113812042400241	0.101579308509827	0.0523988753557205	0.446160614490509	0.467679083347321	1.53559565544128	0.253982603549957	2.74395608901978	-0.0412301458418369	0.829635620117188	0.0224170051515102	-0.556329309940338	TheTavern_3	TheTavern_3	10	10
0.0112193180248141	0.0383350253105164	0.0148135423660278	0.382916331291199	0.505264401435852	1.5356479883194	0.254007518291473	2.743812084198	-0.0412690751254559	0.829748272895813	0.022380068898201	-0.556159853935242	TheTavern_3	TheTavern_3	10	10
0.011464050039649	0.0383350253105164	0.0148135423660278	0.382916331291199	0.505264401435852	1.53558397293091	0.254081070423126	2.74368333816528	-0.041203361004591	0.829962909221649	0.0222702566534281	-0.555848896503448	TheTavern_3	TheTavern_3	10	10
