deltaTime	avgXGazingUncertainty	avgYGazingUncertainty	gazeX	gazeY	headX	headY	headZ	headRotationX	headRotationY	headRotationZ	headRotationW	faceRaycastHitObjectName	gazeRaycastHitObjectName	faceRaycastHitTriangleName	gazeRaycastHitTriangleName
0.0133053939789534	0.0474937409162521	0.0642780363559723	0.389059841632843	0.525139927864075	4.99345779418945	0.633057832717896	4.45200777053833	0.293964922428131	-0.153886646032333	-0.00888063386082649	-0.943305194377899	Bartender_HumanMale_Mesh_LOD1	TheTavern_2	-1	10
0.00988968648016453	0.0474937409162521	0.0642780363559723	0.389059841632843	0.525139927864075	4.99350643157959	0.633034467697144	4.45172739028931	0.293808490037918	-0.154029473662376	-0.00883321091532707	-0.943331062793732	Bartender_HumanMale_Mesh_LOD1	TheTavern_2	-1	10
0.0108343632891774	0.0474937409162521	0.0642780363559723	0.389059841632843	0.525139927864075	4.99347400665283	0.633023738861084	4.4515438079834	0.293707430362701	-0.154139742255211	-0.00884481333196163	-0.943344473838806	Bartender_HumanMale_Mesh_LOD1	TheTavern_2	-1	10
0.0110003473237157	0.0474937409162521	0.0642780363559723	0.389059841632843	0.525139927864075	4.99346303939819	0.633017420768738	4.45137786865234	0.293534129858017	-0.154047414660454	-0.00886718556284904	-0.943413257598877	Bartender_HumanMale_Mesh_LOD1	TheTavern_2	-1	10
0.010887642391026	0.0474937409162521	0.0642780363559723	0.389059841632843	0.525139927864075	4.99347066879272	0.632954478263855	4.45123052597046	0.293368428945541	-0.153888791799545	-0.00875637121498585	-0.943491697311401	Bartender_HumanMale_Mesh_LOD1	TheTavern_2	-1	10
0.0118141686543822	0.0474937409162521	0.0642780363559723	0.389059841632843	0.525139927864075	4.99344539642334	0.632932901382446	4.45107936859131	0.292898833751678	-0.153625532984734	-0.00876014679670334	-0.94368040561676	Bartender_HumanMale_Mesh_LOD1	TheTavern_2	-1	10
0.0103530958294868	0.0474937409162521	0.0642780363559723	0.389059841632843	0.525139927864075	4.99332475662231	0.63288938999176	4.45077657699585	0.292353719472885	-0.153516694903374	-0.00857099704444408	-0.943868935108185	Bartender_HumanMale_Mesh_LOD1	TheTavern_2	-1	10
0.011514694429934	0.0474937409162521	0.0642780363559723	0.389059841632843	0.525139927864075	4.99326992034912	0.632881760597229	4.4506778717041	0.29184901714325	-0.153283387422562	-0.00803942140191793	-0.944067716598511	Bartender_HumanMale_Mesh_LOD1	TheTavern_2	-1	10
0.0123009979724884	0.0474937409162521	0.0642780363559723	0.389059841632843	0.525139927864075	4.99326229095459	0.632857084274292	4.45058393478394	0.291348427534103	-0.152896583080292	-0.00768762733787298	-0.944287896156311	Bartender_HumanMale_Mesh_LOD1	TheTavern_2	-1	10
0.0107646901160479	0.101999565958977	0.0250911116600037	0.443565666675568	0.435770750045776	4.99309015274048	0.632850170135498	4.45048141479492	0.290885865688324	-0.152507930994034	-0.00743104424327612	-0.944495379924774	Bartender_HumanMale_Mesh_LOD1	Bartender_HumanMale_Mesh_LOD1	-1	-1
0.0107137532904744	0.101999565958977	0.0250911116600037	0.443565666675568	0.435770750045776	4.99303293228149	0.63290274143219	4.4504280090332	0.290584206581116	-0.151887729763985	-0.00753961829468608	-0.944687306880951	Bartender_HumanMale_Mesh_LOD1	Bartender_HumanMale_Mesh_LOD1	-1	-1
0.011514694429934	0.102111831307411	0.0252717584371567	0.443677961826324	0.435590088367462	4.99295377731323	0.632925391197205	4.45036888122559	0.290193825960159	-0.151280999183655	-0.00748813478276134	-0.944905042648315	Bartender_HumanMale_Mesh_LOD1	Bartender_HumanMale_Mesh_LOD1	-1	-1
0.018008578568697	0.102111831307411	0.0252717584371567	0.443677961826324	0.435590088367462	4.99295139312744	0.632954120635986	4.45040988922119	0.289649546146393	-0.150693401694298	-0.00752044934779406	-0.945165693759918	Bartender_HumanMale_Mesh_LOD1	Bartender_HumanMale_Mesh_LOD1	-1	-1
0.00612737238407135	0.102111831307411	0.0252717584371567	0.443677961826324	0.435590088367462	4.99295234680176	0.632898807525635	4.45039939880371	0.289102047681808	-0.149950161576271	-0.0075656408444047	-0.945451080799103	Bartender_HumanMale_Mesh_LOD1	Bartender_HumanMale_Mesh_LOD1	-1	-1
0.0085790827870369	0.102111831307411	0.0252717584371567	0.443677961826324	0.435590088367462	4.99293756484985	0.632877707481384	4.45042991638184	0.288466989994049	-0.149460077285767	-0.00766381155699492	-0.945721805095673	Bartender_HumanMale_Mesh_LOD1	Bartender_HumanMale_Mesh_LOD1	-1	-1
0.0105141038075089	0.101644203066826	0.0246049165725708	0.443210303783417	0.436256945133209	4.99279689788818	0.632863402366638	4.45045518875122	0.287909716367722	-0.149004518985748	-0.00770157249644399	-0.945963203907013	Bartender_HumanMale_Mesh_LOD1	Bartender_HumanMale_Mesh_LOD1	-1	-1
0.0110957808792591	0.101644203066826	0.0246049165725708	0.443210303783417	0.436256945133209	4.99278879165649	0.632864475250244	4.45044231414795	0.287439972162247	-0.148446813225746	-0.00753605784848332	-0.946195006370544	Bartender_HumanMale_Mesh_LOD1	Bartender_HumanMale_Mesh_LOD1	-1	-1
0.0108422674238682	0.101644203066826	0.0246049165725708	0.443210303783417	0.436256945133209	4.99273157119751	0.632840633392334	4.45050239562988	0.287003308534622	-0.148108020424843	-0.0072801006026566	-0.946382701396942	Bartender_HumanMale_Mesh_LOD1	Bartender_HumanMale_Mesh_LOD1	-1	-1
0.0113639328628778	0.105270445346832	0.0668916404247284	0.439584076404572	0.478543668985367	4.99278545379639	0.632924556732178	4.45056629180908	0.286366879940033	-0.147611603140831	-0.00734723871573806	-0.946652472019196	Bartender_HumanMale_Mesh_LOD1	Bartender_HumanMale_Mesh_LOD1	-1	-1
0.0109971277415752	0.105270445346832	0.0668916404247284	0.439584076404572	0.478543668985367	4.99264335632324	0.632923603057861	4.45077896118164	0.285889357328415	-0.147218242287636	-0.00768317468464375	-0.946855366230011	Bartender_HumanMale_Mesh_LOD1	Bartender_HumanMale_Mesh_LOD1	-1	-1
0.0114886406809092	0.100395947694778	0.0113436132669449	0.444458574056625	0.422995626926422	4.99253988265991	0.632912874221802	4.45087432861328	0.285360872745514	-0.14681439101696	-0.00804983079433441	-0.947074413299561	Bartender_HumanMale_Mesh_LOD1	Bartender_HumanMale_Mesh_LOD1	-1	-1
0.0107708377763629	0.100395947694778	0.0113436132669449	0.444458574056625	0.422995626926422	4.99235916137695	0.6328204870224	4.45098114013672	0.284956008195877	-0.146486863493919	-0.00847763009369373	-0.947243273258209	Bartender_HumanMale_Mesh_LOD1	Bartender_HumanMale_Mesh_LOD1	-1	-1
0.0112163908779621	0.100395947694778	0.0113436132669449	0.444458574056625	0.422995626926422	4.99225282669067	0.632754921913147	4.45110654830933	0.284516513347626	-0.146181330084801	-0.00865335389971733	-0.947421014308929	Bartender_HumanMale_Mesh_LOD1	Bartender_HumanMale_Mesh_LOD1	-1	-1
0.0112649854272604	0.00772304832935333	0.00132329761981964	0.491445660591125	0.48152369260788	4.99212837219238	0.632715463638306	4.45121049880981	0.283784329891205	-0.145800858736038	-0.00883076153695583	-0.947697520256042	Bartender_HumanMale_Mesh_LOD1	Bartender_HumanMale_Mesh_LOD1	-1	-1
0.0150006599724293	0.00772304832935333	0.00132329761981964	0.491445660591125	0.48152369260788	4.99208354949951	0.632674217224121	4.45136547088623	0.283375561237335	-0.145487487316132	-0.0088658295571804	-0.947867691516876	Bartender_HumanMale_Mesh_LOD1	Bartender_HumanMale_Mesh_LOD1	-1	-1
0.00765753211453557	0.00772304832935333	0.00132329761981964	0.491445660591125	0.48152369260788	4.99201822280884	0.63261616230011	4.45148849487305	0.283001244068146	-0.145193263888359	-0.00873851124197245	-0.948025763034821	Bartender_HumanMale_Mesh_LOD1	Bartender_HumanMale_Mesh_LOD1	-1	-1
0.015490124002099	0.0668269395828247	0.0446479469537735	0.428625226020813	0.532753765583038	4.99196624755859	0.632556676864624	4.45160531997681	0.282838344573975	-0.144774243235588	-0.00846180133521557	-0.948140978813171	Bartender_HumanMale_Mesh_LOD1	TheTavern_2	-1	10
0.00592889357358217	0.0668269395828247	0.0446479469537735	0.428625226020813	0.532753765583038	4.99183225631714	0.632521629333496	4.4517650604248	0.282839238643646	-0.144600674510002	-0.00814808160066605	-0.948169946670532	Bartender_HumanMale_Mesh_LOD1	TheTavern_2	-1	10
0.0104658016934991	0.0668269395828247	0.0446479469537735	0.428625226020813	0.532753765583038	4.99169921875	0.632495760917664	4.45201730728149	0.282863914966583	-0.144264400005341	-0.00804876629263163	-0.948214650154114	Bartender_HumanMale_Mesh_LOD1	TheTavern_2	-1	10
0.0109564363956451	0.0668269395828247	0.0446479469537735	0.428625226020813	0.532753765583038	4.99153470993042	0.632574319839478	4.45215702056885	0.282905101776123	-0.143892347812653	-0.00810375344008207	-0.948258399963379	Bartender_HumanMale_Mesh_LOD1	TheTavern_2	-1	10
0.0110629945993423	0.0668269395828247	0.0446479469537735	0.428625226020813	0.532753765583038	4.99144268035889	0.6326744556427	4.4522590637207	0.282703012228012	-0.143533706665039	-0.00803640484809875	-0.94837361574173	Bartender_HumanMale_Mesh_LOD1	TheTavern_2	-1	10
0.0112922107800841	0.0668269395828247	0.0446479469537735	0.428625226020813	0.532753765583038	4.99132204055786	0.632789015769959	4.45232963562012	0.282653540372849	-0.143298000097275	-0.00818278826773167	-0.948422789573669	Bartender_HumanMale_Mesh_LOD1	TheTavern_2	-1	10
0.0108823729678988	0.0668269395828247	0.0446479469537735	0.428625226020813	0.532753765583038	4.9912223815918	0.6327885389328	4.45241165161133	0.282583087682724	-0.143222406506538	-0.00846565794199705	-0.948452711105347	Bartender_HumanMale_Mesh_LOD1	TheTavern_2	-1	10
0.0119497077539563	0.0123685598373413	0.0217537581920624	0.535263955593109	0.426814585924149	4.99106550216675	0.632763028144836	4.45242881774902	0.282623142004013	-0.143042370676994	-0.00859936140477657	-0.948466718196869	Bartender_HumanMale_Mesh_LOD1	Bartender_HumanMale_Mesh_LOD1	-1	-1
0.0104508716613054	0.0123685598373413	0.0217537581920624	0.535263955593109	0.426814585924149	4.99098110198975	0.632719755172729	4.45248508453369	0.282540649175644	-0.142886057496071	-0.00862946175038815	-0.948514580726624	Bartender_HumanMale_Mesh_LOD1	Bartender_HumanMale_Mesh_LOD1	-1	-1
0.0112412739545107	0.0123685598373413	0.0217537581920624	0.535263955593109	0.426814585924149	4.99089908599854	0.632665753364563	4.45258140563965	0.282586693763733	-0.142751395702362	-0.00856935698539019	-0.948521733283997	Bartender_HumanMale_Mesh_LOD1	Bartender_HumanMale_Mesh_LOD1	-1	-1
0.0112834284082055	0.0123685598373413	0.0217537581920624	0.535263955593109	0.426814585924149	4.99084806442261	0.632805347442627	4.45270824432373	0.282490938901901	-0.142719134688377	-0.0086277537047863	-0.948554515838623	Bartender_HumanMale_Mesh_LOD1	Bartender_HumanMale_Mesh_LOD1	-1	-1
0.0112670352682471	0.0123685598373413	0.0217537581920624	0.535263955593109	0.426814585924149	4.99078941345215	0.6327965259552	4.45269203186035	0.282552927732468	-0.142600581049919	-0.00874841399490833	-0.948552846908569	Bartender_HumanMale_Mesh_LOD1	Bartender_HumanMale_Mesh_LOD1	-1	-1
0.0113905714824796	0.0123685598373413	0.0217537581920624	0.535263955593109	0.426814585924149	4.99060201644897	0.632877707481384	4.45269823074341	0.282556414604187	-0.142359361052513	-0.00908347964286804	-0.948584854602814	Bartender_HumanMale_Mesh_LOD1	Bartender_HumanMale_Mesh_LOD1	-1	-1
0.0115931490436196	0.0123685598373413	0.0217537581920624	0.535263955593109	0.426814585924149	4.99040699005127	0.632837772369385	4.45269298553467	0.282498210668564	-0.142220705747604	-0.00940703880041838	-0.948619842529297	Bartender_HumanMale_Mesh_LOD1	Bartender_HumanMale_Mesh_LOD1	-1	-1
0.0166171789169312	0.0123685598373413	0.0217537581920624	0.535263955593109	0.426814585924149	4.9902606010437	0.632800221443176	4.45277643203735	0.282604843378067	-0.142021179199219	-0.00972684007138014	-0.948614716529846	Bartender_HumanMale_Mesh_LOD1	Bartender_HumanMale_Mesh_LOD1	-1	-1
0.00553281418979168	0.0123685598373413	0.0217537581920624	0.535263955593109	0.426814585924149	4.99014520645142	0.632756471633911	4.45278644561768	0.282689154148102	-0.141771227121353	-0.0098514212295413	-0.94862574338913	Bartender_HumanMale_Mesh_LOD1	Bartender_HumanMale_Mesh_LOD1	-1	-1
0.0105205439031124	0.0123685598373413	0.0217537581920624	0.535263955593109	0.426814585924149	4.99000930786133	0.632774114608765	4.45267581939697	0.282812088727951	-0.141541600227356	-0.00971174892038107	-0.948624789714813	Bartender_HumanMale_Mesh_LOD1	Bartender_HumanMale_Mesh_LOD1	-1	-1
0.0117942625656724	0.0133667886257172	0.0191952735185623	0.509528636932373	0.467763602733612	4.9899697303772	0.632737517356873	4.45262908935547	0.282820880413055	-0.141463443636894	-0.00954744126647711	-0.948635518550873	Bartender_HumanMale_Mesh_LOD1	Bartender_HumanMale_Mesh_LOD1	-1	-1
0.0104865860193968	0.0133667886257172	0.0191952735185623	0.509528636932373	0.467763602733612	4.98986959457397	0.632815957069397	4.45258331298828	0.28269225358963	-0.141546934843063	-0.00971778947860003	-0.948659718036652	Bartender_HumanMale_Mesh_LOD1	Bartender_HumanMale_Mesh_LOD1	-1	-1
0.0115694366395473	0.0133667886257172	0.0191952735185623	0.509528636932373	0.467763602733612	4.98982572555542	0.632905960083008	4.45254611968994	0.282643496990204	-0.141663357615471	-0.00975757651031017	-0.948656380176544	Bartender_HumanMale_Mesh_LOD1	Bartender_HumanMale_Mesh_LOD1	-1	-1
0.0108059672638774	0.0133667886257172	0.0191952735185623	0.509528636932373	0.467763602733612	4.98981904983521	0.632890820503235	4.45246982574463	0.282675534486771	-0.141847342252731	-0.00949160102754831	-0.948622047901154	Bartender_HumanMale_Mesh_LOD1	Bartender_HumanMale_Mesh_LOD1	-1	-1
0.0112190255895257	0.0133667886257172	0.0191952735185623	0.509528636932373	0.467763602733612	4.98981380462646	0.632845520973206	4.45242214202881	0.282592207193375	-0.141988649964333	-0.00919743068516254	-0.948628664016724	Bartender_HumanMale_Mesh_LOD1	Bartender_HumanMale_Mesh_LOD1	-1	-1
0.0114093078300357	0.0133667886257172	0.0191952735185623	0.509528636932373	0.467763602733612	4.98971748352051	0.632792711257935	4.45239877700806	0.282703638076782	-0.142169862985611	-0.00893372483551502	-0.948570847511292	Bartender_HumanMale_Mesh_LOD1	Bartender_HumanMale_Mesh_LOD1	-1	-1
0.0109057920053601	0.0243941992521286	0.039417177438736	0.498501181602478	0.487985521554947	4.98966932296753	0.632772207260132	4.45233869552612	0.282666623592377	-0.142477408051491	-0.00904316175729036	-0.948534727096558	Bartender_HumanMale_Mesh_LOD1	Bartender_HumanMale_Mesh_LOD1	-1	-1
0.0112433228641748	0.0243941992521286	0.039417177438736	0.498501181602478	0.487985521554947	4.98962259292603	0.632784366607666	4.4522876739502	0.282657653093338	-0.142795085906982	-0.00911623984575272	-0.948488891124725	Bartender_HumanMale_Mesh_LOD1	Bartender_HumanMale_Mesh_LOD1	-1	-1
0.011359834112227	0.0243941992521286	0.039417177438736	0.498501181602478	0.487985521554947	4.98968315124512	0.63289475440979	4.45221519470215	0.282889425754547	-0.142988324165344	-0.00891066342592239	-0.948392629623413	Bartender_HumanMale_Mesh_LOD1	Bartender_HumanMale_Mesh_LOD1	-1	-1
0.0105360597372055	0.0243941992521286	0.039417177438736	0.498501181602478	0.487985521554947	4.98965883255005	0.632906198501587	4.45209407806396	0.283063322305679	-0.143207788467407	-0.00886266026645899	-0.948308050632477	Bartender_HumanMale_Mesh_LOD1	Bartender_HumanMale_Mesh_LOD1	-1	-1
0.01193624176085	0.0541125982999802	0.0231152772903442	0.38407027721405	0.562785148620605	4.98957300186157	0.632881760597229	4.45202493667603	0.283201307058334	-0.14360836148262	-0.00894856173545122	-0.948205471038818	Bartender_HumanMale_Mesh_LOD1	TheTavern_2	-1	10
0.016665481030941	0.0541125982999802	0.0231152772903442	0.38407027721405	0.562785148620605	4.98953151702881	0.632891893386841	4.45197725296021	0.283154338598251	-0.143827930092812	-0.00887025892734528	-0.948186993598938	Bartender_HumanMale_Mesh_LOD1	TheTavern_2	-1	10
0.00548509741201997	0.0541125982999802	0.0231152772903442	0.38407027721405	0.562785148620605	4.98953533172607	0.632819414138794	4.45184946060181	0.283061951398849	-0.143957287073135	-0.00879039987921715	-0.94819563627243	Bartender_HumanMale_Mesh_LOD1	TheTavern_2	-1	10
0.0110662141814828	0.0541125982999802	0.0231152772903442	0.38407027721405	0.562785148620605	4.98945283889771	0.632855176925659	4.4517650604248	0.282830804586411	-0.144018277525902	-0.0089798467233777	-0.948253631591797	Bartender_HumanMale_Mesh_LOD1	TheTavern_2	-1	10
0.0114312628284097	0.0541125982999802	0.0231152772903442	0.38407027721405	0.562785148620605	4.98930311203003	0.632841229438782	4.45165491104126	0.282877236604691	-0.14394947886467	-0.00925281457602978	-0.94824755191803	Bartender_HumanMale_Mesh_LOD1	TheTavern_2	-1	10
0.0111382286995649	0.0541125982999802	0.0231152772903442	0.38407027721405	0.562785148620605	4.9892258644104	0.632830023765564	4.45155715942383	0.28291642665863	-0.143832147121429	-0.00946077983826399	-0.948251605033875	Bartender_HumanMale_Mesh_LOD1	TheTavern_2	-1	10
0.0114259934052825	0.0571063160896301	0.0274226665496826	0.381076544523239	0.558477759361267	4.98911142349243	0.632821798324585	4.4515061378479	0.283168405294418	-0.143730223178864	-0.00959273613989353	-0.94819051027298	Bartender_HumanMale_Mesh_LOD1	TheTavern_2	-1	10
0.011191800236702	0.0571063160896301	0.0274226665496826	0.381076544523239	0.558477759361267	4.98898506164551	0.632874488830566	4.45137453079224	0.283355534076691	-0.143588736653328	-0.00978648103773594	-0.948154091835022	Bartender_HumanMale_Mesh_LOD1	TheTavern_2	-1	10
0.0115050338208675	0.0571063160896301	0.0274226665496826	0.381076544523239	0.558477759361267	4.98888921737671	0.632970213890076	4.45128631591797	0.283607006072998	-0.143461421132088	-0.0097132408991456	-0.948098957538605	Bartender_HumanMale_Mesh_LOD1	TheTavern_2	-1	10
0.0119461957365274	0.0152179002761841	0.00352388620376587	0.422964960336685	0.589424312114716	4.98876667022705	0.633074045181274	4.45118951797485	0.283855497837067	-0.143362581729889	-0.00965807121247053	-0.948040068149567	Bartender_HumanMale_Mesh_LOD1	TheTavern_2	-1	11
0.0111080761998892	0.0152179002761841	0.00352388620376587	0.422964960336685	0.589424312114716	4.98861694335938	0.633170366287231	4.45104789733887	0.284115612506866	-0.143241465091705	-0.00967547763139009	-0.947980284690857	Bartender_HumanMale_Mesh_LOD1	TheTavern_2	-1	11
0.0109810261055827	0.0152179002761841	0.00352388620376587	0.422964960336685	0.589424312114716	4.98857736587524	0.633152365684509	4.45092630386353	0.284194737672806	-0.142970114946365	-0.0101094264537096	-0.947992980480194	Bartender_HumanMale_Mesh_LOD1	TheTavern_2	-1	11
0.0113776912912726	0.0157238245010376	0.00438660383224487	0.423470884561539	0.588561594486237	4.98851585388184	0.633073329925537	4.45087432861328	0.284436374902725	-0.142671152949333	-0.0105505101382732	-0.947960734367371	Bartender_HumanMale_Mesh_LOD1	TheTavern_2	-1	11
0.0111036850139499	0.0157238245010376	0.00438660383224487	0.423470884561539	0.588561594486237	4.9884147644043	0.63306188583374	4.45095157623291	0.28448224067688	-0.142461687326431	-0.0108730420470238	-0.947974920272827	Bartender_HumanMale_Mesh_LOD1	TheTavern_2	-1	11
0.0114620011299849	0.0157238245010376	0.00438660383224487	0.423470884561539	0.588561594486237	4.98837423324585	0.633036613464355	4.45089292526245	0.28466409444809	-0.142323642969131	-0.0110428631305695	-0.947939038276672	Bartender_HumanMale_Mesh_LOD1	TheTavern_2	-1	11
0.0181804187595844	0.0155139416456223	0.00403526425361633	0.423260986804962	0.588912963867188	4.98830986022949	0.633034348487854	4.45088005065918	0.284761518239975	-0.142176002264023	-0.0110966330394149	-0.947931289672852	Bartender_HumanMale_Mesh_LOD1	TheTavern_2	-1	11
0.00538293085992336	0.0155139416456223	0.00403526425361633	0.423260986804962	0.588912963867188	4.98830318450928	0.633080840110779	4.45087862014771	0.284763932228088	-0.141953334212303	-0.0109251206740737	-0.947965979576111	Bartender_HumanMale_Mesh_LOD1	TheTavern_2	-1	11
0.0101186102256179	0.0155139416456223	0.00403526425361633	0.423260986804962	0.588912963867188	4.98833799362183	0.633012294769287	4.45080757141113	0.284804344177246	-0.141848593950272	-0.0106527833268046	-0.947972536087036	Bartender_HumanMale_Mesh_LOD1	TheTavern_2	-1	11
0.0108554400503635	0.0155139416456223	0.00403526425361633	0.423260986804962	0.588912963867188	4.98835563659668	0.632954716682434	4.4507999420166	0.284702450037003	-0.141845554113388	-0.0104940431192517	-0.948005437850952	Bartender_HumanMale_Mesh_LOD1	TheTavern_2	-1	11
0.011746252886951	0.0155139416456223	0.00403526425361633	0.423260986804962	0.588912963867188	4.98832082748413	0.632936358451843	4.45079803466797	0.284460872411728	-0.141843542456627	-0.0105106700211763	-0.948078036308289	Bartender_HumanMale_Mesh_LOD1	TheTavern_2	-1	11
0.0108697852119803	0.0155139416456223	0.00403526425361633	0.423260986804962	0.588912963867188	4.98834323883057	0.632907271385193	4.45079326629639	0.284287214279175	-0.141852855682373	-0.0104902787134051	-0.948128998279572	Bartender_HumanMale_Mesh_LOD1	TheTavern_2	-1	11
0.0115887578576803	0.0636962354183197	0.0584719032049179	0.375078707933426	0.52640575170517	4.98843955993652	0.63288414478302	4.45081901550293	0.284253239631653	-0.141846612095833	-0.0104395840317011	-0.948140680789948	Bartender_HumanMale_Mesh_LOD1	Cube.002	-1	18
0.0106636947020888	0.0636962354183197	0.0584719032049179	0.375078707933426	0.52640575170517	4.98841381072998	0.632937669754028	4.45068073272705	0.284376353025436	-0.141887202858925	-0.0103073390200734	-0.948099076747894	Bartender_HumanMale_Mesh_LOD1	Cube.002	-1	18
0.0107556153088808	0.0636962354183197	0.0584719032049179	0.375078707933426	0.52640575170517	4.98843288421631	0.632934212684631	4.45068550109863	0.28441709280014	-0.141866236925125	-0.0102062784135342	-0.948091089725494	Bartender_HumanMale_Mesh_LOD1	Cube.002	-1	18
0.0113888150081038	0.0636962354183197	0.0584719032049179	0.375078707933426	0.52640575170517	4.98846960067749	0.632956385612488	4.45071411132813	0.284327030181885	-0.141953140497208	-0.0102160414680839	-0.948104977607727	Bartender_HumanMale_Mesh_LOD1	Cube.002	-1	18
0.0119037479162216	0.116754800081253	0.0283937156200409	0.428137272596359	0.439540147781372	4.98844432830811	0.632936835289001	4.45081901550293	0.284133404493332	-0.141910269856453	-0.00992863997817039	-0.948172569274902	Bartender_HumanMale_Mesh_LOD1	Bartender_HumanMale_Mesh_LOD1	-1	-1
0.0108194332569838	0.116754800081253	0.0283937156200409	0.428137272596359	0.439540147781372	4.98849821090698	0.632868647575378	4.45080709457397	0.283933281898499	-0.141751870512962	-0.00965992640703917	-0.948258936405182	Bartender_HumanMale_Mesh_LOD1	Bartender_HumanMale_Mesh_LOD1	-1	-1
0.0113809118047357	0.0849267840385437	0.0247821062803268	0.39630925655365	0.492715954780579	4.98865461349487	0.632911562919617	4.45086765289307	0.283712387084961	-0.141771763563156	-0.00958487950265408	-0.948322832584381	Bartender_HumanMale_Mesh_LOD1	TheTavern_2	-1	10
0.0110196685418487	0.0849267840385437	0.0247821062803268	0.39630925655365	0.492715954780579	4.98864412307739	0.632908821105957	4.45088005065918	0.283503651618958	-0.141745537519455	-0.00951729062944651	-0.948389887809753	Bartender_HumanMale_Mesh_LOD1	TheTavern_2	-1	10
0.0170993246138096	0.0849267840385437	0.0247821062803268	0.39630925655365	0.492715954780579	4.98875999450684	0.632822513580322	4.4508752822876	0.283468633890152	-0.141748055815697	-0.00959101784974337	-0.948399245738983	Bartender_HumanMale_Mesh_LOD1	TheTavern_2	-1	10
0.00545670185238123	0.0849267840385437	0.0247821062803268	0.39630925655365	0.492715954780579	4.98869562149048	0.632765293121338	4.45090770721436	0.28342017531395	-0.141733407974243	-0.00957066565752029	-0.94841605424881	Bartender_HumanMale_Mesh_LOD1	TheTavern_2	-1	10
0.010858952999115	0.0849267840385437	0.0247821062803268	0.39630925655365	0.492715954780579	4.9886908531189	0.632826447486877	4.45096302032471	0.283476382493973	-0.141714185476303	-0.00965194776654243	-0.94840133190155	Bartender_HumanMale_Mesh_LOD1	TheTavern_2	-1	10
0.0110662141814828	0.0849267840385437	0.0247821062803268	0.39630925655365	0.492715954780579	4.98871088027954	0.632889866828918	4.4510326385498	0.283497661352158	-0.14178754389286	-0.00969426985830069	-0.948383569717407	Bartender_HumanMale_Mesh_LOD1	TheTavern_2	-1	10
0.011432726867497	0.0849267840385437	0.0247821062803268	0.39630925655365	0.492715954780579	4.98878622055054	0.632890105247498	4.45111179351807	0.28347772359848	-0.141897588968277	-0.00979509949684143	-0.948372006416321	Bartender_HumanMale_Mesh_LOD1	TheTavern_2	-1	10
0.0109912725165486	0.0849267840385437	0.0247821062803268	0.39630925655365	0.492715954780579	4.98880910873413	0.632891654968262	4.45125579833984	0.283271819353104	-0.142061695456505	-0.0100516611710191	-0.948406338691711	Bartender_HumanMale_Mesh_LOD1	TheTavern_2	-1	10
0.0114538036286831	0.0849267840385437	0.0247821062803268	0.39630925655365	0.492715954780579	4.98888826370239	0.632825255393982	4.45132350921631	0.282942861318588	-0.142085865139961	-0.0099556865170598	-0.948501884937286	Bartender_HumanMale_Mesh_LOD1	TheTavern_2	-1	10
0.0109821977093816	0.0849267840385437	0.0247821062803268	0.39630925655365	0.492715954780579	4.98896884918213	0.632851004600525	4.45138931274414	0.282564967870712	-0.142176643013954	-0.00997276417911053	-0.948600769042969	Bartender_HumanMale_Mesh_LOD1	TheTavern_2	-1	10
0.0110931461676955	0.0849267840385437	0.0247821062803268	0.39630925655365	0.492715954780579	4.98899745941162	0.632816433906555	4.45145416259766	0.282173544168472	-0.142251461744308	-0.0100825363770127	-0.948704898357391	Bartender_HumanMale_Mesh_LOD1	TheTavern_2	-1	10
0.0111230062320828	0.0849267840385437	0.0247821062803268	0.39630925655365	0.492715954780579	4.98907852172852	0.632745027542114	4.45151042938232	0.281917810440063	-0.142186641693115	-0.0101473880931735	-0.948789954185486	Bartender_HumanMale_Mesh_LOD1	TheTavern_2	-1	10
0.0118329040706158	0.0689141154289246	0.0411809682846069	0.550150156021118	0.47631710767746	4.98909997940063	0.632640480995178	4.45157623291016	0.281642377376556	-0.142171919345856	-0.00994320958852768	-0.948876142501831	Bartender_HumanMale_Mesh_LOD1	Bartender_HumanMale_Mesh_LOD1	-1	-1
0.0109772207215428	0.0689141154289246	0.0411809682846069	0.550150156021118	0.47631710767746	4.98912715911865	0.632614612579346	4.45162200927734	0.281336516141891	-0.142135858535767	-0.00960120745003223	-0.948975741863251	Bartender_HumanMale_Mesh_LOD1	Bartender_HumanMale_Mesh_LOD1	-1	-1
0.0111575499176979	0.0689141154289246	0.0411809682846069	0.550150156021118	0.47631710767746	4.98920392990112	0.632571458816528	4.45171070098877	0.281062871217728	-0.14205139875412	-0.00944341626018286	-0.949071109294891	Bartender_HumanMale_Mesh_LOD1	Bartender_HumanMale_Mesh_LOD1	-1	-1
0.0113249979913235	0.0689141154289246	0.0411809682846069	0.550150156021118	0.47631710767746	4.98929691314697	0.632537484169006	4.45178604125977	0.28063777089119	-0.142063498497009	-0.00936011131852865	-0.949195861816406	Bartender_HumanMale_Mesh_LOD1	Bartender_HumanMale_Mesh_LOD1	-1	-1
0.0175527799874544	0.0681942999362946	0.0413614362478256	0.549430370330811	0.47613662481308	4.98931694030762	0.632527828216553	4.45181894302368	0.280200958251953	-0.142182648181915	-0.00942557863891125	-0.949306428432465	Bartender_HumanMale_Mesh_LOD1	Bartender_HumanMale_Mesh_LOD1	-1	-1
0.00558492261916399	0.0681942999362946	0.0413614362478256	0.549430370330811	0.47613662481308	4.98938751220703	0.63248348236084	4.45182704925537	0.279701352119446	-0.142274260520935	-0.0093912472948432	-0.949440360069275	Bartender_HumanMale_Mesh_LOD1	Bartender_HumanMale_Mesh_LOD1	-1	-1
0.0102307302877307	0.0681942999362946	0.0413614362478256	0.549430370330811	0.47613662481308	4.98954725265503	0.632501363754272	4.45192289352417	0.279310554265976	-0.142313152551651	-0.00933490693569183	-0.949550151824951	Bartender_HumanMale_Mesh_LOD1	Bartender_HumanMale_Mesh_LOD1	-1	-1
0.0107149248942733	0.0681942999362946	0.0413614362478256	0.549430370330811	0.47613662481308	4.98959112167358	0.632467865943909	4.45201396942139	0.278833836317062	-0.142468243837357	-0.00920096877962351	-0.949668288230896	Bartender_HumanMale_Mesh_LOD1	Bartender_HumanMale_Mesh_LOD1	-1	-1
0.0111227137967944	0.0681942999362946	0.0413614362478256	0.549430370330811	0.47613662481308	4.98966598510742	0.632425904273987	4.45209312438965	0.278373032808304	-0.142521008849144	-0.0092478534206748	-0.949795067310333	Bartender_HumanMale_Mesh_LOD1	Bartender_HumanMale_Mesh_LOD1	-1	-1
0.011169551871717	0.0681942999362946	0.0413614362478256	0.549430370330811	0.47613662481308	4.98975038528442	0.632445931434631	4.45217752456665	0.277904361486435	-0.142673581838608	-0.0090569918975234	-0.949911296367645	Bartender_HumanMale_Mesh_LOD1	Bartender_HumanMale_Mesh_LOD1	-1	-1
0.0117336651310325	0.0705872774124146	0.0411475300788879	0.551823318004608	0.476350545883179	4.98981189727783	0.632393717765808	4.45227193832397	0.277593314647675	-0.14259497821331	-0.00891040358692408	-0.950015425682068	Bartender_HumanMale_Mesh_LOD1	Bartender_HumanMale_Mesh_LOD1	-1	-1
0.0111186150461435	0.0705872774124146	0.0411475300788879	0.551823318004608	0.476350545883179	4.98991298675537	0.632345199584961	4.45231628417969	0.27708575129509	-0.142489314079285	-0.00889485701918602	-0.950179576873779	Bartender_HumanMale_Mesh_LOD1	Bartender_HumanMale_Mesh_LOD1	-1	-1
0.0111177368089557	0.0705872774124146	0.0411475300788879	0.551823318004608	0.476350545883179	4.99001979827881	0.632327795028687	4.45237588882446	0.276727467775345	-0.142480537295341	-0.00874180439859629	-0.950286746025085	Bartender_HumanMale_Mesh_LOD1	Bartender_HumanMale_Mesh_LOD1	-1	-1
0.0109508745372295	0.0705872774124146	0.0411475300788879	0.551823318004608	0.476350545883179	4.99008083343506	0.632320642471313	4.45242404937744	0.276506215333939	-0.142628625035286	-0.00850822776556015	-0.950330972671509	Bartender_HumanMale_Mesh_LOD1	Bartender_HumanMale_Mesh_LOD1	-1	-1
0.0112266363576055	0.0705872774124146	0.0411475300788879	0.551823318004608	0.476350545883179	4.99020051956177	0.632290601730347	4.45241546630859	0.276418149471283	-0.142655476927757	-0.00818617735058069	-0.950355470180511	Bartender_HumanMale_Mesh_LOD1	Bartender_HumanMale_Mesh_LOD1	-1	-1
0.0109877595677972	0.0705872774124146	0.0411475300788879	0.551823318004608	0.476350545883179	4.99025344848633	0.632180452346802	4.45242595672607	0.276197731494904	-0.142911672592163	-0.00784373003989458	-0.950383901596069	Bartender_HumanMale_Mesh_LOD1	Bartender_HumanMale_Mesh_LOD1	-1	-1
0.0132652884349227	0.0705872774124146	0.0411475300788879	0.551823318004608	0.476350545883179	4.9903392791748	0.632172346115112	4.452392578125	0.275896519422531	-0.143287762999535	-0.00763862393796444	-0.950416445732117	Bartender_HumanMale_Mesh_LOD1	Bartender_HumanMale_Mesh_LOD1	-1	-1
0.00912943668663502	0.0705872774124146	0.0411475300788879	0.551823318004608	0.476350545883179	4.99041748046875	0.632181763648987	4.45248651504517	0.275629222393036	-0.143649518489838	-0.0073682782240212	-0.950441539287567	Bartender_HumanMale_Mesh_LOD1	Bartender_HumanMale_Mesh_LOD1	-1	-1
0.0169918872416019	0.0705872774124146	0.0411475300788879	0.551823318004608	0.476350545883179	4.99054574966431	0.632135033607483	4.45249843597412	0.275537729263306	-0.144003495573998	-0.00728510413318872	-0.950415134429932	Bartender_HumanMale_Mesh_LOD1	Bartender_HumanMale_Mesh_LOD1	-1	-1
0.00520465103909373	0.0705872774124146	0.0411475300788879	0.551823318004608	0.476350545883179	4.99063682556152	0.632108092308044	4.45251369476318	0.275507718324661	-0.144494354724884	-0.00718069961294532	-0.950350105762482	Bartender_HumanMale_Mesh_LOD1	Bartender_HumanMale_Mesh_LOD1	-1	-1
0.0105530386790633	0.0653913468122482	0.0210035145282745	0.415844678878784	0.496494561433792	4.99078273773193	0.6320641040802	4.45252227783203	0.275340676307678	-0.144981741905212	-0.007211375515908	-0.95032411813736	Bartender_HumanMale_Mesh_LOD1	TheTavern_2	-1	10
0.0112567888572812	0.0653913468122482	0.0210035145282745	0.415844678878784	0.496494561433792	4.99096155166626	0.632031440734863	4.45253467559814	0.275064557790756	-0.145564511418343	-0.0073416861705482	-0.950313925743103	Bartender_HumanMale_Mesh_LOD1	TheTavern_2	-1	10
0.0116800935938954	0.0832642912864685	0.0245704054832459	0.397971749305725	0.492927670478821	4.99106025695801	0.632051348686218	4.45248222351074	0.2749083340168	-0.146155714988709	-0.00729716196656227	-0.950268805027008	Bartender_HumanMale_Mesh_LOD1	TheTavern_2	-1	10
0.010618319734931	0.0832642912864685	0.0245704054832459	0.397971749305725	0.492927670478821	4.9911642074585	0.632098078727722	4.45248174667358	0.274732440710068	-0.146568343043327	-0.00707909185439348	-0.95025771856308	Bartender_HumanMale_Mesh_LOD1	TheTavern_2	-1	10
0.0118484199047089	0.0832642912864685	0.0245704054832459	0.397971749305725	0.492927670478821	4.9914345741272	0.632153630256653	4.452467918396	0.274758785963058	-0.146939784288406	-0.00673837959766388	-0.95019519329071	Bartender_HumanMale_Mesh_LOD1	TheTavern_2	-1	10
0.010675111785531	0.0832642912864685	0.0245704054832459	0.397971749305725	0.492927670478821	4.99154329299927	0.632149219512939	4.45247602462769	0.274700462818146	-0.147473186254501	-0.006433030590415	-0.95013153553009	Bartender_HumanMale_Mesh_LOD1	TheTavern_2	-1	10
0.010951166972518	0.0832642912864685	0.0245704054832459	0.397971749305725	0.492927670478821	4.99170398712158	0.632075428962708	4.45243167877197	0.274686217308044	-0.147841840982437	-0.00627246405929327	-0.950079441070557	Bartender_HumanMale_Mesh_LOD1	TheTavern_2	-1	10
0.0111036850139499	0.0832642912864685	0.0245704054832459	0.397971749305725	0.492927670478821	4.99187898635864	0.632044672966003	4.45240926742554	0.2743801176548	-0.14809487760067	-0.00615373067557812	-0.950129330158234	Bartender_HumanMale_Mesh_LOD1	TheTavern_2	-1	10
0.0116332545876503	0.0832642912864685	0.0245704054832459	0.397971749305725	0.492927670478821	4.99198055267334	0.632020115852356	4.4523606300354	0.274310708045959	-0.148463353514671	-0.00601605884730816	-0.950092673301697	Bartender_HumanMale_Mesh_LOD1	TheTavern_2	-1	10
0.0111877024173737	0.0832642912864685	0.0245704054832459	0.397971749305725	0.492927670478821	4.99217367172241	0.632002472877502	4.45233869552612	0.274154722690582	-0.148760303854942	-0.00597508670762181	-0.950091540813446	Bartender_HumanMale_Mesh_LOD1	TheTavern_2	-1	10
0.0111985336989164	0.0832642912864685	0.0245704054832459	0.397971749305725	0.492927670478821	4.99233818054199	0.631989121437073	4.45228004455566	0.274297922849655	-0.149181917309761	-0.00576770305633545	-0.949985325336456	Bartender_HumanMale_Mesh_LOD1	TheTavern_2	-1	10
0.0110846571624279	0.0832642912864685	0.0245704054832459	0.397971749305725	0.492927670478821	4.99244499206543	0.632010340690613	4.45223712921143	0.274302750825882	-0.149623647332191	-0.00583944655954838	-0.949914038181305	Bartender_HumanMale_Mesh_LOD1	TheTavern_2	-1	10
0.0176441166549921	0.0832642912864685	0.0245704054832459	0.397971749305725	0.492927670478821	4.99256753921509	0.631969332695007	4.45221710205078	0.274209052324295	-0.1499213129282	-0.00595921697095037	-0.949893414974213	Bartender_HumanMale_Mesh_LOD1	TheTavern_2	-1	10
0.00518123200163245	0.0832642912864685	0.0245704054832459	0.397971749305725	0.492927670478821	4.99257278442383	0.631921648979187	4.45218276977539	0.274029076099396	-0.150225251913071	-0.0061964918859303	-0.949895799160004	Bartender_HumanMale_Mesh_LOD1	TheTavern_2	-1	10
0.0107061425223947	0.0832642912864685	0.0245704054832459	0.397971749305725	0.492927670478821	4.99263286590576	0.631891965866089	4.45227909088135	0.273705691099167	-0.150600254535675	-0.00654170988127589	-0.94992733001709	Bartender_HumanMale_Mesh_LOD1	TheTavern_2	-1	10
0.010862173512578	0.0832642912864685	0.0245704054832459	0.397971749305725	0.492927670478821	4.99274063110352	0.63187050819397	4.4522180557251	0.273413747549057	-0.150847107172012	-0.00675941444933414	-0.949970722198486	Bartender_HumanMale_Mesh_LOD1	TheTavern_2	-1	10
0.0112810861319304	0.0832642912864685	0.0245704054832459	0.397971749305725	0.492927670478821	4.99291753768921	0.631898760795593	4.45220041275024	0.273190289735794	-0.151101902127266	-0.00712426658719778	-0.949991881847382	Bartender_HumanMale_Mesh_LOD1	TheTavern_2	-1	10
0.0110135208815336	0.0832642912864685	0.0245704054832459	0.397971749305725	0.492927670478821	4.9929780960083	0.631883025169373	4.45211410522461	0.273131221532822	-0.151373133063316	-0.00738301547244191	-0.949963688850403	Bartender_HumanMale_Mesh_LOD1	TheTavern_2	-1	10
0.0112986508756876	0.0832642912864685	0.0245704054832459	0.397971749305725	0.492927670478821	4.9931058883667	0.631826758384705	4.45207166671753	0.272851020097733	-0.151595786213875	-0.00738525390625	-0.950008690357208	Bartender_HumanMale_Mesh_LOD1	TheTavern_2	-1	10
0.0113454898819327	0.0832642912864685	0.0245704054832459	0.397971749305725	0.492927670478821	4.99321842193604	0.63169276714325	4.45204782485962	0.272643655538559	-0.151529669761658	-0.00736454967409372	-0.950078904628754	Bartender_HumanMale_Mesh_LOD1	TheTavern_2	-1	10
0.0113662742078304	0.0832642912864685	0.0245704054832459	0.397971749305725	0.492927670478821	4.99328517913818	0.631639957427979	4.45213842391968	0.272198915481567	-0.151640698313713	-0.00706215295940638	-0.950191080570221	Bartender_HumanMale_Mesh_LOD1	TheTavern_2	-1	10
0.0115205487236381	0.0832642912864685	0.0245704054832459	0.397971749305725	0.492927670478821	4.9933967590332	0.631592512130737	4.45217800140381	0.271775007247925	-0.15170918405056	-0.00634725298732519	-0.950306475162506	Bartender_HumanMale_Mesh_LOD1	TheTavern_2	-1	10
0.0108563182875514	0.0832642912864685	0.0245704054832459	0.397971749305725	0.492927670478821	4.99360513687134	0.631585359573364	4.45221614837646	0.271449565887451	-0.151771143078804	-0.00579932890832424	-0.95039314031601	Bartender_HumanMale_Mesh_LOD1	TheTavern_2	-1	10
0.0109473615884781	0.0832642912864685	0.0245704054832459	0.397971749305725	0.492927670478821	4.99371957778931	0.631549477577209	4.45216751098633	0.271049559116364	-0.151682078838348	-0.00557116838172078	-0.950522840023041	Bartender_HumanMale_Mesh_LOD1	TheTavern_2	-1	10
0.0109078409150243	0.0832642912864685	0.0245704054832459	0.397971749305725	0.492927670478821	4.99392127990723	0.63138735294342	4.45217323303223	0.270627081394196	-0.151644125580788	-0.00560055766254663	-0.950649082660675	Bartender_HumanMale_Mesh_LOD1	TheTavern_2	-1	10
0.0114499982446432	0.0832642912864685	0.0245704054832459	0.397971749305725	0.492927670478821	4.99410820007324	0.631345748901367	4.45223045349121	0.27023783326149	-0.151632338762283	-0.00553550012409687	-0.950762093067169	Bartender_HumanMale_Mesh_LOD1	TheTavern_2	-1	10
0.0183209348469973	0.0743076503276825	0.0404171794652939	0.555543661117554	0.477080881595612	4.99423122406006	0.631333231925964	4.4523606300354	0.270098298788071	-0.151485919952393	-0.00511613814160228	-0.950827419757843	Bartender_HumanMale_Mesh_LOD1	Bartender_HumanMale_Mesh_LOD1	-1	-1
0.00567508675158024	0.0743076503276825	0.0404171794652939	0.555543661117554	0.477080881595612	4.99433422088623	0.631345391273499	4.45243501663208	0.27009180188179	-0.151526466012001	-0.00453295186161995	-0.950825750827789	Bartender_HumanMale_Mesh_LOD1	Bartender_HumanMale_Mesh_LOD1	-1	-1
0.00947809126228094	0.0749299824237823	0.0396856665611267	0.556166052818298	0.47781240940094	4.99444532394409	0.631300806999207	4.45245122909546	0.269839853048325	-0.151483580470085	-0.00433449540287256	-0.950905084609985	Bartender_HumanMale_Mesh_LOD1	Bartender_HumanMale_Mesh_LOD1	-1	-1
0.0111326668411493	0.0749299824237823	0.0396856665611267	0.556166052818298	0.47781240940094	4.99452209472656	0.631308555603027	4.45246648788452	0.26964458823204	-0.151711016893387	-0.00414006970822811	-0.950925052165985	Bartender_HumanMale_Mesh_LOD1	Bartender_HumanMale_Mesh_LOD1	-1	-1
0.0113680306822062	0.0749299824237823	0.0396856665611267	0.556166052818298	0.47781240940094	4.99462604522705	0.631280303001404	4.45251178741455	0.269311487674713	-0.151850983500481	-0.00395033834502101	-0.950997889041901	Bartender_HumanMale_Mesh_LOD1	Bartender_HumanMale_Mesh_LOD1	-1	-1
0.0111332517117262	0.0749299824237823	0.0396856665611267	0.556166052818298	0.47781240940094	4.99474430084229	0.63124144077301	4.45253944396973	0.268900960683823	-0.151839435100555	-0.0038065433036536	-0.951116502285004	Bartender_HumanMale_Mesh_LOD1	Bartender_HumanMale_Mesh_LOD1	-1	-1
0.0115711931139231	0.0749299824237823	0.0396856665611267	0.556166052818298	0.47781240940094	4.99483633041382	0.63120973110199	4.45260238647461	0.268655806779861	-0.151851966977119	-0.00385230919346213	-0.951183617115021	Bartender_HumanMale_Mesh_LOD1	Bartender_HumanMale_Mesh_LOD1	-1	-1
0.0107992338016629	0.0749299824237823	0.0396856665611267	0.556166052818298	0.47781240940094	4.99489116668701	0.631215810775757	4.45267105102539	0.268361359834671	-0.151924520730972	-0.00381052517332137	-0.951255261898041	Bartender_HumanMale_Mesh_LOD1	Bartender_HumanMale_Mesh_LOD1	-1	-1
0.0111938500776887	0.0749299824237823	0.0396856665611267	0.556166052818298	0.47781240940094	4.9950098991394	0.631151914596558	4.4527006149292	0.268276274204254	-0.152021467685699	-0.00380855076946318	-0.951263844966888	Bartender_HumanMale_Mesh_LOD1	Bartender_HumanMale_Mesh_LOD1	-1	-1
0.0112433228641748	0.0749299824237823	0.0396856665611267	0.556166052818298	0.47781240940094	4.99505186080933	0.63116979598999	4.45270586013794	0.268071353435516	-0.152034640312195	-0.00347010651603341	-0.951320767402649	Bartender_HumanMale_Mesh_LOD1	Bartender_HumanMale_Mesh_LOD1	-1	-1
0.0113203143700957	0.0713320374488831	0.0401974469423294	0.552568078041077	0.477300643920898	4.99509143829346	0.63116979598999	4.4527416229248	0.26797491312027	-0.152009844779968	-0.00337193300947547	-0.95135223865509	Bartender_HumanMale_Mesh_LOD1	Bartender_HumanMale_Mesh_LOD1	-1	-1
0.0107213649898767	0.0713320374488831	0.0401974469423294	0.552568078041077	0.477300643920898	4.99518203735352	0.631107211112976	4.45275115966797	0.268081158399582	-0.152097657322884	-0.00327502284198999	-0.95130866765976	Bartender_HumanMale_Mesh_LOD1	Bartender_HumanMale_Mesh_LOD1	-1	-1
0.0119110662490129	0.0713320374488831	0.0401974469423294	0.552568078041077	0.477300643920898	4.9952540397644	0.631128549575806	4.45271301269531	0.268098771572113	-0.152131706476212	-0.00322782481089234	-0.951298356056213	Bartender_HumanMale_Mesh_LOD1	Bartender_HumanMale_Mesh_LOD1	-1	-1
0.0110205467790365	0.0713320374488831	0.0401974469423294	0.552568078041077	0.477300643920898	4.99527883529663	0.631161212921143	4.45274829864502	0.268256485462189	-0.152051344513893	-0.00316627998836339	-0.951267004013062	Bartender_HumanMale_Mesh_LOD1	Bartender_HumanMale_Mesh_LOD1	-1	-1
0.0171324033290148	0.0713320374488831	0.0401974469423294	0.552568078041077	0.477300643920898	4.99548482894897	0.631242394447327	4.45277786254883	0.268311262130737	-0.151989534497261	-0.00301514472812414	-0.951261878013611	Bartender_HumanMale_Mesh_LOD1	Bartender_HumanMale_Mesh_LOD1	-1	-1
0.00532057695090771	0.0713320374488831	0.0401974469423294	0.552568078041077	0.477300643920898	4.995530128479	0.631272435188293	4.45278882980347	0.268278747797012	-0.151963427662849	-0.00292347278445959	-0.951275527477264	Bartender_HumanMale_Mesh_LOD1	Bartender_HumanMale_Mesh_LOD1	-1	-1
0.0109306750819087	0.0713320374488831	0.0401974469423294	0.552568078041077	0.477300643920898	4.99555158615112	0.631282329559326	4.45284748077393	0.268190920352936	-0.151919707655907	-0.00279061077162623	-0.951307654380798	Bartender_HumanMale_Mesh_LOD1	Bartender_HumanMale_Mesh_LOD1	-1	-1
0.0111540369689465	0.0713320374488831	0.0401974469423294	0.552568078041077	0.477300643920898	4.99552631378174	0.631149172782898	4.45286893844604	0.268219381570816	-0.151871234178543	-0.00276762107387185	-0.951307475566864	Bartender_HumanMale_Mesh_LOD1	Bartender_HumanMale_Mesh_LOD1	-1	-1
0.0109614124521613	0.0713320374488831	0.0401974469423294	0.552568078041077	0.477300643920898	4.99555826187134	0.631169319152832	4.45290994644165	0.268128424882889	-0.151976674795151	-0.00272626802325249	-0.951316356658936	Bartender_HumanMale_Mesh_LOD1	Bartender_HumanMale_Mesh_LOD1	-1	-1
0.0114889331161976	0.0713320374488831	0.0401974469423294	0.552568078041077	0.477300643920898	4.99563074111938	0.631148934364319	4.45296478271484	0.267926663160324	-0.15207576751709	-0.00273019541054964	-0.951357364654541	Bartender_HumanMale_Mesh_LOD1	Bartender_HumanMale_Mesh_LOD1	-1	-1
0.0108940824866295	0.0471875369548798	0.0620434582233429	0.528423547744751	0.579541563987732	4.99565887451172	0.631065130233765	4.4529881477356	0.267704963684082	-0.152073070406914	-0.00270296074450016	-0.951420307159424	Bartender_HumanMale_Mesh_LOD1	Bartender_HumanMale_Mesh_LOD1	-1	-1
0.0118419788777828	0.0471875369548798	0.0620434582233429	0.528423547744751	0.579541563987732	4.99567937850952	0.631025195121765	4.45292186737061	0.267514854669571	-0.152136340737343	-0.00277072587050498	-0.951463460922241	Bartender_HumanMale_Mesh_LOD1	Bartender_HumanMale_Mesh_LOD1	-1	-1
0.010637640953064	0.0672004818916321	0.0235769003629684	0.414035558700562	0.493921160697937	4.99564647674561	0.631044626235962	4.45297622680664	0.267180919647217	-0.15206578373909	-0.00293376669287682	-0.951568067073822	Bartender_HumanMale_Mesh_LOD1	Bartender_HumanMale_Mesh_LOD1	-1	-1
0.0110264010727406	0.0672004818916321	0.0235769003629684	0.414035558700562	0.493921160697937	4.9956750869751	0.631009101867676	4.4530291557312	0.267019897699356	-0.152159497141838	-0.00298767420463264	-0.951598107814789	Bartender_HumanMale_Mesh_LOD1	Bartender_HumanMale_Mesh_LOD1	-1	-1
0.01098249014467	0.0672004818916321	0.0235769003629684	0.414035558700562	0.493921160697937	4.99569082260132	0.63102388381958	4.45307636260986	0.267135143280029	-0.152063086628914	-0.00271242763847113	-0.951582014560699	Bartender_HumanMale_Mesh_LOD1	Bartender_HumanMale_Mesh_LOD1	-1	-1
0.0120954932644963	0.0273253470659256	0.0290005803108215	0.453910708427429	0.546498656272888	4.99567890167236	0.631037473678589	4.45314121246338	0.267213463783264	-0.151973247528076	-0.00230701919645071	-0.951575458049774	Bartender_HumanMale_Mesh_LOD1	TheTavern_2	-1	10
0.0133185675367713	0.0273253470659256	0.0290005803108215	0.453910708427429	0.546498656272888	4.99577474594116	0.631040334701538	4.45319604873657	0.266951382160187	-0.151970356702805	-0.00238357111811638	-0.951649248600006	Bartender_HumanMale_Mesh_LOD1	TheTavern_2	-1	10
0.00849974993616343	0.0273253470659256	0.0290005803108215	0.453910708427429	0.546498656272888	4.99579000473022	0.630966901779175	4.45327615737915	0.266718417406082	-0.152047365903854	-0.00249519944190979	-0.951701998710632	Bartender_HumanMale_Mesh_LOD1	TheTavern_2	-1	10
0.0157418809831142	0.0273253470659256	0.0290005803108215	0.453910708427429	0.546498656272888	4.99582576751709	0.630913019180298	4.45335102081299	0.266458064317703	-0.151939928531647	-0.00253410148434341	-0.951792001724243	Bartender_HumanMale_Mesh_LOD1	TheTavern_2	-1	10
0.00506442785263062	0.0273253470659256	0.0290005803108215	0.453910708427429	0.546498656272888	4.99586486816406	0.630917310714722	4.45343780517578	0.266314178705215	-0.151971489191055	-0.00241649826057255	-0.951827526092529	Bartender_HumanMale_Mesh_LOD1	TheTavern_2	-1	10
0.0114476568996906	0.0273253470659256	0.0290005803108215	0.453910708427429	0.546498656272888	4.99583387374878	0.630922555923462	4.45350551605225	0.266166090965271	-0.151754021644592	-0.00235067866742611	-0.951903760433197	Bartender_HumanMale_Mesh_LOD1	TheTavern_2	-1	10
0.0108800306916237	0.0273253470659256	0.0290005803108215	0.453910708427429	0.546498656272888	4.99579191207886	0.630897641181946	4.45356941223145	0.266028195619583	-0.151724517345428	-0.00239511975087225	-0.951946973800659	Bartender_HumanMale_Mesh_LOD1	TheTavern_2	-1	10
0.0109365293756127	0.0273253470659256	0.0290005803108215	0.453910708427429	0.546498656272888	4.99587726593018	0.630964756011963	4.45364809036255	0.265880793333054	-0.151578903198242	-0.00260653719305992	-0.952010750770569	Bartender_HumanMale_Mesh_LOD1	TheTavern_2	-1	10
0.0112541541457176	0.0273253470659256	0.0290005803108215	0.453910708427429	0.546498656272888	4.99587774276733	0.630943775177002	4.45371389389038	0.265755444765091	-0.151270434260368	-0.00274230283685029	-0.952094435691834	Bartender_HumanMale_Mesh_LOD1	TheTavern_2	-1	10
0.0116291558369994	0.0273253470659256	0.0290005803108215	0.453910708427429	0.546498656272888	4.99575519561768	0.630966186523438	4.45379257202148	0.26566469669342	-0.151171877980232	-0.00274107558652759	-0.952135443687439	Bartender_HumanMale_Mesh_LOD1	TheTavern_2	-1	10
0.0113162156194448	0.0273253470659256	0.0290005803108215	0.453910708427429	0.546498656272888	4.99567270278931	0.630860090255737	4.45383787155151	0.265543043613434	-0.150995895266533	-0.00283041200600564	-0.952197074890137	Bartender_HumanMale_Mesh_LOD1	TheTavern_2	-1	10
0.0105266915634274	0.0273253470659256	0.0290005803108215	0.453910708427429	0.546498656272888	4.99565458297729	0.630820155143738	4.4538402557373	0.265481114387512	-0.150864154100418	-0.00264078052714467	-0.952235698699951	Bartender_HumanMale_Mesh_LOD1	TheTavern_2	-1	10
0.011096952483058	0.0273253470659256	0.0290005803108215	0.453910708427429	0.546498656272888	4.99553918838501	0.630861759185791	4.4539041519165	0.265293926000595	-0.150824159383774	-0.00244879256933928	-0.952294707298279	Bartender_HumanMale_Mesh_LOD1	TheTavern_2	-1	10
0.0112248798832297	0.0273253470659256	0.0290005803108215	0.453910708427429	0.546498656272888	4.99557971954346	0.630900144577026	4.45397996902466	0.265141755342484	-0.150663331151009	-0.00231085135601461	-0.952362895011902	Bartender_HumanMale_Mesh_LOD1	TheTavern_2	-1	10
0.0115527510643005	0.0273253470659256	0.0290005803108215	0.453910708427429	0.546498656272888	4.99549865722656	0.630930542945862	4.45388174057007	0.264937788248062	-0.150444746017456	-0.00242423708550632	-0.952453911304474	Bartender_HumanMale_Mesh_LOD1	TheTavern_2	-1	10
0.0109233567491174	0.0273253470659256	0.0290005803108215	0.453910708427429	0.546498656272888	4.99546003341675	0.630903840065002	4.45396709442139	0.264686435461044	-0.150420799851418	-0.00261852913536131	-0.952527105808258	Bartender_HumanMale_Mesh_LOD1	TheTavern_2	-1	10
0.0115647530183196	0.0715984702110291	0.0458981692790985	0.409637570381165	0.471599906682968	4.99547433853149	0.630906581878662	4.45404100418091	0.264571011066437	-0.150373816490173	-0.00263338559307158	-0.952566564083099	Bartender_HumanMale_Mesh_LOD1	Bartender_HumanMale_Mesh_LOD1	-1	-1
0.0171786565333605	0.0715984702110291	0.0458981692790985	0.409637570381165	0.471599906682968	4.99542284011841	0.630866050720215	4.45417737960815	0.264402985572815	-0.150318577885628	-0.00263639772310853	-0.952621877193451	Bartender_HumanMale_Mesh_LOD1	Bartender_HumanMale_Mesh_LOD1	-1	-1
0.00503046996891499	0.0715984702110291	0.0458981692790985	0.409637570381165	0.471599906682968	4.99533796310425	0.630871057510376	4.45427227020264	0.264378100633621	-0.150227472186089	-0.0023908275179565	-0.952643811702728	Bartender_HumanMale_Mesh_LOD1	Bartender_HumanMale_Mesh_LOD1	-1	-1
0.0110600665211678	0.0715984702110291	0.0458981692790985	0.409637570381165	0.471599906682968	4.99523496627808	0.630811214447021	4.45436859130859	0.264279812574387	-0.150312334299088	-0.00247214385308325	-0.952657520771027	Bartender_HumanMale_Mesh_LOD1	Bartender_HumanMale_Mesh_LOD1	-1	-1
0.0112406881526113	0.0688133090734482	0.0400784760713577	0.412422716617584	0.47741961479187	4.99518060684204	0.63080883026123	4.4544153213501	0.264181673526764	-0.150250852108002	-0.00262659252621233	-0.952693998813629	Bartender_HumanMale_Mesh_LOD1	Bartender_HumanMale_Mesh_LOD1	-1	-1
0.0111452545970678	0.0688133090734482	0.0400784760713577	0.412422716617584	0.47741961479187	4.99508476257324	0.630812525749207	4.454514503479	0.26390552520752	-0.150261804461479	-0.0026643464807421	-0.952768683433533	Bartender_HumanMale_Mesh_LOD1	Bartender_HumanMale_Mesh_LOD1	-1	-1
0.0107971848919988	0.0688133090734482	0.0400784760713577	0.412422716617584	0.47741961479187	4.99500226974487	0.630784630775452	4.45463466644287	0.263712584972382	-0.15025632083416	-0.00300269946455956	-0.952821969985962	Bartender_HumanMale_Mesh_LOD1	Bartender_HumanMale_Mesh_LOD1	-1	-1
0.0111098326742649	0.0788459777832031	0.00576326251029968	0.40239006280899	0.523261308670044	4.99498271942139	0.630706787109375	4.45470428466797	0.263517886400223	-0.150059968233109	-0.003124293172732	-0.952906370162964	Bartender_HumanMale_Mesh_LOD1	TheTavern_2	-1	10
0.0122471340000629	0.0788459777832031	0.00576326251029968	0.40239006280899	0.523261308670044	4.9948410987854	0.630671501159668	4.454833984375	0.263234943151474	-0.1500613540411	-0.00332306092604995	-0.952983677387238	Bartender_HumanMale_Mesh_LOD1	TheTavern_2	-1	10
0.0103085990995169	0.0781992822885513	0.00640472769737244	0.403036773204803	0.523902773857117	4.99487257003784	0.630688190460205	4.45497226715088	0.262994289398193	-0.149994507431984	-0.00339538115076721	-0.953060388565063	Bartender_HumanMale_Mesh_LOD1	TheTavern_2	-1	10
0.0112134637311101	0.0781992822885513	0.00640472769737244	0.403036773204803	0.523902773857117	4.99481868743896	0.630651831626892	4.45516395568848	0.26262179017067	-0.150016486644745	-0.00330956466495991	-0.953159987926483	Bartender_HumanMale_Mesh_LOD1	TheTavern_2	-1	10
0.0110814366489649	0.0781992822885513	0.00640472769737244	0.403036773204803	0.523902773857117	4.99473333358765	0.630646347999573	4.45530939102173	0.262306123971939	-0.149961307644844	-0.00317880255170166	-0.953256011009216	Bartender_HumanMale_Mesh_LOD1	TheTavern_2	-1	10
0.011749473400414	0.0781992822885513	0.00640472769737244	0.403036773204803	0.523902773857117	4.9945855140686	0.630520462989807	4.45541906356812	0.261923521757126	-0.149937614798546	-0.00319248507730663	-0.953364908695221	Bartender_HumanMale_Mesh_LOD1	TheTavern_2	-1	10
0.0109119396656752	0.0781992822885513	0.00640472769737244	0.403036773204803	0.523902773857117	4.9944863319397	0.630503416061401	4.45553398132324	0.261589199304581	-0.149832278490067	-0.00343156442977488	-0.953472375869751	Bartender_HumanMale_Mesh_LOD1	TheTavern_2	-1	10
0.0115108890458941	0.0781992822885513	0.00640472769737244	0.403036773204803	0.523902773857117	4.99443101882935	0.630442142486572	4.4556884765625	0.261174291372299	-0.149758920073509	-0.00368134654127061	-0.953596711158752	Bartender_HumanMale_Mesh_LOD1	TheTavern_2	-1	10
0.0165914166718721	0.0781992822885513	0.00640472769737244	0.403036773204803	0.523902773857117	4.99428224563599	0.630316257476807	4.45584964752197	0.261194348335266	-0.149637535214424	-0.00383188854902983	-0.953609704971313	Bartender_HumanMale_Mesh_LOD1	TheTavern_2	-1	10
0.00548070622608066	0.0781992822885513	0.00640472769737244	0.403036773204803	0.523902773857117	4.99415636062622	0.630364775657654	4.45593881607056	0.261184453964233	-0.149426251649857	-0.00369670544750988	-0.953646063804626	Bartender_HumanMale_Mesh_LOD1	TheTavern_2	-1	10
0.0109201362356544	0.0781992822885513	0.00640472769737244	0.403036773204803	0.523902773857117	4.99409675598145	0.630328893661499	4.4561071395874	0.261170268058777	-0.149364680051804	-0.00340663897804916	-0.953660726547241	Bartender_HumanMale_Mesh_LOD1	TheTavern_2	-1	10
0.01190404035151	0.042785257101059	0.0600220859050751	0.52402126789093	0.577520132064819	4.99411630630493	0.630415201187134	4.45625495910645	0.260734617710114	-0.149424627423286	-0.0031728339381516	-0.953771352767944	Bartender_HumanMale_Mesh_LOD1	Bartender_HumanMale_Mesh_LOD1	-1	-1
0.0105981202796102	0.042785257101059	0.0600220859050751	0.52402126789093	0.577520132064819	4.99406671524048	0.630386352539063	4.45636558532715	0.260634332895279	-0.14947022497654	-0.00324312970042229	-0.953791379928589	Bartender_HumanMale_Mesh_LOD1	Bartender_HumanMale_Mesh_LOD1	-1	-1
0.0114851277321577	0.042785257101059	0.0600220859050751	0.52402126789093	0.577520132064819	4.99401760101318	0.630396127700806	4.45651054382324	0.260379016399384	-0.149356514215469	-0.00351076968945563	-0.953877925872803	Bartender_HumanMale_Mesh_LOD1	Bartender_HumanMale_Mesh_LOD1	-1	-1
0.0112655712291598	0.042785257101059	0.0600220859050751	0.52402126789093	0.577520132064819	4.99392318725586	0.630372047424316	4.45664501190186	0.260134875774384	-0.14919313788414	-0.00351482210680842	-0.953970074653625	Bartender_HumanMale_Mesh_LOD1	Bartender_HumanMale_Mesh_LOD1	-1	-1
0.011435654014349	0.042785257101059	0.0600220859050751	0.52402126789093	0.577520132064819	4.9938268661499	0.63038182258606	4.45693159103394	0.259975552558899	-0.149065181612968	-0.00343304430134594	-0.954033851623535	Bartender_HumanMale_Mesh_LOD1	Bartender_HumanMale_Mesh_LOD1	-1	-1
0.0117175644263625	0.042785257101059	0.0600220859050751	0.52402126789093	0.577520132064819	4.99367952346802	0.630484461784363	4.45709466934204	0.260036736726761	-0.1489517390728	-0.00343970931135118	-0.954034864902496	Bartender_HumanMale_Mesh_LOD1	Bartender_HumanMale_Mesh_LOD1	-1	-1
0.0113018713891506	0.042785257101059	0.0600220859050751	0.52402126789093	0.577520132064819	4.99363422393799	0.630651950836182	4.45722579956055	0.260567218065262	-0.148612171411514	-0.00352473091334105	-0.953942775726318	Bartender_HumanMale_Mesh_LOD1	Bartender_HumanMale_Mesh_LOD1	-1	-1
0.01136305462569	0.042785257101059	0.0600220859050751	0.52402126789093	0.577520132064819	4.99352502822876	0.630767464637756	4.45725965499878	0.261714190244675	-0.148101329803467	-0.0037855573464185	-0.953707158565521	Bartender_HumanMale_Mesh_LOD1	Bartender_HumanMale_Mesh_LOD1	-1	-1
0.0108492933213711	0.042785257101059	0.0600220859050751	0.52402126789093	0.577520132064819	4.99338102340698	0.630868077278137	4.4573540687561	0.262553036212921	-0.147659212350845	-0.00430976552888751	-0.953542947769165	Bartender_HumanMale_Mesh_LOD1	Bartender_HumanMale_Mesh_LOD1	-1	-1
0.0112670352682471	0.042785257101059	0.0600220859050751	0.52402126789093	0.577520132064819	4.99326658248901	0.630905032157898	4.45745182037354	0.26290687918663	-0.147147372364998	-0.00496205221861601	-0.953521430492401	Bartender_HumanMale_Mesh_LOD1	Bartender_HumanMale_Mesh_LOD1	-1	-1
0.0114239444956183	0.042785257101059	0.0600220859050751	0.52402126789093	0.577520132064819	4.99317264556885	0.630876779556274	4.45755195617676	0.262990713119507	-0.146788045763969	-0.00519011216238141	-0.953552424907684	Bartender_HumanMale_Mesh_LOD1	Bartender_HumanMale_Mesh_LOD1	-1	-1
0.0170012563467026	0.042785257101059	0.0600220859050751	0.52402126789093	0.577520132064819	4.99302291870117	0.630895256996155	4.45763301849365	0.262686282396317	-0.146264865994453	-0.0049006356857717	-0.953718245029449	Bartender_HumanMale_Mesh_LOD1	Bartender_HumanMale_Mesh_LOD1	-1	-1
0.0138738984242082	0.042785257101059	0.0600220859050751	0.52402126789093	0.577520132064819	4.99304389953613	0.63089120388031	4.45776844024658	0.262504786252975	-0.146048337221146	-0.00463650282472372	-0.953802704811096	Bartender_HumanMale_Mesh_LOD1	Bartender_HumanMale_Mesh_LOD1	-1	-1
0.011141449213028	0.042785257101059	0.0600220859050751	0.52402126789093	0.577520132064819	4.99301195144653	0.630655884742737	4.4579930305481	0.262225568294525	-0.14542444050312	-0.0037997723557055	-0.953978538513184	Bartender_HumanMale_Mesh_LOD1	Bartender_HumanMale_Mesh_LOD1	-1	-1
0.0106464233249426	0.042785257101059	0.0600220859050751	0.52402126789093	0.577520132064819	4.99296760559082	0.630449295043945	4.45818424224854	0.261613786220551	-0.145246416330338	-0.00293611944653094	-0.954176723957062	Bartender_HumanMale_Mesh_LOD1	Bartender_HumanMale_Mesh_LOD1	-1	-1
0.0118820853531361	0.042785257101059	0.0600220859050751	0.52402126789093	0.577520132064819	4.9929313659668	0.630362987518311	4.4583215713501	0.260972142219543	-0.145054697990417	-0.00243954872712493	-0.95438289642334	Bartender_HumanMale_Mesh_LOD1	Bartender_HumanMale_Mesh_LOD1	-1	-1
0.0106115872040391	0.042785257101059	0.0600220859050751	0.52402126789093	0.577520132064819	4.99296283721924	0.630280017852783	4.45849418640137	0.260222643613815	-0.145014762878418	-0.00195407308638096	-0.954594731330872	Bartender_HumanMale_Mesh_LOD1	Bartender_HumanMale_Mesh_LOD1	-1	-1
0.0113642252981663	0.042785257101059	0.0600220859050751	0.52402126789093	0.577520132064819	4.99294805526733	0.630151510238647	4.45865964889526	0.259653270244598	-0.144866853952408	-0.00178636668715626	-0.954772531986237	Bartender_HumanMale_Mesh_LOD1	Bartender_HumanMale_Mesh_LOD1	-1	-1
0.0109783923253417	0.042785257101059	0.0600220859050751	0.52402126789093	0.577520132064819	4.99298810958862	0.630042552947998	4.45876979827881	0.25890901684761	-0.144798442721367	-0.00159273436293006	-0.954985320568085	Bartender_HumanMale_Mesh_LOD1	Bartender_HumanMale_Mesh_LOD1	-1	-1
0.0112117072567344	0.042785257101059	0.0600220859050751	0.52402126789093	0.577520132064819	4.99301958084106	0.629897713661194	4.45901107788086	0.258024960756302	-0.14469239115715	-0.00159302039537579	-0.955240666866302	Bartender_HumanMale_Mesh_LOD1	Bartender_HumanMale_Mesh_LOD1	-1	-1
0.0113554429262877	0.042785257101059	0.0600220859050751	0.52402126789093	0.577520132064819	4.99309825897217	0.629807591438293	4.45923805236816	0.256953835487366	-0.144513562321663	-0.00131408974993974	-0.955556869506836	Bartender_HumanMale_Mesh_LOD1	Bartender_HumanMale_Mesh_LOD1	-1	-1
0.0112579604610801	0.042785257101059	0.0600220859050751	0.52402126789093	0.577520132064819	4.99313497543335	0.629705190658569	4.45960330963135	0.256161630153656	-0.144298166036606	-0.000872899661771953	-0.9558025598526	Bartender_HumanMale_Mesh_LOD1	Bartender_HumanMale_Mesh_LOD1	-1	-1
0.0109353587031364	0.042785257101059	0.0600220859050751	0.52402126789093	0.577520132064819	4.99320936203003	0.629645824432373	4.45984554290771	0.255453914403915	-0.144098222255707	-0.000608893460594118	-0.956022322177887	Bartender_HumanMale_Mesh_LOD1	Bartender_HumanMale_Mesh_LOD1	-1	-1
0.0119898142293096	0.042785257101059	0.0600220859050751	0.52402126789093	0.577520132064819	4.9933032989502	0.629632472991943	4.46011114120483	0.254890352487564	-0.144116505980492	-9.38676312216558E-05	-0.956170201301575	Bartender_HumanMale_Mesh_LOD1	Bartender_HumanMale_Mesh_LOD1	-1	-1
0.0172995589673519	0.0495381057262421	0.0262885689735413	0.5564124584198	0.447593241930008	4.99347877502441	0.629574775695801	4.46039724349976	0.254483342170715	-0.143886908888817	0.000461656221887097	-0.956313014030457	Bartender_HumanMale_Mesh_LOD1	Bartender_HumanMale_Mesh_LOD1	-1	-1
0.00560980523005128	0.0495381057262421	0.0262885689735413	0.5564124584198	0.447593241930008	4.9935507774353	0.629616856575012	4.46068477630615	0.25422614812851	-0.143902078270912	0.000833859783597291	-0.956378877162933	Bartender_HumanMale_Mesh_LOD1	Bartender_HumanMale_Mesh_LOD1	-1	-1
0.0100044412538409	0.0495381057262421	0.0262885689735413	0.5564124584198	0.447593241930008	4.99376773834229	0.629714608192444	4.46096611022949	0.253977060317993	-0.143779471516609	0.00103170168586075	-0.95646333694458	Bartender_HumanMale_Mesh_LOD1	Bartender_HumanMale_Mesh_LOD1	-1	-1
0.0108768101781607	0.0495381057262421	0.0262885689735413	0.5564124584198	0.447593241930008	4.99389410018921	0.629690289497375	4.46116161346436	0.253954589366913	-0.143677428364754	0.000994984176941216	-0.95648467540741	Bartender_HumanMale_Mesh_LOD1	Bartender_HumanMale_Mesh_LOD1	-1	-1
0.0118182674050331	0.0466874837875366	0.0227104723453522	0.559263110160828	0.444015145301819	4.99402618408203	0.629622578620911	4.46145629882813	0.25390636920929	-0.143538951873779	0.00111159158404917	-0.956518113613129	Bartender_HumanMale_Mesh_LOD1	Bartender_HumanMale_Mesh_LOD1	-1	-1
0.0106101231649518	0.0466874837875366	0.0227104723453522	0.559263110160828	0.444015145301819	4.99411106109619	0.629520535469055	4.4619026184082	0.253933966159821	-0.143585488200188	0.00107655418105423	-0.956503868103027	Bartender_HumanMale_Mesh_LOD1	Bartender_HumanMale_Mesh_LOD1	-1	-1
0.0112989442422986	0.0466874837875366	0.0227104723453522	0.559263110160828	0.444015145301819	4.99423789978027	0.629525423049927	4.46225452423096	0.253354996442795	-0.143509358167648	0.00100357725750655	-0.956668853759766	Bartender_HumanMale_Mesh_LOD1	Bartender_HumanMale_Mesh_LOD1	-1	-1
0.0115726571530104	0.043864980340004	0.0376691222190857	0.541615188121796	0.442252993583679	4.99435043334961	0.629539966583252	4.46260643005371	0.253073900938034	-0.143532887101173	0.000864613335579634	-0.956739902496338	Bartender_HumanMale_Mesh_LOD1	Bartender_HumanMale_Mesh_LOD1	-1	-1
0.010593144223094	0.043864980340004	0.0376691222190857	0.541615188121796	0.442252993583679	4.99440765380859	0.629518628120422	4.46289587020874	0.252587616443634	-0.14343324303627	0.000849549600388855	-0.956883311271667	Bartender_HumanMale_Mesh_LOD1	Bartender_HumanMale_Mesh_LOD1	-1	-1
0.0109148668125272	0.043864980340004	0.0376691222190857	0.541615188121796	0.442252993583679	4.99452781677246	0.629538297653198	4.46329975128174	0.252276211977005	-0.143490016460419	0.000516993750352412	-0.956957221031189	Bartender_HumanMale_Mesh_LOD1	Bartender_HumanMale_Mesh_LOD1	-1	-1
0.0122948503121734	0.0385710597038269	0.04084113240242	0.535856664180756	0.438662678003311	4.9946174621582	0.629589319229126	4.46359157562256	0.252022236585617	-0.143573746085167	-0.000102498721389566	-0.957011699676514	Bartender_HumanMale_Mesh_LOD1	Bartender_HumanMale_Mesh_LOD1	-1	-1
0.0108809089288116	0.0385710597038269	0.04084113240242	0.535856664180756	0.438662678003311	4.99465894699097	0.629435062408447	4.46387052536011	0.251636475324631	-0.143882006406784	-0.000731125997845083	-0.957066655158997	Bartender_HumanMale_Mesh_LOD1	Bartender_HumanMale_Mesh_LOD1	-1	-1
0.0106382258236408	0.0385710597038269	0.04084113240242	0.535856664180756	0.438662678003311	4.9948091506958	0.629370331764221	4.464111328125	0.250971883535385	-0.144067600369453	-0.00136013166047633	-0.957212507724762	Bartender_HumanMale_Mesh_LOD1	Bartender_HumanMale_Mesh_LOD1	-1	-1
0.011372129432857	0.0385710597038269	0.04084113240242	0.535856664180756	0.438662678003311	4.99506282806396	0.629165530204773	4.46440172195435	0.250091761350632	-0.144382044672966	-0.00202463963069022	-0.957394301891327	Bartender_HumanMale_Mesh_LOD1	Bartender_HumanMale_Mesh_LOD1	-1	-1
0.0184345170855522	0.02753946185112	0.00617064535617828	0.547162055969238	0.437520682811737	4.99527359008789	0.629039883613586	4.46462917327881	0.249159619212151	-0.144739583134651	-0.00290770805440843	-0.957581102848053	Bartender_HumanMale_Mesh_LOD1	Bartender_HumanMale_Mesh_LOD1	-1	-1
0.0063170688226819	0.02753946185112	0.00617064535617828	0.547162055969238	0.437520682811737	4.99546337127686	0.628971338272095	4.46480274200439	0.248201042413712	-0.145321145653725	-0.00337568577378988	-0.957740366458893	Bartender_HumanMale_Mesh_LOD1	Bartender_HumanMale_Mesh_LOD1	-1	-1
0.0088185453787446	0.02753946185112	0.00617064535617828	0.547162055969238	0.437520682811737	4.99565362930298	0.628904819488525	4.46494960784912	0.247315779328346	-0.145772740244865	-0.00357978860847652	-0.957899987697601	Bartender_HumanMale_Mesh_LOD1	Bartender_HumanMale_Mesh_LOD1	-1	-1
0.0112936748191714	0.02753946185112	0.00617064535617828	0.547162055969238	0.437520682811737	4.99579381942749	0.628803849220276	4.46509981155396	0.246246516704559	-0.146302163600922	-0.00334353814832866	-0.958095610141754	Bartender_HumanMale_Mesh_LOD1	Bartender_HumanMale_Mesh_LOD1	-1	-1
0.0105811413377523	0.02753946185112	0.00617064535617828	0.547162055969238	0.437520682811737	4.99603605270386	0.628626108169556	4.4651346206665	0.24518845975399	-0.146680474281311	-0.00322226085700095	-0.958309531211853	Bartender_HumanMale_Mesh_LOD1	Bartender_HumanMale_Mesh_LOD1	-1	-1
0.0113273393362761	0.02753946185112	0.00617064535617828	0.547162055969238	0.437520682811737	4.99613428115845	0.628583073616028	4.46526479721069	0.244345739483833	-0.147152781486511	-0.0031526128295809	-0.958452522754669	Bartender_HumanMale_Mesh_LOD1	Bartender_HumanMale_Mesh_LOD1	-1	-1
0.011913993395865	0.0656649023294449	0.000791057944297791	0.503116250038147	0.388223350048065	4.99647045135498	0.628659605979919	4.46536827087402	0.243938505649567	-0.147581681609154	-0.00276847719214857	-0.958491563796997	Bartender_HumanMale_Mesh_LOD1	Bartender_HumanMale_Mesh_LOD1	-1	-1
0.0105749936774373	0.0656649023294449	0.000791057944297791	0.503116250038147	0.388223350048065	4.99665117263794	0.62876558303833	4.46542453765869	0.244232684373856	-0.148074433207512	-0.00219880044460297	-0.9583420753479	Bartender_HumanMale_Mesh_LOD1	Bartender_HumanMale_Mesh_LOD1	-1	-1
0.0112196104601026	0.0656649023294449	0.000791057944297791	0.503116250038147	0.388223350048065	4.99691009521484	0.628972053527832	4.46554183959961	0.24503281712532	-0.148340433835983	-0.00135045812930912	-0.958098232746124	Bartender_HumanMale_Mesh_LOD1	Bartender_HumanMale_Mesh_LOD1	-1	-1
0.0116124702617526	0.0656649023294449	0.000791057944297791	0.503116250038147	0.388223350048065	4.99723720550537	0.629231333732605	4.46565198898315	0.246070757508278	-0.14866541326046	-0.000513117644004524	-0.957782626152039	Bartender_HumanMale_Mesh_LOD1	Bartender_HumanMale_Mesh_LOD1	-1	-1
0.0103888101875782	0.112301900982857	0.07371786236763	0.494913160800934	0.343718945980072	4.99747085571289	0.629431962966919	4.46574831008911	0.246744111180305	-0.148712709546089	-9.4415836429107E-06	-0.957602202892303	Bartender_HumanMale_Mesh_LOD1	Bartender_HumanMale_Mesh_LOD1	-1	-1
0.0111288614571095	0.112301900982857	0.07371786236763	0.494913160800934	0.343718945980072	4.99768352508545	0.629554986953735	4.46591186523438	0.247195303440094	-0.148438438773155	0.000294977857265621	-0.957528293132782	Bartender_HumanMale_Mesh_LOD1	Bartender_HumanMale_Mesh_LOD1	-1	-1
0.0116616506129503	0.0914554446935654	0.020817369222641	0.499094486236572	0.349826335906982	4.99796295166016	0.629556655883789	4.46612167358398	0.247462585568428	-0.148060381412506	0.000657144642900676	-0.957517623901367	Bartender_HumanMale_Mesh_LOD1	Bartender_HumanMale_Mesh_LOD1	-1	-1
0.0114936167374253	0.0914554446935654	0.020817369222641	0.499094486236572	0.349826335906982	4.99816799163818	0.629565358161926	4.46645832061768	0.247588664293289	-0.147520914673805	0.000936348922550678	-0.957568049430847	Bartender_HumanMale_Mesh_LOD1	Bartender_HumanMale_Mesh_LOD1	-1	-1
0.0183159578591585	0.0914554446935654	0.020817369222641	0.499094486236572	0.349826335906982	4.99839544296265	0.629576683044434	4.4667501449585	0.247780188918114	-0.146863549947739	0.0015009636990726	-0.957618832588196	Bartender_HumanMale_Mesh_LOD1	Bartender_HumanMale_Mesh_LOD1	-1	-1
0.00580301461741328	0.0914554446935654	0.020817369222641	0.499094486236572	0.349826335906982	4.99859809875488	0.629451632499695	4.46698951721191	0.248174399137497	-0.146387591958046	0.00223507708869874	-0.957588195800781	Bartender_HumanMale_Mesh_LOD1	Bartender_HumanMale_Mesh_LOD1	-1	-1
0.00906269159168005	0.0987171828746796	0.0522176176309586	0.508937835693359	0.316099226474762	4.99889373779297	0.6293785572052	4.46729564666748	0.248384386301041	-0.145828753709793	0.00306234043091536	-0.957616746425629	Bartender_HumanMale_Mesh_LOD1	Bartender_HumanMale_Mesh_LOD1	-1	-1
0.0112002901732922	0.0987171828746796	0.0522176176309586	0.508937835693359	0.316099226474762	4.99920177459717	0.629268884658813	4.46758365631104	0.248267039656639	-0.145346507430077	0.00416463101282716	-0.957716345787048	Bartender_HumanMale_Mesh_LOD1	Bartender_HumanMale_Mesh_LOD1	-1	-1
0.0114005254581571	0.0296756476163864	0.0963946878910065	0.43989634513855	0.464711517095566	4.99947929382324	0.628966808319092	4.46790838241577	0.247973755002022	-0.144833832979202	0.00493060238659382	-0.957866311073303	Bartender_HumanMale_Mesh_LOD1	Bartender_HumanMale_Mesh_LOD1	-1	-1
0.0113340727984905	0.0296756476163864	0.0963946878910065	0.43989634513855	0.464711517095566	4.99972772598267	0.628697752952576	4.46827220916748	0.247194215655327	-0.14452351629734	0.00568308029323816	-0.958110511302948	Bartender_HumanMale_Mesh_LOD1	Bartender_HumanMale_Mesh_LOD1	-1	-1
0.01108377892524	0.0296756476163864	0.0963946878910065	0.43989634513855	0.464711517095566	5.00000429153442	0.628446578979492	4.4685959815979	0.246420979499817	-0.144077643752098	0.00658900896087289	-0.958370983600616	Bartender_HumanMale_Mesh_LOD1	Bartender_HumanMale_Mesh_LOD1	-1	-1
0.0117105385288596	0.075765460729599	0.00285913050174713	0.485986143350601	0.371175944805145	5.00030708312988	0.628244876861572	4.46891593933105	0.245615407824516	-0.14385087788105	0.00781409163028002	-0.958602607250214	Bartender_HumanMale_Mesh_LOD1	Bartender_HumanMale_Mesh_LOD1	-1	-1
0.011296016164124	0.075765460729599	0.00285913050174713	0.485986143350601	0.371175944805145	5.00061464309692	0.62812602519989	4.46913433074951	0.244835495948792	-0.143585413694382	0.00901649799197912	-0.958831369876862	Bartender_HumanMale_Mesh_LOD1	Bartender_HumanMale_Mesh_LOD1	-1	-1
0.0113981831818819	0.075765460729599	0.00285913050174713	0.485986143350601	0.371175944805145	5.00101470947266	0.628045082092285	4.46930074691772	0.243848577141762	-0.143396571278572	0.0101077910512686	-0.959100186824799	Bartender_HumanMale_Mesh_LOD1	Bartender_HumanMale_Mesh_LOD1	-1	-1
