1.209975	-0.6764565	1.200003	0	1	0	0

1.209975	-0.6764565	1.200003	0	1	0	0

1.209975	-0.6764565	1.200003	0	1	0	0

1.209975	-0.6764565	1.200003	0	1	0	0

1.209975	-0.6764565	1.200003	0	1	0	0

1.209975	-0.6764565	1.200003	0	1	0	0

1.209975	-0.6764565	1.200003	0	1	0	0

1.209975	-0.6764565	1.200003	0	1	0	0

1.209975	-0.6764565	1.200003	0	1	0	0

1.209975	-0.6764565	1.200003	0	1	0	0

1.209975	-0.6580033	1.170003	0	1	0	0

1.209975	-0.6560267	1.140003	0	1	0	0

1.209975	-0.6540896	1.110003	0	1	0	0

1.209975	-0.6522117	1.080003	0	1	0	0

1.209975	-0.6504115	1.050003	0	1	0	0

1.209975	-0.6487072	1.020003	0	1	0	0

1.209975	-0.6471156	0.9900029	0	1	0	0

1.209975	-0.6456529	0.9600029	0	1	0	0

1.209975	-0.6443335	0.9300029	0	1	0	0

1.209975	-0.6431706	0.900003	0	1	0	0

1.209975	-0.6421759	0.870003	0	1	0	0

1.209975	-0.6413593	0.840003	0	1	0	0

1.209975	-0.6407288	0.810003	0	1	0	0

1.209975	-0.640291	0.7800031	0	1	0	0

1.209975	-0.6400501	0.7500031	0	1	0	0

1.209975	-0.6400086	0.7200031	0	1	0	0

1.209975	-0.6401668	0.6900032	0	1	0	0

1.209975	-0.6405231	0.6600032	0	1	0	0

1.209975	-0.641074	0.6300032	0	1	0	0

1.209975	-0.6418141	0.6000032	0	1	0	0

1.209975	-0.6427358	0.5700033	0	1	0	0

1.209975	-0.6438301	0.5400033	0	1	0	0

1.209975	-0.6450859	0.5100033	0	1	0	0

1.209975	-0.6464908	0.4800033	0	1	0	0

1.209975	-0.6480306	0.4500033	0	1	0	0

1.209975	-0.64969	0.4200033	0	1	0	0

1.209975	-0.6514524	0.3900033	0	1	0	0

1.209975	-0.6533002	0.3600033	0	1	0	0

1.209975	-0.655215	0.3300033	0	1	0	0

1.209975	-0.655215	0.3300033	0	1	0	0

1.209975	-0.655215	0.3300033	0	1	0	0

1.209975	-0.655215	0.3300033	0	1	0	0

1.209975	-0.655215	0.3300033	0	1	0	0

1.209975	-0.655215	0.3300033	0	1	0	0

1.209975	-0.655215	0.3300033	0	1	0	0

1.209975	-0.655215	0.3300033	0	1	0	0

1.209975	-0.655215	0.3300033	0	1	0	0

1.209975	-0.655215	0.3300033	0	1	0	0

1.209975	-0.655215	0.3300033	0	1	0	0

1.209975	-0.655215	0.3300033	0	1	0	0

1.209975	-0.655215	0.3300033	0	1	0	0

1.209975	-0.655215	0.3300033	0	1	0	0

